[
  "EX",
  "Delta Species",
  "Dark",
  "Dynamax",
  "Dual Type",
  "Alolan",
  "Ball",
  "Brock's",
  "Erika's",
  "Blaine's",
  "E4",
  "Berry",
  "C",
  "ACE SPEC",
  "Crystal",
  "Board",
  "Eternamax",
  "+",
  "Broken",
  "Cool",
  "GX",
  "ex",
  "Galarian",
  "Gigantamax",
  "Fossil",
  "Fusion Strike",
  "G",
  "Misty's",
  "Holon",
  "Light",
  "Lt. Surge's",
  "GL",
  "Koga's",
  "Giovanni's",
  "FB",
  "Gloves",
  "Lucky",
  "Plate",
  "Imakuni?'s",
  "Lance's",
  "Rapid Strike",
  "Single Strike",
  "TAG TEAM",
  "Team Plasma",
  "SP",
  "Ultra Beast",
  "Team Aqua's",
  "Team Magma's",
  "Prime",
  "Star",
  "Prism Star",
  "Sabrina's",
  "Team Rocket's",
  "Shining",
  "Scoop Up",
  "Potion",
  "Rod",
  "Primal",
  "Shard",
  "Sphere",
  "V"
]