[
  "Sword & Shield",
  "Sun & Moon",
  "XY",
  "Black & White",
  "HeartGold & SoulSilver",
  "Platinum",
  "Diamond & Pearl",
  "EX",
  "E-Card",
  "Neo",
  "Gym",
  "Classic",
  "POP",
  "Promos",
  "Trainer Kits",
  "Other"
]