[
  "\"Big Mama\" Tagawa",
  "0313",
  "2017 Pikachu Project",
  "2019 Pikachu Project",
  "5ban Graphics",
  "Aimi Tomita",
  "AKIRA EGAWA",
  "Akira Komayama",
  "aky CG Works",
  "Anesaki Dynamic",
  "Asako Ito",
  "Asuka Iwashita",
  "Atsuko Nishida",
  "Atsuko Ujiie",
  "Atsushi Furusawa",
  "Avec Yoko",
  "Aya Kusube",
  "Ayaka Yoshida",
  "AYUMI ODASHIMA",
  "Benimaru Itoh",
  "BERUBURI",
  "chibi",
  "Christopher Rush",
  "ConceptLab",
  "CR CG gangs",
  "Craig Turvey",
  "D.A.G Inc.",
  "Daisuke Ito",
  "Daisuke Iwamoto",
  "DemizuPosuka",
  "DOM",
  "Dr. Ooyama",
  "Emi Ando",
  "Emi Miwa",
  "Emi Yoshida",
  "En Morikura",
  "Eri Yamaki",
  "Eske Yoshinob",
  "Etsuya Hattori",
  "Framestore",
  "Fumie Kittaka",
  "Gakuji Nomoto",
  "GAME FREAK inc.",
  "GIDORA",
  "GOSSAN",
  "Hajime Kusajima",
  "Hasegawa Saki",
  "Hasuno",
  "hatachu",
  "Hataya",
  "Hideaki Hakozaki",
  "Hideki Ishikawa",
  "Hideki Kazama",
  "Hideyuki Nakajima",
  "Hikaru Koike",
  "Hiroaki Ito",
  "Hiroki Asanuma",
  "Hiroki Fuchino",
  "Hiromichi Sugiyama",
  "HiRON",
  "Hironobu Yoshida",
  "Hiroyuki Yamamoto",
  "Hisao Nakamura",
  "Hitoshi Ariga",
  "Hizuki Misono",
  "Huang Tzu En",
  "HYOGONOSUKE",
  "Imakuni?",
  "inose yukie",
  "James Turner",
  "Jiro Sasumo",
  "Jumpei Akasaka",
  "Jungo Suzuki",
  "Junsei Kuninobu",
  "K. Hoshiba",
  "K. Utsunomiya",
  "Kagemaru Himeno",
  "Kai Ishikawa",
  "kanahei",
  "Kanako Eo",
  "Katsura Tabata",
  "kawayoo",
  "Kazuaki Aihara",
  "Kazuma Koda",
  "Kazuo Yazawa",
  "Kazuyuki Kano",
  "KEIICHIRO ITO",
  "Keiji Kinebuchi",
  "Keiko Fukuyama",
  "Keiko Moritsugu",
  "Keita Komatsuya",
  "Ken Ikuji",
  "Ken Sugimori",
  "Kenkichi Toyama",
  "Kent Kanetsuna",
  "Kimiya Masago",
  "Kinu Nishimura",
  "kirisAki",
  "KIYOTAKA OSHIYAMA",
  "kodama",
  "Kouji Tajima",
  "Kouki Saitou",
  "Kunihiko Yuyama",
  "kurumitsu",
  "Kyoko Koizumi",
  "Kyoko Umemoto",
  "Lee HyunJung",
  "Ligton",
  "M. Akiyama",
  "MAHOU",
  "Maiko Fujiwara",
  "Makoto Imai",
  "Mana Ibe",
  "Masahiko Ishii",
  "Masakazu Fukuda",
  "Masako Yamashita",
  "match",
  "Megumi Higuchi",
  "Megumi Mizutani",
  "Midori Harada",
  "Mika Pikazo",
  "miki kudo",
  "Miki Tanaka",
  "Mikiko Takeda",
  "Mikio Menjo",
  "Milky Isobe",
  "Mina Nakai",
  "Misa Tsutsui",
  "Misaki Hashimoto",
  "Mitsuhiro Arita",
  "Mizue",
  "Motofumi Fujiwara",
  "MPC Film",
  "Mt. TBT",
  "MUGENUP",
  "N-DESIGN Inc.",
  "Nabana Kensaku",
  "nagimiso",
  "Nagomi Nijo",
  "Nakaoka",
  "Naoki Saito",
  "Naoyo Kimura",
  "Narumi Sato",
  "NC Empire",
  "Nisota Niso",
  "Nobuyuki Fujimoto",
  "Noriko Hotta",
  "Noriko Takaya",
  "Noriko Uono",
  "Nurikabe",
  "OKACHEKE",
  "OOYAMA",
  "ORBITALLINK Inc.",
  "Oswaldo KATO",
  "otumami",
  "Pani Kobayashi",
  "PLANETA",
  "PLANETA Igarashi",
  "PLANETA Mochizuki",
  "PLANETA Otani",
  "PLANETA Tsuji",
  "PLANETA Yamashita",
  "Pokemon Rumble",
  "Q-rais",
  "Reiko Tanoue",
  "Rianti Hidayat",
  "Ryo Ueda",
  "ryoma uratsuka",
  "Ryota Murayama",
  "Ryota Saito",
  "Ryuta Fuse",
  "Ryuta Kusumi",
  "Sachi Matoba",
  "Sachiko Adachi",
  "Sachiko Eba",
  "sadaji",
  "saino misaki",
  "Saki Hayashiro",
  "Sakiko Maeda",
  "Sanosuke Sakuma",
  "SATOSHI NAKAI",
  "Satoshi Ohta",
  "Satoshi Shirai",
  "Saya Tsuruta",
  "Scav",
  "Sekio",
  "Shiburingaru",
  "Shibuzoh.",
  "Shigenori Negishi",
  "Shin Nagasawa",
  "Shin-ichi Yoshida",
  "Shin-ichi Yoshikawa",
  "Shinji Higuchi",
  "Shinji Kanda",
  "Shinya Komatsu",
  "Shizurow",
  "so-taro",
  "Souichirou Gunjima",
  "sowsow",
  "Studio Bora Inc.",
  "sui",
  "Sumiyoshi Kizuki",
  "Suwama Chiaki",
  "T. Honda",
  "Taira Akitsu",
  "Takabon",
  "Takao Unno",
  "Takashi Yamaguchi",
  "take",
  "Takumi Akabane",
  "takuyoa",
  "Teeziro",
  "tetsuya koizumi",
  "The Pokémon Company Art Team",
  "Tika Matsuno",
  "TOKIYA",
  "Tomoaki Imakuni",
  "Tomohiro Kitakaze",
  "Tomokazu Komiya",
  "Tomoko Wakai",
  "Tomomi Kaneko",
  "Toshinao Aoki",
  "Toyste Beach",
  "Uta",
  "Wataru Kawahara",
  "Yasuki Watanabe",
  "Yoshinobu Saito",
  "Yosuke Da Silva",
  "You Iribi",
  "Yousuke Hirata",
  "Yuichi Sawayama",
  "Yuka Morii",
  "Yukiko Baba",
  "Yumi",
  "Yuri Umemura",
  "Yusuke Ishikawa",
  "Yusuke Kozaki",
  "Yusuke Ohmura",
  "Yusuke Shimada",
  "yuu",
  "Yuu Nishida",
  "Yuya Oka",
  "zig",
  "Zu-Ka"
]