[
  {
    "id": 65429,
    "url": "https://pkmncards.com/card/lucario-diamond-pearl-trainer-kit-lucario-tk3l-3/",
    "set-slug": "diamond-pearl-trainer-kit-lucario",
    "data": {
      "post_ID": "65429",
      "post_title": "Lucario \u00b7 Diamond & Pearl Trainer Kit\u2014Lucario (TK3L) #3",
      "card_attachment_id_jpg": "65598",
      "card_attachment_id_png": "",
      "card_name": "Lucario",
      "card_number": "3",
      "card_text": "{C} Feint: 30 damage. This attack's damage isn't affected by Resistance.\r\n\r\n{F}{F} Aura Sphere: 40 damage. Does 20 damage to 1 of your opponent's Benched Pok\u00e9mon. (Don't apply Weakness and Resistance for Benched Pok\u00e9mon.)",
      "flavor_text": "It has the ability to sense the auras of all things. It understands human speech.",
      "pkmn_type[]": [
        "Pok\u00e9mon"
      ],
      "pkmn_artist[]": [
        "Kent Kanetsuna"
      ],
      "pkmn_rarity": "",
      "pkmn_set": "Diamond & Pearl Trainer Kit\u2014Lucario",
      "tcgplayer_id": "86875",
      "sorting_number": "3",
      "release_date_unix": "2007-09-07 12:03:00",
      "pkmn_print_type": "",
      "pkmn_regulation_mark": "",
      "pkmn_format[]": [
        "HP-on (Modified 2008)",
        "DP-on (Modified 2009)",
        "DP-on (Modified 2010)"
      ],
      "pkmn_series[]": [
        "Diamond & Pearl",
        "Trainer Kits"
      ],
      "pkmn_collection": "",
      "pkmn_language": "",
      "card_prints": "",
      "pkmn_stage": "Stage 1",
      "pkmn_evolves_from[]": [
        "Riolu"
      ],
      "pkmn_evolves_into[]": [
        "Lucario LV.X"
      ],
      "pkmn_color[]": [
        "Fighting"
      ],
      "pkmn_hp": "90",
      "pkmn_weakness[]": [
        "Psychic"
      ],
      "pkmn_retreat_cost": "1",
      "pkmn_has[]": [
        "Flavor Text"
      ],
      "pkmn_level": "",
      "card_weakness_modifier": "+20",
      "card_resistance_modifier": ""
    }
  }
]