[
  {
    "id": 28030,
    "url": "https://pkmncards.com/card/dratini-dragon-vault-drv-1/",
    "set-slug": "dragon-vault",
    "data": {
      "post_ID": "28030",
      "post_title": "Dratini \u00b7 Dragon Vault (DRV) #1",
      "card_attachment_id_jpg": "40626",
      "card_attachment_id_png": "",
      "card_name": "Dratini",
      "card_number": "1",
      "card_text": "{G}{L} Wrap: 20 damage. Flip a coin. If heads, the Defending Pok\u00e9mon is now Paralyzed.",
      "flavor_text": "It is called the \"Mirage Pok\u00e9mon\" because so few have seen it. Its shed skin has been found.",
      "pkmn_type[]": [
        "Pok\u00e9mon"
      ],
      "pkmn_artist[]": [
        "Masakazu Fukuda"
      ],
      "pkmn_rarity": "",
      "pkmn_set": "Dragon Vault",
      "tcgplayer_id": "-1",
      "sorting_number": "1",
      "release_date_unix": "2012-10-05 12:01:00",
      "pkmn_print_type": "",
      "pkmn_regulation_mark": "",
      "pkmn_format[]": [
        "BLW-on (Modified 2013)",
        "NXD-on (Modified 2014)",
        "BLW-on (Expanded 2015)",
        "BLW-on (Expanded 2016)",
        "BLW-on (Expanded 2017)",
        "BLW-on (Expanded 2018)",
        "BLW-on (Expanded 2019)",
        "BLW-on (Expanded 2020)",
        "BLW-on (Expanded 2021)",
        "BLW-on (Expanded 2022)"
      ],
      "pkmn_series[]": [
        "Black & White"
      ],
      "pkmn_collection": "",
      "pkmn_language": "",
      "card_prints": "",
      "pkmn_stage": "Basic",
      "pkmn_evolves_into[]": [
        "Dragonair",
        "Dark Dragonair",
        "Light Dragonair"
      ],
      "pkmn_color[]": [
        "Dragon"
      ],
      "pkmn_hp": "40",
      "pkmn_weakness[]": [
        "Dragon"
      ],
      "pkmn_retreat_cost": "1",
      "pkmn_has[]": [
        "Flavor Text"
      ],
      "pkmn_level": "",
      "card_weakness_modifier": "",
      "card_resistance_modifier": ""
    }
  },
  {
    "id": 28032,
    "url": "https://pkmncards.com/card/dratini-dragon-vault-drv-2/",
    "set-slug": "dragon-vault",
    "data": {
      "post_ID": "28032",
      "post_title": "Dratini \u00b7 Dragon Vault (DRV) #2",
      "card_attachment_id_jpg": "40627",
      "card_attachment_id_png": "",
      "card_name": "Dratini",
      "card_number": "2",
      "card_text": "{G} Hypnotic Gaze: The Defending Pok\u00e9mon is now Asleep.\r\n\r\n{L} Tail Whap: 10 damage.",
      "flavor_text": "It is called the \"Mirage Pok\u00e9mon\" because so few have seen it. Its shed skin has been found.",
      "pkmn_type[]": [
        "Pok\u00e9mon"
      ],
      "pkmn_artist[]": [
        "Naoki Saito"
      ],
      "pkmn_rarity": "",
      "pkmn_set": "Dragon Vault",
      "tcgplayer_id": "-1",
      "sorting_number": "2",
      "release_date_unix": "2012-10-05 12:02:00",
      "pkmn_print_type": "",
      "pkmn_regulation_mark": "",
      "pkmn_format[]": [
        "BLW-on (Modified 2013)",
        "NXD-on (Modified 2014)",
        "BLW-on (Expanded 2015)",
        "BLW-on (Expanded 2016)",
        "BLW-on (Expanded 2017)",
        "BLW-on (Expanded 2018)",
        "BLW-on (Expanded 2019)",
        "BLW-on (Expanded 2020)",
        "BLW-on (Expanded 2021)",
        "BLW-on (Expanded 2022)"
      ],
      "pkmn_series[]": [
        "Black & White"
      ],
      "pkmn_collection": "",
      "pkmn_language": "",
      "card_prints": "",
      "pkmn_stage": "Basic",
      "pkmn_evolves_into[]": [
        "Dragonair",
        "Dark Dragonair",
        "Light Dragonair"
      ],
      "pkmn_color[]": [
        "Dragon"
      ],
      "pkmn_hp": "40",
      "pkmn_weakness[]": [
        "Dragon"
      ],
      "pkmn_retreat_cost": "1",
      "pkmn_has[]": [
        "Flavor Text"
      ],
      "pkmn_level": "",
      "card_weakness_modifier": "",
      "card_resistance_modifier": ""
    }
  },
  {
    "id": 28034,
    "url": "https://pkmncards.com/card/dragonair-dragon-vault-drv-3/",
    "set-slug": "dragon-vault",
    "data": {
      "post_ID": "28034",
      "post_title": "Dragonair \u00b7 Dragon Vault (DRV) #3",
      "card_attachment_id_jpg": "40623",
      "card_attachment_id_png": "",
      "card_name": "Dragonair",
      "card_number": "3",
      "card_text": "{C}{C} Tail Whap: 20 damage.\r\n\r\n{G}{L}{C} Dragon Pulse: 70 damage. Discard the top card of your deck.",
      "flavor_text": "If its body takes on an aura, the weather changes instantly. It is said to live in seas and lakes.",
      "pkmn_type[]": [
        "Pok\u00e9mon"
      ],
      "pkmn_artist[]": [
        "Hajime Kusajima"
      ],
      "pkmn_rarity": "",
      "pkmn_set": "Dragon Vault",
      "tcgplayer_id": "-1",
      "sorting_number": "3",
      "release_date_unix": "2012-10-05 12:03:00",
      "pkmn_print_type": "",
      "pkmn_regulation_mark": "",
      "pkmn_format[]": [
        "BLW-on (Modified 2013)",
        "NXD-on (Modified 2014)",
        "BLW-on (Expanded 2015)",
        "BLW-on (Expanded 2016)",
        "BLW-on (Expanded 2017)",
        "BLW-on (Expanded 2018)",
        "BLW-on (Expanded 2019)",
        "BLW-on (Expanded 2020)",
        "BLW-on (Expanded 2021)",
        "BLW-on (Expanded 2022)"
      ],
      "pkmn_series[]": [
        "Black & White"
      ],
      "pkmn_collection": "",
      "pkmn_language": "",
      "card_prints": "",
      "pkmn_stage": "Stage 1",
      "pkmn_evolves_from[]": [
        "Dratini"
      ],
      "pkmn_evolves_into[]": [
        "Dragonite",
        "Dragonite ex",
        "Dragonite-GX"
      ],
      "pkmn_color[]": [
        "Dragon"
      ],
      "pkmn_hp": "70",
      "pkmn_weakness[]": [
        "Dragon"
      ],
      "pkmn_retreat_cost": "2",
      "pkmn_has[]": [
        "Flavor Text"
      ],
      "pkmn_level": "",
      "card_weakness_modifier": "",
      "card_resistance_modifier": ""
    }
  },
  {
    "id": 28036,
    "url": "https://pkmncards.com/card/dragonair-dragon-vault-drv-4/",
    "set-slug": "dragon-vault",
    "data": {
      "post_ID": "28036",
      "post_title": "Dragonair \u00b7 Dragon Vault (DRV) #4",
      "card_attachment_id_jpg": "40624",
      "card_attachment_id_png": "",
      "card_name": "Dragonair",
      "card_number": "4",
      "card_text": "{G} Healing Melody: Heal 10 damage from each of your Pok\u00e9mon.\r\n\r\n{L}{C} Slam: 30x damage. Flip 2 coins. This attack does 30 damage times the number of heads.",
      "flavor_text": "If its body takes on an aura, the weather changes instantly. It is said to live in seas and lakes.",
      "pkmn_type[]": [
        "Pok\u00e9mon"
      ],
      "pkmn_artist[]": [
        "Kagemaru Himeno"
      ],
      "pkmn_rarity": "",
      "pkmn_set": "Dragon Vault",
      "tcgplayer_id": "-1",
      "sorting_number": "4",
      "release_date_unix": "2012-10-05 12:04:00",
      "pkmn_print_type": "",
      "pkmn_regulation_mark": "",
      "pkmn_format[]": [
        "BLW-on (Modified 2013)",
        "NXD-on (Modified 2014)",
        "BLW-on (Expanded 2015)",
        "BLW-on (Expanded 2016)",
        "BLW-on (Expanded 2017)",
        "BLW-on (Expanded 2018)",
        "BLW-on (Expanded 2019)",
        "BLW-on (Expanded 2020)",
        "BLW-on (Expanded 2021)",
        "BLW-on (Expanded 2022)"
      ],
      "pkmn_series[]": [
        "Black & White"
      ],
      "pkmn_collection": "",
      "pkmn_language": "",
      "card_prints": "",
      "pkmn_stage": "Stage 1",
      "pkmn_evolves_from[]": [
        "Dratini"
      ],
      "pkmn_evolves_into[]": [
        "Dragonite",
        "Dragonite ex",
        "Dragonite-GX"
      ],
      "pkmn_color[]": [
        "Dragon"
      ],
      "pkmn_hp": "70",
      "pkmn_weakness[]": [
        "Dragon"
      ],
      "pkmn_retreat_cost": "2",
      "pkmn_has[]": [
        "Flavor Text"
      ],
      "pkmn_level": "",
      "card_weakness_modifier": "",
      "card_resistance_modifier": ""
    }
  },
  {
    "id": 28038,
    "url": "https://pkmncards.com/card/dragonite-dragon-vault-drv-5/",
    "set-slug": "dragon-vault",
    "data": {
      "post_ID": "28038",
      "post_title": "Dragonite \u00b7 Dragon Vault (DRV) #5",
      "card_attachment_id_jpg": "40625",
      "card_attachment_id_png": "",
      "card_name": "Dragonite",
      "card_number": "5",
      "card_text": "{L}{C}{C} Hyper Beam: 50 damage. Flip a coin. If heads, discard an Energy attached to the Defending Pok\u00e9mon.\r\n\r\n{G}{C}{C}{C} Hurricane Tail: 60x damage. Flip 4 coins. This attack does 60 damage times the number of heads.",
      "flavor_text": "It is said to make its home somewhere in the sea. It guides crews of shipwrecks to shore.",
      "pkmn_type[]": [
        "Pok\u00e9mon"
      ],
      "pkmn_artist[]": [
        "Mitsuhiro Arita"
      ],
      "pkmn_rarity": "",
      "pkmn_set": "Dragon Vault",
      "tcgplayer_id": "84915",
      "sorting_number": "5",
      "release_date_unix": "2012-10-05 12:05:00",
      "pkmn_print_type": "",
      "pkmn_regulation_mark": "",
      "pkmn_format[]": [
        "BLW-on (Modified 2013)",
        "NXD-on (Modified 2014)",
        "BLW-on (Expanded 2015)",
        "BLW-on (Expanded 2016)",
        "BLW-on (Expanded 2017)",
        "BLW-on (Expanded 2018)",
        "BLW-on (Expanded 2019)",
        "BLW-on (Expanded 2020)",
        "BLW-on (Expanded 2021)",
        "BLW-on (Expanded 2022)"
      ],
      "pkmn_series[]": [
        "Black & White"
      ],
      "pkmn_collection": "",
      "pkmn_language": "",
      "card_prints": "",
      "pkmn_stage": "Stage 2",
      "pkmn_evolves_from[]": [
        "Dragonair"
      ],
      "pkmn_color[]": [
        "Dragon"
      ],
      "pkmn_hp": "150",
      "pkmn_weakness[]": [
        "Dragon"
      ],
      "pkmn_retreat_cost": "3",
      "pkmn_has[]": [
        "Flavor Text"
      ],
      "pkmn_level": "",
      "card_weakness_modifier": "",
      "card_resistance_modifier": ""
    }
  },
  {
    "id": 28040,
    "url": "https://pkmncards.com/card/bagon-dragon-vault-drv-6/",
    "set-slug": "dragon-vault",
    "data": {
      "post_ID": "28040",
      "post_title": "Bagon \u00b7 Dragon Vault (DRV) #6",
      "card_attachment_id_jpg": "40622",
      "card_attachment_id_png": "",
      "card_name": "Bagon",
      "card_number": "6",
      "card_text": "{C} Headbutt: 10 damage.\r\n\r\n{R}{W} Dragon claw: 20 damage.",
      "flavor_text": "Dreaming of one day flying, it practices by leaping off cliffs every day.",
      "pkmn_type[]": [
        "Pok\u00e9mon"
      ],
      "pkmn_artist[]": [
        "Kouki Saitou"
      ],
      "pkmn_rarity": "",
      "pkmn_set": "Dragon Vault",
      "tcgplayer_id": "83701",
      "sorting_number": "6",
      "release_date_unix": "2012-10-05 12:06:00",
      "pkmn_print_type": "",
      "pkmn_regulation_mark": "",
      "pkmn_format[]": [
        "BLW-on (Modified 2013)",
        "NXD-on (Modified 2014)",
        "BLW-on (Expanded 2015)",
        "BLW-on (Expanded 2016)",
        "BLW-on (Expanded 2017)",
        "BLW-on (Expanded 2018)",
        "BLW-on (Expanded 2019)",
        "BLW-on (Expanded 2020)",
        "BLW-on (Expanded 2021)",
        "BLW-on (Expanded 2022)"
      ],
      "pkmn_series[]": [
        "Black & White"
      ],
      "pkmn_collection": "",
      "pkmn_language": "",
      "card_prints": "",
      "pkmn_stage": "Basic",
      "pkmn_evolves_into[]": [
        "Shelgon"
      ],
      "pkmn_color[]": [
        "Dragon"
      ],
      "pkmn_hp": "50",
      "pkmn_weakness[]": [
        "Dragon"
      ],
      "pkmn_retreat_cost": "1",
      "pkmn_has[]": [
        "Flavor Text"
      ],
      "pkmn_level": "",
      "card_weakness_modifier": "",
      "card_resistance_modifier": ""
    }
  },
  {
    "id": 28042,
    "url": "https://pkmncards.com/card/shelgon-dragon-vault-drv-7/",
    "set-slug": "dragon-vault",
    "data": {
      "post_ID": "28042",
      "post_title": "Shelgon \u00b7 Dragon Vault (DRV) #7",
      "card_attachment_id_jpg": "40639",
      "card_attachment_id_png": "",
      "card_name": "Shelgon",
      "card_number": "7",
      "card_text": "{C} Knock Away: 10+ damage. Flip a coin. If heads, this attack does 20 more damage.\r\n\r\n{R}{W}{C} Rollout: 50 damage.",
      "flavor_text": "Within its rugged shell, its cells have begun changing. The shell peels off the instant it evolves.",
      "pkmn_type[]": [
        "Pok\u00e9mon"
      ],
      "pkmn_artist[]": [
        "Akira Komayama"
      ],
      "pkmn_rarity": "",
      "pkmn_set": "Dragon Vault",
      "tcgplayer_id": "89130",
      "sorting_number": "7",
      "release_date_unix": "2012-10-05 12:07:00",
      "pkmn_print_type": "",
      "pkmn_regulation_mark": "",
      "pkmn_format[]": [
        "BLW-on (Modified 2013)",
        "NXD-on (Modified 2014)",
        "BLW-on (Expanded 2015)",
        "BLW-on (Expanded 2016)",
        "BLW-on (Expanded 2017)",
        "BLW-on (Expanded 2018)",
        "BLW-on (Expanded 2019)",
        "BLW-on (Expanded 2020)",
        "BLW-on (Expanded 2021)",
        "BLW-on (Expanded 2022)"
      ],
      "pkmn_series[]": [
        "Black & White"
      ],
      "pkmn_collection": "",
      "pkmn_language": "",
      "card_prints": "",
      "pkmn_stage": "Stage 1",
      "pkmn_evolves_from[]": [
        "Bagon"
      ],
      "pkmn_evolves_into[]": [
        "Salamence",
        "Salamence ex",
        "Salamence-GX"
      ],
      "pkmn_color[]": [
        "Dragon"
      ],
      "pkmn_hp": "80",
      "pkmn_weakness[]": [
        "Dragon"
      ],
      "pkmn_retreat_cost": "3",
      "pkmn_has[]": [
        "Flavor Text"
      ],
      "pkmn_level": "",
      "card_weakness_modifier": "",
      "card_resistance_modifier": ""
    }
  },
  {
    "id": 28044,
    "url": "https://pkmncards.com/card/salamence-dragon-vault-drv-8/",
    "set-slug": "dragon-vault",
    "data": {
      "post_ID": "28044",
      "post_title": "Salamence \u00b7 Dragon Vault (DRV) #8",
      "card_attachment_id_jpg": "40638",
      "card_attachment_id_png": "",
      "card_name": "Salamence",
      "card_number": "8",
      "card_text": "Ability: Scornful Storm\r\nOnce during your turn (before your attack), you may have your opponent discard cards from his or her hand until he or she has 4 cards left in his or her hand.\r\n\r\n{R}{W}{C}{C} Shred: 90 damage. This attack's damage isn't affected by any effects on the Defending Pok\u00e9mon.",
      "flavor_text": "As a result of its long-held dream of flying, its cellular structure changed, and wings grew out.",
      "pkmn_type[]": [
        "Pok\u00e9mon"
      ],
      "pkmn_artist[]": [
        "BERUBURI"
      ],
      "pkmn_rarity": "",
      "pkmn_set": "Dragon Vault",
      "tcgplayer_id": "88900",
      "sorting_number": "8",
      "release_date_unix": "2012-10-05 12:08:00",
      "pkmn_print_type": "",
      "pkmn_regulation_mark": "",
      "pkmn_format[]": [
        "BLW-on (Modified 2013)",
        "NXD-on (Modified 2014)",
        "BLW-on (Expanded 2015)",
        "BLW-on (Expanded 2016)",
        "BLW-on (Expanded 2017)",
        "BLW-on (Expanded 2018)",
        "BLW-on (Expanded 2019)",
        "BLW-on (Expanded 2020)",
        "BLW-on (Expanded 2021)",
        "BLW-on (Expanded 2022)"
      ],
      "pkmn_series[]": [
        "Black & White"
      ],
      "pkmn_collection": "",
      "pkmn_language": "",
      "card_prints": "",
      "pkmn_stage": "Stage 2",
      "pkmn_evolves_from[]": [
        "Shelgon"
      ],
      "pkmn_evolves_into[]": [
        "Salamence LV.X"
      ],
      "pkmn_color[]": [
        "Dragon"
      ],
      "pkmn_hp": "140",
      "pkmn_weakness[]": [
        "Dragon"
      ],
      "pkmn_retreat_cost": "2",
      "pkmn_has[]": [
        "Ability",
        "Flavor Text"
      ],
      "pkmn_level": "",
      "card_weakness_modifier": "",
      "card_resistance_modifier": ""
    }
  },
  {
    "id": 28046,
    "url": "https://pkmncards.com/card/latias-dragon-vault-drv-9/",
    "set-slug": "dragon-vault",
    "data": {
      "post_ID": "28046",
      "post_title": "Latias \u00b7 Dragon Vault (DRV) #9",
      "card_attachment_id_jpg": "40635",
      "card_attachment_id_png": "",
      "card_name": "Latias",
      "card_number": "9",
      "card_text": "{C} Energy Assist: Attach a basic Energy card from your discard pile to 1 of your Benched Pok\u00e9mon.\r\n\r\n{R}{P} Sky Heal: 40 damage. If Latios is on your Bench, heal 20 damage from this Pok\u00e9mon.",
      "flavor_text": "Its body is covered in a down that can refract light in such a way that it becomes invisible.",
      "pkmn_type[]": [
        "Pok\u00e9mon"
      ],
      "pkmn_artist[]": [
        "Hideaki Hakozaki"
      ],
      "pkmn_rarity": "",
      "pkmn_set": "Dragon Vault",
      "tcgplayer_id": "86654",
      "sorting_number": "9",
      "release_date_unix": "2012-10-05 12:09:00",
      "pkmn_print_type": "",
      "pkmn_regulation_mark": "",
      "pkmn_format[]": [
        "BLW-on (Modified 2013)",
        "NXD-on (Modified 2014)",
        "BLW-on (Expanded 2015)",
        "BLW-on (Expanded 2016)",
        "BLW-on (Expanded 2017)",
        "BLW-on (Expanded 2018)",
        "BLW-on (Expanded 2019)",
        "BLW-on (Expanded 2020)",
        "BLW-on (Expanded 2021)",
        "BLW-on (Expanded 2022)"
      ],
      "pkmn_series[]": [
        "Black & White"
      ],
      "pkmn_collection": "",
      "pkmn_language": "",
      "card_prints": "",
      "pkmn_stage": "Basic",
      "pkmn_color[]": [
        "Dragon"
      ],
      "pkmn_hp": "100",
      "pkmn_weakness[]": [
        "Dragon"
      ],
      "pkmn_retreat_cost": "1",
      "pkmn_has[]": [
        "Flavor Text"
      ],
      "pkmn_level": "",
      "card_weakness_modifier": "",
      "card_resistance_modifier": ""
    }
  },
  {
    "id": 28048,
    "url": "https://pkmncards.com/card/latios-dragon-vault-drv-10/",
    "set-slug": "dragon-vault",
    "data": {
      "post_ID": "28048",
      "post_title": "Latios \u00b7 Dragon Vault (DRV) #10",
      "card_attachment_id_jpg": "40636",
      "card_attachment_id_png": "",
      "card_name": "Latios",
      "card_number": "10",
      "card_text": "{W}{C} Sky Blade: 20 damage. If Latias is on your Bench, this attack does 20 more damage.\r\n\r\n{P}{C}{C} Speed Wing: 60 damage.",
      "flavor_text": "A highly intelligent Pok\u00e9mon. By folding back its wings in flight, it can overtake jet planes.",
      "pkmn_type[]": [
        "Pok\u00e9mon"
      ],
      "pkmn_artist[]": [
        "Ryo Ueda"
      ],
      "pkmn_rarity": "",
      "pkmn_set": "Dragon Vault",
      "tcgplayer_id": "86668",
      "sorting_number": "10",
      "release_date_unix": "2012-10-05 12:10:00",
      "pkmn_print_type": "",
      "pkmn_regulation_mark": "",
      "pkmn_format[]": [
        "BLW-on (Modified 2013)",
        "NXD-on (Modified 2014)",
        "BLW-on (Expanded 2015)",
        "BLW-on (Expanded 2016)",
        "BLW-on (Expanded 2017)",
        "BLW-on (Expanded 2018)",
        "BLW-on (Expanded 2019)",
        "BLW-on (Expanded 2020)",
        "BLW-on (Expanded 2021)",
        "BLW-on (Expanded 2022)"
      ],
      "pkmn_series[]": [
        "Black & White"
      ],
      "pkmn_collection": "",
      "pkmn_language": "",
      "card_prints": "",
      "pkmn_stage": "Basic",
      "pkmn_color[]": [
        "Dragon"
      ],
      "pkmn_hp": "100",
      "pkmn_weakness[]": [
        "Dragon"
      ],
      "pkmn_retreat_cost": "1",
      "pkmn_has[]": [
        "Flavor Text"
      ],
      "pkmn_level": "",
      "card_weakness_modifier": "",
      "card_resistance_modifier": ""
    }
  },
  {
    "id": 28050,
    "url": "https://pkmncards.com/card/rayquaza-dragon-vault-drv-11/",
    "set-slug": "dragon-vault",
    "data": {
      "post_ID": "28050",
      "post_title": "Rayquaza \u00b7 Dragon Vault (DRV) #11",
      "card_attachment_id_jpg": "40637",
      "card_attachment_id_png": "",
      "card_name": "Rayquaza",
      "card_number": "11",
      "card_text": "{L} Dragon Pulse: 40 damage. Discard the top 2 cards of your deck.\r\n\r\n{R}{L}{C} Shred: 90 damage. This attack's damage isn't affected by any effects on the Defending Pok\u00e9mon.",
      "flavor_text": "It lives in the ozone layer far above the clouds and cannot be seen from the ground.",
      "pkmn_type[]": [
        "Pok\u00e9mon"
      ],
      "pkmn_artist[]": [
        "5ban Graphics"
      ],
      "pkmn_rarity": "",
      "pkmn_set": "Dragon Vault",
      "tcgplayer_id": "88631",
      "sorting_number": "11",
      "release_date_unix": "2012-10-05 12:11:00",
      "pkmn_print_type": "",
      "pkmn_regulation_mark": "",
      "pkmn_format[]": [
        "BLW-on (Modified 2013)",
        "NXD-on (Modified 2014)",
        "BLW-on (Expanded 2015)",
        "BLW-on (Expanded 2016)",
        "BLW-on (Expanded 2017)",
        "BLW-on (Expanded 2018)",
        "BLW-on (Expanded 2019)",
        "BLW-on (Expanded 2020)",
        "BLW-on (Expanded 2021)",
        "BLW-on (Expanded 2022)"
      ],
      "pkmn_series[]": [
        "Black & White"
      ],
      "pkmn_collection": "",
      "pkmn_language": "",
      "card_prints": "",
      "pkmn_stage": "Basic",
      "pkmn_color[]": [
        "Dragon"
      ],
      "pkmn_hp": "120",
      "pkmn_weakness[]": [
        "Dragon"
      ],
      "pkmn_retreat_cost": "3",
      "pkmn_has[]": [
        "Flavor Text"
      ],
      "pkmn_level": "",
      "card_weakness_modifier": "",
      "card_resistance_modifier": ""
    }
  },
  {
    "id": 28052,
    "url": "https://pkmncards.com/card/axew-dragon-vault-drv-12/",
    "set-slug": "dragon-vault",
    "data": {
      "post_ID": "28052",
      "post_title": "Axew \u00b7 Dragon Vault (DRV) #12",
      "card_attachment_id_jpg": "40620",
      "card_attachment_id_png": "",
      "card_name": "Axew",
      "card_number": "12",
      "card_text": "{F} Signs of Evolution: Flip a coin. If heads, search your deck for Fraxure, reveal it, and put it into your hand, Shuffle your deck afterward.\r\n\r\n{M} Scratch: 10 damage.",
      "flavor_text": "They use their tusks to crush the berries they eat. Repeated regrowth makes their tusks strong and sharp.",
      "pkmn_type[]": [
        "Pok\u00e9mon"
      ],
      "pkmn_artist[]": [
        "Mizue"
      ],
      "pkmn_rarity": "",
      "pkmn_set": "Dragon Vault",
      "tcgplayer_id": "-1",
      "sorting_number": "12",
      "release_date_unix": "2012-10-05 12:12:00",
      "pkmn_print_type": "",
      "pkmn_regulation_mark": "",
      "pkmn_format[]": [
        "BLW-on (Modified 2013)",
        "NXD-on (Modified 2014)",
        "BLW-on (Expanded 2015)",
        "BLW-on (Expanded 2016)",
        "BLW-on (Expanded 2017)",
        "BLW-on (Expanded 2018)",
        "BLW-on (Expanded 2019)",
        "BLW-on (Expanded 2020)",
        "BLW-on (Expanded 2021)",
        "BLW-on (Expanded 2022)"
      ],
      "pkmn_series[]": [
        "Black & White"
      ],
      "pkmn_collection": "",
      "pkmn_language": "",
      "card_prints": "",
      "pkmn_stage": "Basic",
      "pkmn_evolves_into[]": [
        "Fraxure"
      ],
      "pkmn_color[]": [
        "Dragon"
      ],
      "pkmn_hp": "40",
      "pkmn_weakness[]": [
        "Dragon"
      ],
      "pkmn_retreat_cost": "1",
      "pkmn_has[]": [
        "Flavor Text"
      ],
      "pkmn_level": "",
      "card_weakness_modifier": "",
      "card_resistance_modifier": ""
    }
  },
  {
    "id": 28054,
    "url": "https://pkmncards.com/card/axew-dragon-vault-drv-13/",
    "set-slug": "dragon-vault",
    "data": {
      "post_ID": "28054",
      "post_title": "Axew \u00b7 Dragon Vault (DRV) #13",
      "card_attachment_id_jpg": "40621",
      "card_attachment_id_png": "",
      "card_name": "Axew",
      "card_number": "13",
      "card_text": "{F}{M} Lunge: 30 damage. Flip a coin. If tails, this attack does nothing.",
      "flavor_text": "They mark their territory by leaving gashes in trees with their tusks. If a tusk breaks, a new one grows in quickly.",
      "pkmn_type[]": [
        "Pok\u00e9mon"
      ],
      "pkmn_artist[]": [
        "TOKIYA"
      ],
      "pkmn_rarity": "",
      "pkmn_set": "Dragon Vault",
      "tcgplayer_id": "-1",
      "sorting_number": "13",
      "release_date_unix": "2012-10-05 12:13:00",
      "pkmn_print_type": "",
      "pkmn_regulation_mark": "",
      "pkmn_format[]": [
        "BLW-on (Modified 2013)",
        "NXD-on (Modified 2014)",
        "BLW-on (Expanded 2015)",
        "BLW-on (Expanded 2016)",
        "BLW-on (Expanded 2017)",
        "BLW-on (Expanded 2018)",
        "BLW-on (Expanded 2019)",
        "BLW-on (Expanded 2020)",
        "BLW-on (Expanded 2021)",
        "BLW-on (Expanded 2022)"
      ],
      "pkmn_series[]": [
        "Black & White"
      ],
      "pkmn_collection": "",
      "pkmn_language": "",
      "card_prints": "",
      "pkmn_stage": "Basic",
      "pkmn_evolves_into[]": [
        "Fraxure"
      ],
      "pkmn_color[]": [
        "Dragon"
      ],
      "pkmn_hp": "50",
      "pkmn_weakness[]": [
        "Dragon"
      ],
      "pkmn_retreat_cost": "1",
      "pkmn_has[]": [
        "Flavor Text"
      ],
      "pkmn_level": "",
      "card_weakness_modifier": "",
      "card_resistance_modifier": ""
    }
  },
  {
    "id": 28056,
    "url": "https://pkmncards.com/card/fraxure-dragon-vault-drv-14/",
    "set-slug": "dragon-vault",
    "data": {
      "post_ID": "28056",
      "post_title": "Fraxure \u00b7 Dragon Vault (DRV) #14",
      "card_attachment_id_jpg": "40631",
      "card_attachment_id_png": "",
      "card_name": "Fraxure",
      "card_number": "14",
      "card_text": "Ability: Grit\r\nIf this Pok\u00e9mon is affected by a Special Condition, each of its attacks does 40 more damage (before applying Weakness and Resistance).\r\n\r\n{F}{M}{C} Dragon Claw: 60 damage.",
      "flavor_text": "Since a broken tusk will not grow back, they diligently sharpen their tusks on river rocks after they've been fighting.",
      "pkmn_type[]": [
        "Pok\u00e9mon"
      ],
      "pkmn_artist[]": [
        "Shin Nagasawa"
      ],
      "pkmn_rarity": "",
      "pkmn_set": "Dragon Vault",
      "tcgplayer_id": "-1",
      "sorting_number": "14",
      "release_date_unix": "2012-10-05 12:14:00",
      "pkmn_print_type": "",
      "pkmn_regulation_mark": "",
      "pkmn_format[]": [
        "BLW-on (Modified 2013)",
        "NXD-on (Modified 2014)",
        "BLW-on (Expanded 2015)",
        "BLW-on (Expanded 2016)",
        "BLW-on (Expanded 2017)",
        "BLW-on (Expanded 2018)",
        "BLW-on (Expanded 2019)",
        "BLW-on (Expanded 2020)",
        "BLW-on (Expanded 2021)",
        "BLW-on (Expanded 2022)"
      ],
      "pkmn_series[]": [
        "Black & White"
      ],
      "pkmn_collection": "",
      "pkmn_language": "",
      "card_prints": "",
      "pkmn_stage": "Stage 1",
      "pkmn_evolves_from[]": [
        "Axew"
      ],
      "pkmn_evolves_into[]": [
        "Haxorus"
      ],
      "pkmn_color[]": [
        "Dragon"
      ],
      "pkmn_hp": "70",
      "pkmn_weakness[]": [
        "Dragon"
      ],
      "pkmn_retreat_cost": "1",
      "pkmn_has[]": [
        "Ability",
        "Flavor Text"
      ],
      "pkmn_level": "",
      "card_weakness_modifier": "",
      "card_resistance_modifier": ""
    }
  },
  {
    "id": 28058,
    "url": "https://pkmncards.com/card/fraxure-dragon-vault-drv-15/",
    "set-slug": "dragon-vault",
    "data": {
      "post_ID": "28058",
      "post_title": "Fraxure \u00b7 Dragon Vault (DRV) #15",
      "card_attachment_id_jpg": "40632",
      "card_attachment_id_png": "",
      "card_name": "Fraxure",
      "card_number": "15",
      "card_text": "{M}{C} Scratch: 20 damage.\r\n\r\n{F}{C}{C} Sharp Fang: 40 damage.",
      "flavor_text": "Their tusks can shatter rocks. Territory battles between Fraxure can be intensely violent.",
      "pkmn_type[]": [
        "Pok\u00e9mon"
      ],
      "pkmn_artist[]": [
        "match"
      ],
      "pkmn_rarity": "",
      "pkmn_set": "Dragon Vault",
      "tcgplayer_id": "-1",
      "sorting_number": "15",
      "release_date_unix": "2012-10-05 12:15:00",
      "pkmn_print_type": "",
      "pkmn_regulation_mark": "",
      "pkmn_format[]": [
        "BLW-on (Modified 2013)",
        "NXD-on (Modified 2014)",
        "BLW-on (Expanded 2015)",
        "BLW-on (Expanded 2016)",
        "BLW-on (Expanded 2017)",
        "BLW-on (Expanded 2018)",
        "BLW-on (Expanded 2019)",
        "BLW-on (Expanded 2020)",
        "BLW-on (Expanded 2021)",
        "BLW-on (Expanded 2022)"
      ],
      "pkmn_series[]": [
        "Black & White"
      ],
      "pkmn_collection": "",
      "pkmn_language": "",
      "card_prints": "",
      "pkmn_stage": "Stage 1",
      "pkmn_evolves_from[]": [
        "Axew"
      ],
      "pkmn_evolves_into[]": [
        "Haxorus"
      ],
      "pkmn_color[]": [
        "Dragon"
      ],
      "pkmn_hp": "80",
      "pkmn_weakness[]": [
        "Dragon"
      ],
      "pkmn_retreat_cost": "2",
      "pkmn_has[]": [
        "Flavor Text"
      ],
      "pkmn_level": "",
      "card_weakness_modifier": "",
      "card_resistance_modifier": ""
    }
  },
  {
    "id": 28060,
    "url": "https://pkmncards.com/card/haxorus-dragon-vault-drv-16/",
    "set-slug": "dragon-vault",
    "data": {
      "post_ID": "28060",
      "post_title": "Haxorus \u00b7 Dragon Vault (DRV) #16",
      "card_attachment_id_jpg": "40633",
      "card_attachment_id_png": "",
      "card_name": "Haxorus",
      "card_number": "16",
      "card_text": "{C}{C} Axe Slugger: 60+ damage. If the Defending Pok\u00e9mon is a {C} Pok\u00e9mon, this attack does 60 more damage.\r\n\r\n{F}{M}{C}{C} Dragon Pulse: 100 damage. Discard the top card of your deck.",
      "flavor_text": "They are kind but can be relentless when defending territory. They challenge foes with tusks that can cut steel.",
      "pkmn_type[]": [
        "Pok\u00e9mon"
      ],
      "pkmn_artist[]": [
        "Eske Yoshinob"
      ],
      "pkmn_rarity": "",
      "pkmn_set": "Dragon Vault",
      "tcgplayer_id": "86034",
      "sorting_number": "16",
      "release_date_unix": "2012-10-05 12:16:00",
      "pkmn_print_type": "",
      "pkmn_regulation_mark": "",
      "pkmn_format[]": [
        "BLW-on (Modified 2013)",
        "NXD-on (Modified 2014)",
        "BLW-on (Expanded 2015)",
        "BLW-on (Expanded 2016)",
        "BLW-on (Expanded 2017)",
        "BLW-on (Expanded 2018)",
        "BLW-on (Expanded 2019)",
        "BLW-on (Expanded 2020)",
        "BLW-on (Expanded 2021)",
        "BLW-on (Expanded 2022)"
      ],
      "pkmn_series[]": [
        "Black & White"
      ],
      "pkmn_collection": "",
      "pkmn_language": "",
      "card_prints": "",
      "pkmn_stage": "Stage 2",
      "pkmn_evolves_from[]": [
        "Fraxure"
      ],
      "pkmn_color[]": [
        "Dragon"
      ],
      "pkmn_hp": "140",
      "pkmn_weakness[]": [
        "Dragon"
      ],
      "pkmn_retreat_cost": "2",
      "pkmn_has[]": [
        "Flavor Text"
      ],
      "pkmn_level": "",
      "card_weakness_modifier": "",
      "card_resistance_modifier": ""
    }
  },
  {
    "id": 28062,
    "url": "https://pkmncards.com/card/druddigon-dragon-vault-drv-17/",
    "set-slug": "dragon-vault",
    "data": {
      "post_ID": "28062",
      "post_title": "Druddigon \u00b7 Dragon Vault (DRV) #17",
      "card_attachment_id_jpg": "40628",
      "card_attachment_id_png": "",
      "card_name": "Druddigon",
      "card_number": "17",
      "card_text": "{C}{C} Tight Jaw: 20 damage. Flip a coin. If heads, the Defending Pok\u00e9mon is now Paralyzed.\r\n\r\n{R}{W}{C} Dragon Tail: 80x damage. Flip 2 coins. This attack does 80 damage times the number of heads.",
      "flavor_text": "It races through narrow caves, using its sharp claws to catch prey. The skin on its face is harder than a rock.",
      "pkmn_type[]": [
        "Pok\u00e9mon"
      ],
      "pkmn_artist[]": [
        "kawayoo"
      ],
      "pkmn_rarity": "",
      "pkmn_set": "Dragon Vault",
      "tcgplayer_id": "84979",
      "sorting_number": "17",
      "release_date_unix": "2012-10-05 12:17:00",
      "pkmn_print_type": "",
      "pkmn_regulation_mark": "",
      "pkmn_format[]": [
        "BLW-on (Modified 2013)",
        "NXD-on (Modified 2014)",
        "BLW-on (Expanded 2015)",
        "BLW-on (Expanded 2016)",
        "BLW-on (Expanded 2017)",
        "BLW-on (Expanded 2018)",
        "BLW-on (Expanded 2019)",
        "BLW-on (Expanded 2020)",
        "BLW-on (Expanded 2021)",
        "BLW-on (Expanded 2022)"
      ],
      "pkmn_series[]": [
        "Black & White"
      ],
      "pkmn_collection": "",
      "pkmn_language": "",
      "card_prints": "",
      "pkmn_stage": "Basic",
      "pkmn_color[]": [
        "Dragon"
      ],
      "pkmn_hp": "110",
      "pkmn_weakness[]": [
        "Dragon"
      ],
      "pkmn_retreat_cost": "2",
      "pkmn_has[]": [
        "Flavor Text"
      ],
      "pkmn_level": "",
      "card_weakness_modifier": "",
      "card_resistance_modifier": ""
    }
  },
  {
    "id": 28064,
    "url": "https://pkmncards.com/card/exp-share-dragon-vault-drv-18/",
    "set-slug": "dragon-vault",
    "data": {
      "post_ID": "28064",
      "post_title": "Exp. Share \u00b7 Dragon Vault (DRV) #18",
      "card_attachment_id_jpg": "40629",
      "card_attachment_id_png": "",
      "card_name": "Exp. Share",
      "card_number": "18",
      "card_text": "When your Active Pok\u00e9mon is Knocked Out by damage from an opponent's attack, you may move 1 basic Energy card that was attached to that Pok\u00e9mon to the Pok\u00e9mon this card is attached to.",
      "flavor_text": "",
      "pkmn_type[]": [
        "Trainer",
        "- Item",
        "- Pok\u00e9mon Tool"
      ],
      "pkmn_artist[]": [
        "Ryo Ueda"
      ],
      "pkmn_rarity": "",
      "pkmn_set": "Dragon Vault",
      "tcgplayer_id": "85366",
      "sorting_number": "18",
      "release_date_unix": "2012-10-05 12:18:00",
      "pkmn_print_type": "",
      "pkmn_regulation_mark": "",
      "pkmn_format[]": [
        "BLW-on (Modified 2013)",
        "NXD-on (Modified 2014)",
        "BLW-on (Expanded 2015)",
        "BLW-on (Expanded 2016)",
        "BLW-on (Expanded 2017)",
        "BLW-on (Expanded 2018)",
        "BLW-on (Expanded 2019)",
        "BLW-on (Expanded 2020)",
        "BLW-on (Expanded 2021)",
        "BLW-on (Expanded 2022)"
      ],
      "pkmn_series[]": [
        "Black & White"
      ],
      "pkmn_collection": "",
      "pkmn_language": "",
      "card_prints": "",
      "pkmn_stage": "",
      "pkmn_hp": "",
      "pkmn_retreat_cost": "",
      "pkmn_level": "",
      "card_weakness_modifier": "",
      "card_resistance_modifier": ""
    }
  },
  {
    "id": 28066,
    "url": "https://pkmncards.com/card/first-ticket-dragon-vault-drv-19/",
    "set-slug": "dragon-vault",
    "data": {
      "post_ID": "28066",
      "post_title": "First Ticket \u00b7 Dragon Vault (DRV) #19",
      "card_attachment_id_jpg": "40630",
      "card_attachment_id_png": "",
      "card_name": "First Ticket",
      "card_number": "19",
      "card_text": "Before you flip a coin to decide who goes first in a game, you may play this card. Don't flip that coin, and you go first. If both players play First Ticket, flip the coin as normal. (You may play only 1 First Ticket before you flip that coin.)",
      "flavor_text": "",
      "pkmn_type[]": [
        "Trainer",
        "- Item"
      ],
      "pkmn_artist[]": [
        "5ban Graphics"
      ],
      "pkmn_rarity": "",
      "pkmn_set": "Dragon Vault",
      "tcgplayer_id": "85470",
      "sorting_number": "19",
      "release_date_unix": "2012-10-05 12:19:00",
      "pkmn_print_type": "",
      "pkmn_regulation_mark": "",
      "pkmn_format[]": [
        "BLW-on (Modified 2013)",
        "NXD-on (Modified 2014)",
        "BLW-on (Expanded 2015)",
        "BLW-on (Expanded 2016)",
        "BLW-on (Expanded 2017)",
        "BLW-on (Expanded 2018)",
        "BLW-on (Expanded 2019)",
        "BLW-on (Expanded 2020)",
        "BLW-on (Expanded 2021)",
        "BLW-on (Expanded 2022)"
      ],
      "pkmn_series[]": [
        "Black & White"
      ],
      "pkmn_collection": "",
      "pkmn_language": "",
      "card_prints": "",
      "pkmn_stage": "",
      "pkmn_hp": "",
      "pkmn_retreat_cost": "",
      "pkmn_level": "",
      "card_weakness_modifier": "",
      "card_resistance_modifier": ""
    }
  },
  {
    "id": 28068,
    "url": "https://pkmncards.com/card/super-rod-dragon-vault-drv-20/",
    "set-slug": "dragon-vault",
    "data": {
      "post_ID": "28068",
      "post_title": "Super Rod \u00b7 Dragon Vault (DRV) #20",
      "card_attachment_id_jpg": "40640",
      "card_attachment_id_png": "",
      "card_name": "Super Rod",
      "card_number": "20",
      "card_text": "Shuffle 3 in any combination of Pok\u00e9mon and basic Energy cards from your discard pile back into your deck.",
      "flavor_text": "",
      "pkmn_type[]": [
        "Trainer",
        "- Item"
      ],
      "pkmn_artist[]": [
        "5ban Graphics"
      ],
      "pkmn_rarity": "",
      "pkmn_set": "Dragon Vault",
      "tcgplayer_id": "89632",
      "sorting_number": "20",
      "release_date_unix": "2012-10-05 12:20:00",
      "pkmn_print_type": "",
      "pkmn_regulation_mark": "",
      "pkmn_format[]": [
        "BLW-on (Modified 2013)",
        "NXD-on (Modified 2014)",
        "BLW-on (Expanded 2015)",
        "BLW-on (Expanded 2016)",
        "BLW-on (Expanded 2017)",
        "BLW-on (Expanded 2018)",
        "BLW-on (Expanded 2019)",
        "BLW-on (Expanded 2020)",
        "BLW-on (Expanded 2021)",
        "BLW-on (Expanded 2022)"
      ],
      "pkmn_series[]": [
        "Black & White"
      ],
      "pkmn_collection": "",
      "pkmn_language": "",
      "card_prints": "",
      "pkmn_stage": "",
      "pkmn_hp": "",
      "pkmn_retreat_cost": "",
      "pkmn_is[]": [
        "Rod"
      ],
      "pkmn_level": "",
      "card_weakness_modifier": "",
      "card_resistance_modifier": ""
    }
  },
  {
    "id": 28070,
    "url": "https://pkmncards.com/card/kyurem-dragon-vault-drv-21/",
    "set-slug": "dragon-vault",
    "data": {
      "post_ID": "28070",
      "post_title": "Kyurem \u00b7 Dragon Vault (DRV) #21",
      "card_attachment_id_jpg": "40634",
      "card_attachment_id_png": "",
      "card_name": "Kyurem",
      "card_number": "21",
      "card_text": "{C}{C}{C} Dragon Claw: 60 damage.\r\n\r\n{W}{P}{C}{C} Blizzard: 90 damage. Does 10 damage to each of your opponent's Benched Pok\u00e9mon. (Don't apply Weakness and Resistance for Benched Pok\u00e9mon.)",
      "flavor_text": "It can produce ultracold air. Its body is frozen.",
      "pkmn_type[]": [
        "Pok\u00e9mon"
      ],
      "pkmn_artist[]": [
        "Ryo Ueda"
      ],
      "pkmn_rarity": "",
      "pkmn_set": "Dragon Vault",
      "tcgplayer_id": "86563",
      "sorting_number": "21",
      "release_date_unix": "2012-10-05 12:21:00",
      "pkmn_print_type": "",
      "pkmn_regulation_mark": "",
      "pkmn_format[]": [
        "BLW-on (Modified 2013)",
        "NXD-on (Modified 2014)",
        "BLW-on (Expanded 2015)",
        "BLW-on (Expanded 2016)",
        "BLW-on (Expanded 2017)",
        "BLW-on (Expanded 2018)",
        "BLW-on (Expanded 2019)",
        "BLW-on (Expanded 2020)",
        "BLW-on (Expanded 2021)",
        "BLW-on (Expanded 2022)"
      ],
      "pkmn_series[]": [
        "Black & White"
      ],
      "pkmn_collection": "",
      "pkmn_language": "",
      "card_prints": "",
      "pkmn_stage": "Basic",
      "pkmn_color[]": [
        "Dragon"
      ],
      "pkmn_hp": "130",
      "pkmn_weakness[]": [
        "Dragon"
      ],
      "pkmn_retreat_cost": "2",
      "pkmn_has[]": [
        "Flavor Text"
      ],
      "pkmn_level": "",
      "card_weakness_modifier": "",
      "card_resistance_modifier": ""
    }
  }
]