[
  {
    "id": 11226,
    "url": "https://pkmncards.com/card/entei-pop-series-2-p2-1/",
    "set-slug": "pop-series-2",
    "data": {
      "post_ID": "11226",
      "post_title": "Entei \u00b7 POP Series 2 (P2) #1",
      "card_attachment_id_jpg": "21864",
      "card_attachment_id_png": "",
      "card_name": "Entei",
      "card_number": "1",
      "card_text": "{C}{C} Stomp: 10+ damage. Flip a coin. If heads, this attack does 10 damage plus 20 more damage.\r\n\r\n{R}{R}{C} Fire Spin: 50 damage. Discard 2 Basic Energy cards attached to Entei or this attack does nothing.",
      "flavor_text": "",
      "pkmn_type[]": [
        "Pok\u00e9mon"
      ],
      "pkmn_artist[]": [
        "Kouki Saitou"
      ],
      "pkmn_rarity": "Rare",
      "pkmn_set": "POP Series 2",
      "tcgplayer_id": "85271",
      "sorting_number": "1",
      "release_date_unix": "2005-08-01 12:01:00",
      "pkmn_print_type": "",
      "pkmn_regulation_mark": "",
      "pkmn_format[]": [
        "HL-on (Modified 2006)",
        "DX-on (Modified 2007)"
      ],
      "pkmn_series[]": [
        "POP",
        "EX"
      ],
      "pkmn_collection": "",
      "pkmn_language": "",
      "card_prints": "",
      "pkmn_stage": "Basic",
      "pkmn_color[]": [
        "Fire"
      ],
      "pkmn_hp": "70",
      "pkmn_weakness[]": [
        "Water"
      ],
      "pkmn_retreat_cost": "1",
      "pkmn_level": "",
      "card_weakness_modifier": "",
      "card_resistance_modifier": ""
    }
  },
  {
    "id": 11232,
    "url": "https://pkmncards.com/card/pidgeot-pop-series-2-p2-2/",
    "set-slug": "pop-series-2",
    "data": {
      "post_ID": "11232",
      "post_title": "Pidgeot \u00b7 POP Series 2 (P2) #2",
      "card_attachment_id_jpg": "21875",
      "card_attachment_id_png": "",
      "card_name": "Pidgeot",
      "card_number": "2",
      "card_text": "Pok\u00e9-Power: Beating Wings\r\nOnce during your turn (before your attack), if Pidgeot is your Active Pok\u00e9mon, you may shuffle 1 of your Benched Pok\u00e9mon and all cards attached to it into your deck. This power can't be used if Pidgeot is affected by a Special Condition.\r\n\r\n{C}{C}{C} Sharp Beak: 20+ damage. Flip a coin. If heads, this attack does 20 plus 30 more damage.",
      "flavor_text": "",
      "pkmn_type[]": [
        "Pok\u00e9mon"
      ],
      "pkmn_artist[]": [
        "Ken Sugimori"
      ],
      "pkmn_rarity": "Rare",
      "pkmn_set": "POP Series 2",
      "tcgplayer_id": "88032",
      "sorting_number": "2",
      "release_date_unix": "2005-08-01 12:02:00",
      "pkmn_print_type": "",
      "pkmn_regulation_mark": "",
      "pkmn_format[]": [
        "HL-on (Modified 2006)",
        "DX-on (Modified 2007)"
      ],
      "pkmn_series[]": [
        "POP",
        "EX"
      ],
      "pkmn_collection": "",
      "pkmn_language": "",
      "card_prints": "",
      "pkmn_stage": "Stage 2",
      "pkmn_evolves_from[]": [
        "Pidgeotto"
      ],
      "pkmn_color[]": [
        "Colorless"
      ],
      "pkmn_hp": "80",
      "pkmn_weakness[]": [
        "Lightning"
      ],
      "pkmn_retreat_cost": "0",
      "pkmn_resistance[]": [
        "Fighting"
      ],
      "pkmn_has[]": [
        "Pok\u00e9-Power"
      ],
      "pkmn_level": "",
      "card_weakness_modifier": "",
      "card_resistance_modifier": ""
    }
  },
  {
    "id": 11235,
    "url": "https://pkmncards.com/card/raikou-pop-series-2-p2-3/",
    "set-slug": "pop-series-2",
    "data": {
      "post_ID": "11235",
      "post_title": "Raikou \u00b7 POP Series 2 (P2) #3",
      "card_attachment_id_jpg": "21880",
      "card_attachment_id_png": "",
      "card_name": "Raikou",
      "card_number": "3",
      "card_text": "{C} Roar. Your opponent switches the Defending Pok\u00e9mon with 1 of his or her Benched Pok\u00e9mon, if any.\r\n\r\n{L}{L}{C} Thunder: 50 damage. Flip a coin. If tails, Raikou does 20 damage to itself.",
      "flavor_text": "",
      "pkmn_type[]": [
        "Pok\u00e9mon"
      ],
      "pkmn_artist[]": [
        "Kouki Saitou"
      ],
      "pkmn_rarity": "Rare",
      "pkmn_set": "POP Series 2",
      "tcgplayer_id": "88533",
      "sorting_number": "3",
      "release_date_unix": "2005-08-01 12:03:00",
      "pkmn_print_type": "",
      "pkmn_regulation_mark": "",
      "pkmn_format[]": [
        "HL-on (Modified 2006)",
        "DX-on (Modified 2007)"
      ],
      "pkmn_series[]": [
        "POP",
        "EX"
      ],
      "pkmn_collection": "",
      "pkmn_language": "",
      "card_prints": "",
      "pkmn_stage": "Basic",
      "pkmn_color[]": [
        "Lightning"
      ],
      "pkmn_hp": "70",
      "pkmn_weakness[]": [
        "Fighting"
      ],
      "pkmn_retreat_cost": "1",
      "pkmn_level": "",
      "card_weakness_modifier": "",
      "card_resistance_modifier": ""
    }
  },
  {
    "id": 11236,
    "url": "https://pkmncards.com/card/suicune-pop-series-2-p2-4/",
    "set-slug": "pop-series-2",
    "data": {
      "post_ID": "11236",
      "post_title": "Suicune \u00b7 POP Series 2 (P2) #4",
      "card_attachment_id_jpg": "21881",
      "card_attachment_id_png": "",
      "card_name": "Suicune",
      "card_number": "4",
      "card_text": "Pok\u00e9-Body: Mirror Coat. If Suicune is Burned or Poisoned by an opponent's attack <em>(even if Suicune is Knocked Out)</em>, the Attacking Pok\u00e9mon is now affected by the same Special Conditions (1 if there is only 1).\r\n\r\n{W}{C} Bubblebeam: 20 damage. Flip a coin. If heads, the Defending Pok\u00e9mon is now Paralyzed.",
      "flavor_text": "",
      "pkmn_type[]": [
        "Pok\u00e9mon"
      ],
      "pkmn_artist[]": [
        "Kouki Saitou"
      ],
      "pkmn_rarity": "Rare",
      "pkmn_set": "POP Series 2",
      "tcgplayer_id": "89602",
      "sorting_number": "4",
      "release_date_unix": "2005-08-01 12:04:00",
      "pkmn_print_type": "",
      "pkmn_regulation_mark": "",
      "pkmn_format[]": [
        "HL-on (Modified 2006)",
        "DX-on (Modified 2007)"
      ],
      "pkmn_series[]": [
        "POP",
        "EX"
      ],
      "pkmn_collection": "",
      "pkmn_language": "",
      "card_prints": "",
      "pkmn_stage": "Basic",
      "pkmn_color[]": [
        "Water"
      ],
      "pkmn_hp": "70",
      "pkmn_weakness[]": [
        "Lightning"
      ],
      "pkmn_retreat_cost": "1",
      "pkmn_has[]": [
        "Pok\u00e9-Body"
      ],
      "pkmn_level": "",
      "card_weakness_modifier": "",
      "card_resistance_modifier": ""
    }
  },
  {
    "id": 11237,
    "url": "https://pkmncards.com/card/tauros-pop-series-2-p2-5/",
    "set-slug": "pop-series-2",
    "data": {
      "post_ID": "11237",
      "post_title": "Tauros \u00b7 POP Series 2 (P2) #5",
      "card_attachment_id_jpg": "21882",
      "card_attachment_id_png": "",
      "card_name": "Tauros",
      "card_number": "5",
      "card_text": "{C}{C} Rage: 10+ damage. Does 10 damage plus 10 more damage for each damage counter on Tauros.\r\n\r\n{C}{C}{C} Take Down: 40 damage. Tauros does 10 damage to itself.",
      "flavor_text": "",
      "pkmn_type[]": [
        "Pok\u00e9mon"
      ],
      "pkmn_artist[]": [
        "Kouki Saitou"
      ],
      "pkmn_rarity": "Rare",
      "pkmn_set": "POP Series 2",
      "tcgplayer_id": "89762",
      "sorting_number": "5",
      "release_date_unix": "2005-08-01 12:05:00",
      "pkmn_print_type": "",
      "pkmn_regulation_mark": "",
      "pkmn_format[]": [
        "HL-on (Modified 2006)",
        "DX-on (Modified 2007)"
      ],
      "pkmn_series[]": [
        "POP",
        "EX"
      ],
      "pkmn_collection": "",
      "pkmn_language": "",
      "card_prints": "",
      "pkmn_stage": "Basic",
      "pkmn_color[]": [
        "Colorless"
      ],
      "pkmn_hp": "70",
      "pkmn_weakness[]": [
        "Fighting"
      ],
      "pkmn_retreat_cost": "1",
      "pkmn_level": "",
      "card_weakness_modifier": "",
      "card_resistance_modifier": ""
    }
  },
  {
    "id": 11239,
    "url": "https://pkmncards.com/card/venusaur-pop-series-2-p2-6/",
    "set-slug": "pop-series-2",
    "data": {
      "post_ID": "11239",
      "post_title": "Venusaur \u00b7 POP Series 2 (P2) #6",
      "card_attachment_id_jpg": "21884",
      "card_attachment_id_png": "",
      "card_name": "Venusaur",
      "card_number": "6",
      "card_text": "{G}{G}{C} Wide Solarbeam: 20 damage. Does 20 damage to 2 of your opponent's Benched Pok\u00e9mon. (Don't apply Weakness and Resistance for Benched Pok\u00e9mon.)\r\n\r\n{G}{G}{G}{C} Hard Plant: 80 damage. Venusaur can't use Hard Plant during your next turn.",
      "flavor_text": "",
      "pkmn_type[]": [
        "Pok\u00e9mon"
      ],
      "pkmn_artist[]": [
        "Mitsuhiro Arita"
      ],
      "pkmn_rarity": "Rare",
      "pkmn_set": "POP Series 2",
      "tcgplayer_id": "90317",
      "sorting_number": "6",
      "release_date_unix": "2005-08-01 12:06:00",
      "pkmn_print_type": "",
      "pkmn_regulation_mark": "",
      "pkmn_format[]": [
        "HL-on (Modified 2006)",
        "DX-on (Modified 2007)"
      ],
      "pkmn_series[]": [
        "POP",
        "EX"
      ],
      "pkmn_collection": "",
      "pkmn_language": "",
      "card_prints": "",
      "pkmn_stage": "Stage 2",
      "pkmn_evolves_from[]": [
        "Ivysaur"
      ],
      "pkmn_color[]": [
        "Grass"
      ],
      "pkmn_hp": "120",
      "pkmn_weakness[]": [
        "Fire"
      ],
      "pkmn_retreat_cost": "3",
      "pkmn_level": "",
      "card_weakness_modifier": "",
      "card_resistance_modifier": ""
    }
  },
  {
    "id": 11227,
    "url": "https://pkmncards.com/card/ivysaur-pop-series-2-p2-7/",
    "set-slug": "pop-series-2",
    "data": {
      "post_ID": "11227",
      "post_title": "Ivysaur \u00b7 POP Series 2 (P2) #7",
      "card_attachment_id_jpg": "21866",
      "card_attachment_id_png": "",
      "card_name": "Ivysaur",
      "card_number": "7",
      "card_text": "{C} Poison Seed. The Defending Pok\u00e9mon is now Poisoned.\r\n\r\n{G}{G}{C} Razor Leaf: 50 damage.",
      "flavor_text": "",
      "pkmn_type[]": [
        "Pok\u00e9mon"
      ],
      "pkmn_artist[]": [
        "Ken Sugimori"
      ],
      "pkmn_rarity": "Uncommon",
      "pkmn_set": "POP Series 2",
      "tcgplayer_id": "86298",
      "sorting_number": "7",
      "release_date_unix": "2005-08-01 12:07:00",
      "pkmn_print_type": "",
      "pkmn_regulation_mark": "",
      "pkmn_format[]": [
        "HL-on (Modified 2006)",
        "DX-on (Modified 2007)"
      ],
      "pkmn_series[]": [
        "POP",
        "EX"
      ],
      "pkmn_collection": "",
      "pkmn_language": "",
      "card_prints": "",
      "pkmn_stage": "Stage 1",
      "pkmn_evolves_from[]": [
        "Bulbasaur"
      ],
      "pkmn_evolves_into[]": [
        "Venusaur",
        "Venusaur ex"
      ],
      "pkmn_color[]": [
        "Grass"
      ],
      "pkmn_hp": "80",
      "pkmn_weakness[]": [
        "Psychic"
      ],
      "pkmn_retreat_cost": "1",
      "pkmn_level": "",
      "card_weakness_modifier": "",
      "card_resistance_modifier": ""
    }
  },
  {
    "id": 11229,
    "url": "https://pkmncards.com/card/mr-brineys-compassion-pop-series-2-p2-8/",
    "set-slug": "pop-series-2",
    "data": {
      "post_ID": "11229",
      "post_title": "Mr. Briney's Compassion \u00b7 POP Series 2 (P2) #8",
      "card_attachment_id_jpg": "21870",
      "card_attachment_id_png": "",
      "card_name": "Mr. Briney's Compassion",
      "card_number": "8",
      "card_text": "Choose 1 of your Pok\u00e9mon in play (excluding Pok\u00e9mon-ex). Return that Pok\u00e9mon and all cards attached to it to your hand.",
      "flavor_text": "",
      "pkmn_type[]": [
        "Trainer",
        "- Supporter"
      ],
      "pkmn_artist[]": [
        "Ken Sugimori"
      ],
      "pkmn_rarity": "Uncommon",
      "pkmn_set": "POP Series 2",
      "tcgplayer_id": "87586",
      "sorting_number": "8",
      "release_date_unix": "2005-08-01 12:08:00",
      "pkmn_print_type": "",
      "pkmn_regulation_mark": "",
      "pkmn_format[]": [
        "HL-on (Modified 2006)",
        "DX-on (Modified 2007)"
      ],
      "pkmn_series[]": [
        "POP",
        "EX"
      ],
      "pkmn_collection": "",
      "pkmn_language": "",
      "card_prints": "",
      "pkmn_stage": "",
      "pkmn_hp": "",
      "pkmn_retreat_cost": "",
      "pkmn_level": "",
      "card_weakness_modifier": "",
      "card_resistance_modifier": ""
    }
  },
  {
    "id": 11230,
    "url": "https://pkmncards.com/card/multi-technical-machine-01-pop-series-2-p2-9/",
    "set-slug": "pop-series-2",
    "data": {
      "post_ID": "11230",
      "post_title": "Multi Technical Machine 01 \u00b7 POP Series 2 (P2) #9",
      "card_attachment_id_jpg": "21871",
      "card_attachment_id_png": "",
      "card_name": "Multi Technical Machine 01",
      "card_number": "9",
      "card_text": "Attach this card to 1 of your Pok\u00e9mon in play. That Pok\u00e9mon may use this card's attack instead of its own. At the end of your turn, discard Multi Technical Machine 01.\r\n\r\n{C} Paralyzing Gaze. The Defending Pok\u00e9mon is now Paralyzed.",
      "flavor_text": "",
      "pkmn_type[]": [
        "Trainer",
        "- Technical Machine"
      ],
      "pkmn_artist[]": [
        "\"Big Mama\" Tagawa"
      ],
      "pkmn_rarity": "Uncommon",
      "pkmn_set": "POP Series 2",
      "tcgplayer_id": "87636",
      "sorting_number": "9",
      "release_date_unix": "2005-08-01 12:09:00",
      "pkmn_print_type": "",
      "pkmn_regulation_mark": "",
      "pkmn_format[]": [
        "HL-on (Modified 2006)",
        "DX-on (Modified 2007)"
      ],
      "pkmn_series[]": [
        "POP",
        "EX"
      ],
      "pkmn_collection": "",
      "pkmn_language": "",
      "card_prints": "",
      "pkmn_stage": "",
      "pkmn_hp": "",
      "pkmn_retreat_cost": "",
      "pkmn_level": "",
      "card_weakness_modifier": "",
      "card_resistance_modifier": ""
    }
  },
  {
    "id": 11234,
    "url": "https://pkmncards.com/card/pokemon-park-pop-series-2-p2-10/",
    "set-slug": "pop-series-2",
    "data": {
      "post_ID": "11234",
      "post_title": "Pok\u00e9mon Park \u00b7 POP Series 2 (P2) #10",
      "card_attachment_id_jpg": "21878",
      "card_attachment_id_png": "",
      "card_name": "Pok\u00e9mon Park",
      "card_number": "10",
      "card_text": "Once during each player's turn, when that player attaches an Energy card from his or her hand to 1 of his or her Benched Pok\u00e9mon, he or she removes 1 damage counter from that Pok\u00e9mon.",
      "flavor_text": "",
      "pkmn_type[]": [
        "Trainer",
        "- Stadium"
      ],
      "pkmn_artist[]": [
        "Kazuo Yazawa"
      ],
      "pkmn_rarity": "Uncommon",
      "pkmn_set": "POP Series 2",
      "tcgplayer_id": "88231",
      "sorting_number": "10",
      "release_date_unix": "2005-08-01 12:10:00",
      "pkmn_print_type": "",
      "pkmn_regulation_mark": "",
      "pkmn_format[]": [
        "HL-on (Modified 2006)",
        "DX-on (Modified 2007)"
      ],
      "pkmn_series[]": [
        "POP",
        "EX"
      ],
      "pkmn_collection": "",
      "pkmn_language": "",
      "card_prints": "",
      "pkmn_stage": "",
      "pkmn_hp": "",
      "pkmn_retreat_cost": "",
      "pkmn_level": "",
      "card_weakness_modifier": "",
      "card_resistance_modifier": ""
    }
  },
  {
    "id": 11238,
    "url": "https://pkmncards.com/card/tv-reporter-pop-series-2-p2-11/",
    "set-slug": "pop-series-2",
    "data": {
      "post_ID": "11238",
      "post_title": "TV Reporter \u00b7 POP Series 2 (P2) #11",
      "card_attachment_id_jpg": "21883",
      "card_attachment_id_png": "",
      "card_name": "TV Reporter",
      "card_number": "11",
      "card_text": "Draw 3 cards. Then discard any 1 card from your hand.",
      "flavor_text": "",
      "pkmn_type[]": [
        "Trainer",
        "- Supporter"
      ],
      "pkmn_artist[]": [
        "Ken Sugimori"
      ],
      "pkmn_rarity": "Uncommon",
      "pkmn_set": "POP Series 2",
      "tcgplayer_id": "90084",
      "sorting_number": "11",
      "release_date_unix": "2005-08-01 12:11:00",
      "pkmn_print_type": "",
      "pkmn_regulation_mark": "",
      "pkmn_format[]": [
        "HL-on (Modified 2006)",
        "DX-on (Modified 2007)"
      ],
      "pkmn_series[]": [
        "POP",
        "EX"
      ],
      "pkmn_collection": "",
      "pkmn_language": "",
      "card_prints": "",
      "pkmn_stage": "",
      "pkmn_hp": "",
      "pkmn_retreat_cost": "",
      "pkmn_level": "",
      "card_weakness_modifier": "",
      "card_resistance_modifier": ""
    }
  },
  {
    "id": 11210,
    "url": "https://pkmncards.com/card/bulbasaur-pop-series-2-p2-12/",
    "set-slug": "pop-series-2",
    "data": {
      "post_ID": "11210",
      "post_title": "Bulbasaur \u00b7 POP Series 2 (P2) #12",
      "card_attachment_id_jpg": "21861",
      "card_attachment_id_png": "",
      "card_name": "Bulbasaur",
      "card_number": "12",
      "card_text": "{C} Bite: 10 damage.\r\n\r\n{G}{C} Razor Leaf: 20 damage.",
      "flavor_text": "",
      "pkmn_type[]": [
        "Pok\u00e9mon"
      ],
      "pkmn_artist[]": [
        "Midori Harada"
      ],
      "pkmn_rarity": "Common",
      "pkmn_set": "POP Series 2",
      "tcgplayer_id": "84031",
      "sorting_number": "12",
      "release_date_unix": "2005-08-01 12:12:00",
      "pkmn_print_type": "",
      "pkmn_regulation_mark": "",
      "pkmn_format[]": [
        "HL-on (Modified 2006)",
        "DX-on (Modified 2007)"
      ],
      "pkmn_series[]": [
        "POP",
        "EX"
      ],
      "pkmn_collection": "",
      "pkmn_language": "",
      "card_prints": "",
      "pkmn_stage": "Basic",
      "pkmn_evolves_into[]": [
        "Ivysaur",
        "Dark Ivysaur"
      ],
      "pkmn_color[]": [
        "Grass"
      ],
      "pkmn_hp": "40",
      "pkmn_weakness[]": [
        "Psychic"
      ],
      "pkmn_retreat_cost": "1",
      "pkmn_level": "",
      "card_weakness_modifier": "",
      "card_resistance_modifier": ""
    }
  },
  {
    "id": 11215,
    "url": "https://pkmncards.com/card/cacnea-pop-series-2-p2-13/",
    "set-slug": "pop-series-2",
    "data": {
      "post_ID": "11215",
      "post_title": "Cacnea \u00b7 POP Series 2 (P2) #13",
      "card_attachment_id_jpg": "21862",
      "card_attachment_id_png": "",
      "card_name": "Cacnea",
      "card_number": "13",
      "card_text": "{C} Sand Attack: 10 damage. If the Defending Pok\u00e9mon tries to attack during your opponent's next turn, your opponent flips a coin. If tails, that attack does nothing.",
      "flavor_text": "",
      "pkmn_type[]": [
        "Pok\u00e9mon"
      ],
      "pkmn_artist[]": [
        "Ken Sugimori"
      ],
      "pkmn_rarity": "Common",
      "pkmn_set": "POP Series 2",
      "tcgplayer_id": "84072",
      "sorting_number": "13",
      "release_date_unix": "2005-08-01 12:13:00",
      "pkmn_print_type": "",
      "pkmn_regulation_mark": "",
      "pkmn_format[]": [
        "HL-on (Modified 2006)",
        "DX-on (Modified 2007)"
      ],
      "pkmn_series[]": [
        "POP",
        "EX"
      ],
      "pkmn_collection": "",
      "pkmn_language": "",
      "card_prints": "",
      "pkmn_stage": "Basic",
      "pkmn_evolves_into[]": [
        "Cacturne",
        "Cacturne ex"
      ],
      "pkmn_color[]": [
        "Grass"
      ],
      "pkmn_hp": "40",
      "pkmn_weakness[]": [
        "Fire"
      ],
      "pkmn_retreat_cost": "1",
      "pkmn_level": "",
      "card_weakness_modifier": "",
      "card_resistance_modifier": ""
    }
  },
  {
    "id": 11228,
    "url": "https://pkmncards.com/card/luvdisc-pop-series-2-p2-14/",
    "set-slug": "pop-series-2",
    "data": {
      "post_ID": "11228",
      "post_title": "Luvdisc \u00b7 POP Series 2 (P2) #14",
      "card_attachment_id_jpg": "21868",
      "card_attachment_id_png": "",
      "card_name": "Luvdisc",
      "card_number": "14",
      "card_text": "{C} Paralyzing Kiss. If there are 2 Defending Pok\u00e9mon in play, choose 1 of the Defending Pok\u00e9mon. That Pok\u00e9mon is now Paralyzed. (If there is only 1 Defending Pok\u00e9mon, this attack does nothing.)\r\n\r\n{W}{C} Fast Stream: 20 damage. Move 1 Energy card attached to the Defending Pok\u00e9mon to the other Defending Pok\u00e9mon. (Ignore this effect if your opponent has only 1 Defending Pok\u00e9mon.)",
      "flavor_text": "",
      "pkmn_type[]": [
        "Pok\u00e9mon"
      ],
      "pkmn_artist[]": [
        "Atsuko Nishida"
      ],
      "pkmn_rarity": "Common",
      "pkmn_set": "POP Series 2",
      "tcgplayer_id": "86934",
      "sorting_number": "14",
      "release_date_unix": "2005-08-01 12:14:00",
      "pkmn_print_type": "",
      "pkmn_regulation_mark": "",
      "pkmn_format[]": [
        "HL-on (Modified 2006)",
        "DX-on (Modified 2007)"
      ],
      "pkmn_series[]": [
        "POP",
        "EX"
      ],
      "pkmn_collection": "",
      "pkmn_language": "",
      "card_prints": "",
      "pkmn_stage": "Basic",
      "pkmn_color[]": [
        "Water"
      ],
      "pkmn_hp": "60",
      "pkmn_weakness[]": [
        "Lightning"
      ],
      "pkmn_retreat_cost": "1",
      "pkmn_level": "",
      "card_weakness_modifier": "",
      "card_resistance_modifier": ""
    }
  },
  {
    "id": 11231,
    "url": "https://pkmncards.com/card/phanpy-pop-series-2-p2-15/",
    "set-slug": "pop-series-2",
    "data": {
      "post_ID": "11231",
      "post_title": "Phanpy \u00b7 POP Series 2 (P2) #15",
      "card_attachment_id_jpg": "21873",
      "card_attachment_id_png": "",
      "card_name": "Phanpy",
      "card_number": "15",
      "card_text": "{F} Double Spin: 10x damage. Flip 2 coins. This attack does 10 damage times the number of heads.\r\n\r\n{C}{C} Body Slam: 10 damage. Flip a coin. If heads, the Defending Pok\u00e9mon is now Paralyzed.",
      "flavor_text": "",
      "pkmn_type[]": [
        "Pok\u00e9mon"
      ],
      "pkmn_artist[]": [
        "Tomokazu Komiya"
      ],
      "pkmn_rarity": "Common",
      "pkmn_set": "POP Series 2",
      "tcgplayer_id": "88000",
      "sorting_number": "15",
      "release_date_unix": "2005-08-01 12:15:00",
      "pkmn_print_type": "",
      "pkmn_regulation_mark": "",
      "pkmn_format[]": [
        "HL-on (Modified 2006)",
        "DX-on (Modified 2007)"
      ],
      "pkmn_series[]": [
        "POP",
        "EX"
      ],
      "pkmn_collection": "",
      "pkmn_language": "",
      "card_prints": "",
      "pkmn_stage": "Basic",
      "pkmn_evolves_into[]": [
        "Donphan",
        "Dark Donphan"
      ],
      "pkmn_color[]": [
        "Fighting"
      ],
      "pkmn_hp": "50",
      "pkmn_weakness[]": [
        "Grass"
      ],
      "pkmn_retreat_cost": "1",
      "pkmn_level": "",
      "card_weakness_modifier": "",
      "card_resistance_modifier": ""
    }
  },
  {
    "id": 11233,
    "url": "https://pkmncards.com/card/pikachu-pop-series-2-p2-16/",
    "set-slug": "pop-series-2",
    "data": {
      "post_ID": "11233",
      "post_title": "Pikachu \u00b7 POP Series 2 (P2) #16",
      "card_attachment_id_jpg": "21876",
      "card_attachment_id_png": "",
      "card_name": "Pikachu",
      "card_number": "16",
      "card_text": "{C} Gnaw: 10 damage.\r\n\r\n{L}{C} Thunder Jolt: 30 damage. Flip a coin. If tails, Pikachu does 10 damage to itself.",
      "flavor_text": "",
      "pkmn_type[]": [
        "Pok\u00e9mon"
      ],
      "pkmn_artist[]": [
        "Yuka Morii"
      ],
      "pkmn_rarity": "Common",
      "pkmn_set": "POP Series 2",
      "tcgplayer_id": "88081",
      "sorting_number": "16",
      "release_date_unix": "2005-08-01 12:16:00",
      "pkmn_print_type": "",
      "pkmn_regulation_mark": "",
      "pkmn_format[]": [
        "HL-on (Modified 2006)",
        "DX-on (Modified 2007)"
      ],
      "pkmn_series[]": [
        "POP",
        "EX"
      ],
      "pkmn_collection": "",
      "pkmn_language": "",
      "card_prints": "",
      "pkmn_stage": "Basic",
      "pkmn_evolves_into[]": [
        "Raichu",
        "Dark Raichu",
        "Raichu ex",
        "Raichu-GX",
        "Alolan Raichu"
      ],
      "pkmn_color[]": [
        "Lightning"
      ],
      "pkmn_hp": "40",
      "pkmn_weakness[]": [
        "Fighting"
      ],
      "pkmn_retreat_cost": "1",
      "pkmn_level": "",
      "card_weakness_modifier": "",
      "card_resistance_modifier": ""
    }
  },
  {
    "id": 11225,
    "url": "https://pkmncards.com/card/celebi-ex-pop-series-2-p2-17/",
    "set-slug": "pop-series-2",
    "data": {
      "post_ID": "11225",
      "post_title": "Celebi ex \u00b7 POP Series 2 (P2) #17",
      "card_attachment_id_jpg": "21863",
      "card_attachment_id_png": "",
      "card_name": "Celebi ex",
      "card_number": "17",
      "card_text": "Pok\u00e9-Power: Time Reversal. Once during your turn, when you put Celebi ex from your hand onto your Bench, you may search your discard pile for a card, show it to your opponent, and put it on top of your deck.\r\n\r\n{P}{C} Psychic Shield: 30 damage. Prevent all effects of attacks, including damage, done to Celebi ex by your opponent's Pok\u00e9mon-ex during your opponent's next turn.",
      "flavor_text": "",
      "pkmn_type[]": [
        "Pok\u00e9mon"
      ],
      "pkmn_artist[]": [
        "Ryo Ueda"
      ],
      "pkmn_rarity": "Rare",
      "pkmn_set": "POP Series 2",
      "tcgplayer_id": "84151",
      "sorting_number": "17",
      "release_date_unix": "2005-08-01 12:17:00",
      "pkmn_print_type": "",
      "pkmn_regulation_mark": "",
      "pkmn_format[]": [
        "HL-on (Modified 2006)",
        "DX-on (Modified 2007)"
      ],
      "pkmn_series[]": [
        "POP",
        "EX"
      ],
      "pkmn_collection": "",
      "pkmn_language": "",
      "card_prints": "",
      "pkmn_stage": "Basic",
      "pkmn_color[]": [
        "Psychic"
      ],
      "pkmn_hp": "80",
      "pkmn_weakness[]": [
        "Psychic"
      ],
      "pkmn_retreat_cost": "1",
      "pkmn_is[]": [
        "ex"
      ],
      "pkmn_has[]": [
        "Pok\u00e9-Power"
      ],
      "pkmn_level": "",
      "card_weakness_modifier": "",
      "card_resistance_modifier": ""
    }
  }
]