[
  {
    "id": 11290,
    "url": "https://pkmncards.com/card/chimecho-pop-series-4-p4-1/",
    "set-slug": "pop-series-4",
    "data": {
      "post_ID": "11290",
      "post_title": "Chimecho \u00b7 POP Series 4 (P4) #1",
      "card_attachment_id_jpg": "21929",
      "card_attachment_id_png": "",
      "card_name": "Chimecho",
      "card_number": "1",
      "card_text": "{C} Wrap: Flip a coin. If heads, the Defending Pok\u00e9mon is now Paralyzed.\r\n\r\n{M}{C} Sonicboom: 30 damage. This attack's damage isn't affected by Weakness or Resistance.",
      "flavor_text": "",
      "pkmn_type[]": [
        "Pok\u00e9mon"
      ],
      "pkmn_artist[]": [
        "Masakazu Fukuda"
      ],
      "pkmn_rarity": "Rare",
      "pkmn_set": "POP Series 4",
      "tcgplayer_id": "84298",
      "sorting_number": "1",
      "release_date_unix": "2006-08-01 12:01:00",
      "pkmn_print_type": "",
      "pkmn_regulation_mark": "",
      "pkmn_format[]": [
        "DX-on (Modified 2007)",
        "HP-on (Modified 2008)"
      ],
      "pkmn_series[]": [
        "POP",
        "EX"
      ],
      "pkmn_collection": "",
      "pkmn_language": "",
      "card_prints": "",
      "pkmn_stage": "Basic",
      "pkmn_color[]": [
        "Metal"
      ],
      "pkmn_hp": "60",
      "pkmn_weakness[]": [
        "Psychic"
      ],
      "pkmn_retreat_cost": "1",
      "pkmn_is[]": [
        "Delta Species"
      ],
      "pkmn_level": "",
      "card_weakness_modifier": "",
      "card_resistance_modifier": ""
    }
  },
  {
    "id": 11294,
    "url": "https://pkmncards.com/card/deoxys-pop-series-4-p4-2/",
    "set-slug": "pop-series-4",
    "data": {
      "post_ID": "11294",
      "post_title": "Deoxys \u00b7 POP Series 4 (P4) #2",
      "card_attachment_id_jpg": "21932",
      "card_attachment_id_png": "",
      "card_name": "Deoxys",
      "card_number": "2",
      "card_text": "Pok\u00e9-Power: Form Change\r\nOnce during your turn (before your attack), you may search your deck for another Deoxys and switch it with Deoxys. (Any cards attached to Deoxys, damage counters, Special Conditions, and effects on it are now on the new Pok\u00e9mon.) If you do, put Deoxys on top of your deck. Shuffle your deck afterward. You can't use more than 1 Form Change Pok\u00e9-Power each turn.\r\n\r\n{C}{C} Crystal Laser: 20 damage. During your next turn, Deoxys's attacks do 40 more damage to the Defending Pok\u00e9mon (before applying Weakness and Resistance).",
      "flavor_text": "",
      "pkmn_type[]": [
        "Pok\u00e9mon"
      ],
      "pkmn_artist[]": [
        "Kouki Saitou"
      ],
      "pkmn_rarity": "Rare",
      "pkmn_set": "POP Series 4",
      "tcgplayer_id": "-1",
      "sorting_number": "2",
      "release_date_unix": "2006-08-01 12:02:00",
      "pkmn_print_type": "",
      "pkmn_regulation_mark": "",
      "pkmn_format[]": [
        "DX-on (Modified 2007)",
        "HP-on (Modified 2008)"
      ],
      "pkmn_series[]": [
        "POP",
        "EX"
      ],
      "pkmn_collection": "",
      "pkmn_language": "",
      "card_prints": "",
      "pkmn_stage": "Basic",
      "pkmn_color[]": [
        "Colorless"
      ],
      "pkmn_hp": "70",
      "pkmn_weakness[]": [
        "Psychic"
      ],
      "pkmn_retreat_cost": "1",
      "pkmn_is[]": [
        "Delta Species"
      ],
      "pkmn_has[]": [
        "Pok\u00e9-Power"
      ],
      "pkmn_level": "",
      "card_weakness_modifier": "",
      "card_resistance_modifier": ""
    }
  },
  {
    "id": 11296,
    "url": "https://pkmncards.com/card/flygon-pop-series-4-p4-3/",
    "set-slug": "pop-series-4",
    "data": {
      "post_ID": "11296",
      "post_title": "Flygon \u00b7 POP Series 4 (P4) #3",
      "card_attachment_id_jpg": "21935",
      "card_attachment_id_png": "",
      "card_name": "Flygon",
      "card_number": "3",
      "card_text": "Pok\u00e9-Body: Levitate. As long as Flygon has any Energy attached to it, the Retreat Cost for Flygon is 0.\r\n\r\n{F}{C} Bite: 30 damage.\r\n\r\n{F}{C}{C}{C} Sand Pit: 70 damage. The Defending Pok\u00e9mon can't retreat during your opponent's next turn.",
      "flavor_text": "",
      "pkmn_type[]": [
        "Pok\u00e9mon"
      ],
      "pkmn_artist[]": [
        "Hisao Nakamura"
      ],
      "pkmn_rarity": "Rare",
      "pkmn_set": "POP Series 4",
      "tcgplayer_id": "85524",
      "sorting_number": "3",
      "release_date_unix": "2006-08-01 12:03:00",
      "pkmn_print_type": "",
      "pkmn_regulation_mark": "",
      "pkmn_format[]": [
        "DX-on (Modified 2007)",
        "HP-on (Modified 2008)"
      ],
      "pkmn_series[]": [
        "POP",
        "EX"
      ],
      "pkmn_collection": "",
      "pkmn_language": "",
      "card_prints": "",
      "pkmn_stage": "Stage 2",
      "pkmn_evolves_from[]": [
        "Vibrava"
      ],
      "pkmn_evolves_into[]": [
        "Flygon LV.X"
      ],
      "pkmn_color[]": [
        "Fighting"
      ],
      "pkmn_hp": "120",
      "pkmn_weakness[]": [
        "Water"
      ],
      "pkmn_retreat_cost": "2",
      "pkmn_has[]": [
        "Pok\u00e9-Body"
      ],
      "pkmn_level": "",
      "card_weakness_modifier": "",
      "card_resistance_modifier": ""
    }
  },
  {
    "id": 11299,
    "url": "https://pkmncards.com/card/mew-pop-series-4-p4-4/",
    "set-slug": "pop-series-4",
    "data": {
      "post_ID": "11299",
      "post_title": "Mew \u00b7 POP Series 4 (P4) #4",
      "card_attachment_id_jpg": "21938",
      "card_attachment_id_png": "",
      "card_name": "Mew",
      "card_number": "4",
      "card_text": "Pok\u00e9-Body: Reactive Barrier\r\nAs long as Mew has any React Energy cards attached to it, prevent all effects, excluding damage, done to Mew by attacks from your opponent's Pok\u00e9mon.\r\n\r\n{P}{C} Psyshock: 20 damage. Flip a coin. If heads, the Defending Pok\u00e9mon is now Paralyzed.",
      "flavor_text": "",
      "pkmn_type[]": [
        "Pok\u00e9mon"
      ],
      "pkmn_artist[]": [
        "Nakaoka"
      ],
      "pkmn_rarity": "Rare",
      "pkmn_set": "POP Series 4",
      "tcgplayer_id": "87401",
      "sorting_number": "4",
      "release_date_unix": "2006-08-01 12:04:00",
      "pkmn_print_type": "",
      "pkmn_regulation_mark": "",
      "pkmn_format[]": [
        "DX-on (Modified 2007)",
        "HP-on (Modified 2008)"
      ],
      "pkmn_series[]": [
        "POP",
        "EX"
      ],
      "pkmn_collection": "",
      "pkmn_language": "",
      "card_prints": "",
      "pkmn_stage": "Basic",
      "pkmn_color[]": [
        "Psychic"
      ],
      "pkmn_hp": "70",
      "pkmn_weakness[]": [
        "Psychic"
      ],
      "pkmn_retreat_cost": "1",
      "pkmn_has[]": [
        "Pok\u00e9-Body"
      ],
      "pkmn_level": "",
      "card_weakness_modifier": "",
      "card_resistance_modifier": ""
    }
  },
  {
    "id": 11304,
    "url": "https://pkmncards.com/card/sceptile-pop-series-4-p4-5/",
    "set-slug": "pop-series-4",
    "data": {
      "post_ID": "11304",
      "post_title": "Sceptile \u00b7 POP Series 4 (P4) #5",
      "card_attachment_id_jpg": "21947",
      "card_attachment_id_png": "",
      "card_name": "Sceptile",
      "card_number": "5",
      "card_text": "Pok\u00e9-Power: Energy Trans. As often as you like during your turn (before your attack), move a {G} Energy card attached to 1 of your Pok\u00e9mon to another of your Pok\u00e9mon. This power can't be used if Sceptile is affected by a Special Condition.\r\n\r\n{G}{C}{C} Tail Rap: 50x damage. Flip 2 coins. This attack does 50 damage times the number of heads.",
      "flavor_text": "",
      "pkmn_type[]": [
        "Pok\u00e9mon"
      ],
      "pkmn_artist[]": [
        "Atsuko Nishida"
      ],
      "pkmn_rarity": "Rare",
      "pkmn_set": "POP Series 4",
      "tcgplayer_id": "88948",
      "sorting_number": "5",
      "release_date_unix": "2006-08-01 12:05:00",
      "pkmn_print_type": "",
      "pkmn_regulation_mark": "",
      "pkmn_format[]": [
        "DX-on (Modified 2007)",
        "HP-on (Modified 2008)"
      ],
      "pkmn_series[]": [
        "POP",
        "EX"
      ],
      "pkmn_collection": "",
      "pkmn_language": "",
      "card_prints": "",
      "pkmn_stage": "Stage 2",
      "pkmn_evolves_from[]": [
        "Grovyle"
      ],
      "pkmn_color[]": [
        "Grass"
      ],
      "pkmn_hp": "100",
      "pkmn_weakness[]": [
        "Fire"
      ],
      "pkmn_retreat_cost": "3",
      "pkmn_resistance[]": [
        "Water"
      ],
      "pkmn_has[]": [
        "Pok\u00e9-Power"
      ],
      "pkmn_level": "",
      "card_weakness_modifier": "",
      "card_resistance_modifier": ""
    }
  },
  {
    "id": 11293,
    "url": "https://pkmncards.com/card/combusken-pop-series-4-p4-6/",
    "set-slug": "pop-series-4",
    "data": {
      "post_ID": "11293",
      "post_title": "Combusken \u00b7 POP Series 4 (P4) #6",
      "card_attachment_id_jpg": "21930",
      "card_attachment_id_png": "",
      "card_name": "Combusken",
      "card_number": "6",
      "card_text": "{R} Smokescreen: 10 damage. If the Defending Pok\u00e9mon tries to attack during your opponent's next turn, your opponent flips a coin. If tails, that attack does nothing.\r\n\r\n{R}{C}{C} Sky Uppercut: 40 damage. This attack's damage isn't affected by Resistance.",
      "flavor_text": "",
      "pkmn_type[]": [
        "Pok\u00e9mon"
      ],
      "pkmn_artist[]": [
        "Mitsuhiro Arita"
      ],
      "pkmn_rarity": "Uncommon",
      "pkmn_set": "POP Series 4",
      "tcgplayer_id": "84409",
      "sorting_number": "6",
      "release_date_unix": "2006-08-01 12:06:00",
      "pkmn_print_type": "",
      "pkmn_regulation_mark": "",
      "pkmn_format[]": [
        "DX-on (Modified 2007)",
        "HP-on (Modified 2008)"
      ],
      "pkmn_series[]": [
        "POP",
        "EX"
      ],
      "pkmn_collection": "",
      "pkmn_language": "",
      "card_prints": "",
      "pkmn_stage": "Stage 1",
      "pkmn_evolves_from[]": [
        "Torchic"
      ],
      "pkmn_evolves_into[]": [
        "Blaziken",
        "Blaziken ex",
        "Blaziken-GX"
      ],
      "pkmn_color[]": [
        "Fire"
      ],
      "pkmn_hp": "70",
      "pkmn_weakness[]": [
        "Water"
      ],
      "pkmn_retreat_cost": "1",
      "pkmn_level": "",
      "card_weakness_modifier": "",
      "card_resistance_modifier": ""
    }
  },
  {
    "id": 11297,
    "url": "https://pkmncards.com/card/grovyle-pop-series-4-p4-7/",
    "set-slug": "pop-series-4",
    "data": {
      "post_ID": "11297",
      "post_title": "Grovyle \u00b7 POP Series 4 (P4) #7",
      "card_attachment_id_jpg": "21936",
      "card_attachment_id_png": "",
      "card_name": "Grovyle",
      "card_number": "7",
      "card_text": "{C} Quick Attack: 10+ damage. Flip a coin. If heads, this attack does 10 damage plus 10 more damage.\r\n\r\n{G}{C} Blot: 20 damage. Remove 2 damage counters from Grovyle.",
      "flavor_text": "",
      "pkmn_type[]": [
        "Pok\u00e9mon"
      ],
      "pkmn_artist[]": [
        "Mitsuhiro Arita"
      ],
      "pkmn_rarity": "Uncommon",
      "pkmn_set": "POP Series 4",
      "tcgplayer_id": "85940",
      "sorting_number": "7",
      "release_date_unix": "2006-08-01 12:07:00",
      "pkmn_print_type": "",
      "pkmn_regulation_mark": "",
      "pkmn_format[]": [
        "DX-on (Modified 2007)",
        "HP-on (Modified 2008)"
      ],
      "pkmn_series[]": [
        "POP",
        "EX"
      ],
      "pkmn_collection": "",
      "pkmn_language": "",
      "card_prints": "",
      "pkmn_stage": "Stage 1",
      "pkmn_evolves_from[]": [
        "Treecko"
      ],
      "pkmn_evolves_into[]": [
        "Sceptile",
        "Sceptile ex",
        "Sceptile-GX"
      ],
      "pkmn_color[]": [
        "Grass"
      ],
      "pkmn_hp": "70",
      "pkmn_weakness[]": [
        "Fire"
      ],
      "pkmn_retreat_cost": "1",
      "pkmn_resistance[]": [
        "Water"
      ],
      "pkmn_level": "",
      "card_weakness_modifier": "",
      "card_resistance_modifier": ""
    }
  },
  {
    "id": 11298,
    "url": "https://pkmncards.com/card/heal-energy-pop-series-4-p4-8/",
    "set-slug": "pop-series-4",
    "data": {
      "post_ID": "11298",
      "post_title": "Heal Energy \u00b7 POP Series 4 (P4) #8",
      "card_attachment_id_jpg": "74901",
      "card_attachment_id_png": "",
      "card_name": "Heal Energy",
      "card_number": "8",
      "card_text": "Heal Energy provides {C} Energy. When you attach this card from your hand to 1 of your Pok\u00e9mon, remove 1 damage counter and all Special Conditions from that Pok\u00e9mon. If Heal Energy is attached to Pok\u00e9mon-ex, Heal Energy has no effect other than providing Energy.",
      "flavor_text": "",
      "pkmn_type[]": [
        "Energy",
        "- Special Energy"
      ],
      "pkmn_artist[]": [
        "Takumi Akabane"
      ],
      "pkmn_rarity": "Uncommon",
      "pkmn_set": "POP Series 4",
      "tcgplayer_id": "86038",
      "sorting_number": "8",
      "release_date_unix": "2006-08-01 12:08:00",
      "pkmn_print_type": "",
      "pkmn_regulation_mark": "",
      "pkmn_format[]": [
        "DX-on (Modified 2007)",
        "HP-on (Modified 2008)"
      ],
      "pkmn_series[]": [
        "POP",
        "EX"
      ],
      "pkmn_collection": "",
      "pkmn_language": "",
      "card_prints": "",
      "pkmn_stage": "",
      "pkmn_hp": "",
      "pkmn_retreat_cost": "",
      "pkmn_level": "",
      "card_weakness_modifier": "",
      "card_resistance_modifier": ""
    }
  },
  {
    "id": 11303,
    "url": "https://pkmncards.com/card/pokemon-fan-club-pop-series-4-p4-9/",
    "set-slug": "pop-series-4",
    "data": {
      "post_ID": "11303",
      "post_title": "Pok\u00e9mon Fan Club \u00b7 POP Series 4 (P4) #9",
      "card_attachment_id_jpg": "21945",
      "card_attachment_id_png": "",
      "card_name": "Pok\u00e9mon Fan Club",
      "card_number": "9",
      "card_text": "Search your deck for up to 2 Basic Pok\u00e9mon and put them onto your Bench. Shuffle your deck afterward.",
      "flavor_text": "",
      "pkmn_type[]": [
        "Trainer",
        "- Supporter"
      ],
      "pkmn_artist[]": [
        "Ken Sugimori"
      ],
      "pkmn_rarity": "Uncommon",
      "pkmn_set": "POP Series 4",
      "tcgplayer_id": "88226",
      "sorting_number": "9",
      "release_date_unix": "2006-08-01 12:09:00",
      "pkmn_print_type": "",
      "pkmn_regulation_mark": "",
      "pkmn_format[]": [
        "DX-on (Modified 2007)",
        "HP-on (Modified 2008)"
      ],
      "pkmn_series[]": [
        "POP",
        "EX"
      ],
      "pkmn_collection": "",
      "pkmn_language": "",
      "card_prints": "",
      "pkmn_stage": "",
      "pkmn_hp": "",
      "pkmn_retreat_cost": "",
      "pkmn_level": "",
      "card_weakness_modifier": "",
      "card_resistance_modifier": ""
    }
  },
  {
    "id": 11305,
    "url": "https://pkmncards.com/card/scramble-energy-pop-series-4-p4-10/",
    "set-slug": "pop-series-4",
    "data": {
      "post_ID": "11305",
      "post_title": "Scramble Energy \u00b7 POP Series 4 (P4) #10",
      "card_attachment_id_jpg": "21948",
      "card_attachment_id_png": "",
      "card_name": "Scramble Energy",
      "card_number": "10",
      "card_text": "Scramble Energy can be attached only to an Evolved Pok\u00e9mon (excluding Pok\u00e9mon-ex). Scramble Energy provides {C} Energy. While in play, if you have more Prize cards left than your opponent, Scramble Energy provides every type of Energy but provides only 3 in any combination at a time. If the Pok\u00e9mon Scramble Energy is attached to isn't an Evolved Pok\u00e9mon (or evolves into Pok\u00e9mon-ex), discard Scramble Energy.",
      "flavor_text": "",
      "pkmn_type[]": [
        "Energy",
        "- Special Energy"
      ],
      "pkmn_artist[]": [
        "Takumi Akabane"
      ],
      "pkmn_rarity": "Uncommon",
      "pkmn_set": "POP Series 4",
      "tcgplayer_id": "88988",
      "sorting_number": "10",
      "release_date_unix": "2006-08-01 12:10:00",
      "pkmn_print_type": "",
      "pkmn_regulation_mark": "",
      "pkmn_format[]": [
        "DX-on (Modified 2007)",
        "HP-on (Modified 2008)"
      ],
      "pkmn_series[]": [
        "POP",
        "EX"
      ],
      "pkmn_collection": "",
      "pkmn_language": "",
      "card_prints": "",
      "pkmn_stage": "",
      "pkmn_hp": "",
      "pkmn_retreat_cost": "",
      "pkmn_level": "",
      "card_weakness_modifier": "",
      "card_resistance_modifier": ""
    }
  },
  {
    "id": 11300,
    "url": "https://pkmncards.com/card/mudkip-pop-series-4-p4-11/",
    "set-slug": "pop-series-4",
    "data": {
      "post_ID": "11300",
      "post_title": "Mudkip \u00b7 POP Series 4 (P4) #11",
      "card_attachment_id_jpg": "21940",
      "card_attachment_id_png": "",
      "card_name": "Mudkip",
      "card_number": "11",
      "card_text": "{W}{C} Super Hypno Wave: 20 damage. The Defending Pok\u00e9mon is now Asleep.",
      "flavor_text": "",
      "pkmn_type[]": [
        "Pok\u00e9mon"
      ],
      "pkmn_artist[]": [
        "Masakazu Fukuda"
      ],
      "pkmn_rarity": "Common",
      "pkmn_set": "POP Series 4",
      "tcgplayer_id": "87613",
      "sorting_number": "11",
      "release_date_unix": "2006-08-01 12:11:00",
      "pkmn_print_type": "",
      "pkmn_regulation_mark": "",
      "pkmn_format[]": [
        "DX-on (Modified 2007)",
        "HP-on (Modified 2008)"
      ],
      "pkmn_series[]": [
        "POP",
        "EX"
      ],
      "pkmn_collection": "",
      "pkmn_language": "",
      "card_prints": "",
      "pkmn_stage": "Basic",
      "pkmn_evolves_into[]": [
        "Marshtomp"
      ],
      "pkmn_color[]": [
        "Water"
      ],
      "pkmn_hp": "50",
      "pkmn_weakness[]": [
        "Grass"
      ],
      "pkmn_retreat_cost": "1",
      "pkmn_level": "",
      "card_weakness_modifier": "",
      "card_resistance_modifier": ""
    }
  },
  {
    "id": 11301,
    "url": "https://pkmncards.com/card/pidgey-pop-series-4-p4-12/",
    "set-slug": "pop-series-4",
    "data": {
      "post_ID": "11301",
      "post_title": "Pidgey \u00b7 POP Series 4 (P4) #12",
      "card_attachment_id_jpg": "21941",
      "card_attachment_id_png": "",
      "card_name": "Pidgey",
      "card_number": "12",
      "card_text": "{C}{C} Quick Attack: 20+ damage. Flip a coin. If heads, this attack does 20 damage plus 10 more damage.",
      "flavor_text": "",
      "pkmn_type[]": [
        "Pok\u00e9mon"
      ],
      "pkmn_artist[]": [
        "Hisao Nakamura"
      ],
      "pkmn_rarity": "Common",
      "pkmn_set": "POP Series 4",
      "tcgplayer_id": "88049",
      "sorting_number": "12",
      "release_date_unix": "2006-08-01 12:12:00",
      "pkmn_print_type": "",
      "pkmn_regulation_mark": "",
      "pkmn_format[]": [
        "DX-on (Modified 2007)",
        "HP-on (Modified 2008)"
      ],
      "pkmn_series[]": [
        "POP",
        "EX"
      ],
      "pkmn_collection": "",
      "pkmn_language": "",
      "card_prints": "",
      "pkmn_stage": "Basic",
      "pkmn_evolves_into[]": [
        "Pidgeotto"
      ],
      "pkmn_color[]": [
        "Colorless"
      ],
      "pkmn_hp": "40",
      "pkmn_weakness[]": [
        "Lightning"
      ],
      "pkmn_retreat_cost": "1",
      "pkmn_resistance[]": [
        "Fighting"
      ],
      "pkmn_level": "",
      "card_weakness_modifier": "",
      "card_resistance_modifier": ""
    }
  },
  {
    "id": 11302,
    "url": "https://pkmncards.com/card/pikachu-pop-series-4-p4-13/",
    "set-slug": "pop-series-4",
    "data": {
      "post_ID": "11302",
      "post_title": "Pikachu \u00b7 POP Series 4 (P4) #13",
      "card_attachment_id_jpg": "21943",
      "card_attachment_id_png": "",
      "card_name": "Pikachu",
      "card_number": "13",
      "card_text": "{L}{C} Spark: 20 damage. Does 10 damage to 1 of your opponent's Benched Pok\u00e9mon. (Don't apply Weakness and Resistance for Benched Pok\u00e9mon.)",
      "flavor_text": "",
      "pkmn_type[]": [
        "Pok\u00e9mon"
      ],
      "pkmn_artist[]": [
        "Kouki Saitou"
      ],
      "pkmn_rarity": "Common",
      "pkmn_set": "POP Series 4",
      "tcgplayer_id": "88083",
      "sorting_number": "13",
      "release_date_unix": "2006-08-01 12:13:00",
      "pkmn_print_type": "",
      "pkmn_regulation_mark": "",
      "pkmn_format[]": [
        "DX-on (Modified 2007)",
        "HP-on (Modified 2008)"
      ],
      "pkmn_series[]": [
        "POP",
        "EX"
      ],
      "pkmn_collection": "",
      "pkmn_language": "",
      "card_prints": "",
      "pkmn_stage": "Basic",
      "pkmn_evolves_into[]": [
        "Raichu",
        "Dark Raichu",
        "Raichu ex",
        "Raichu-GX",
        "Alolan Raichu"
      ],
      "pkmn_color[]": [
        "Lightning"
      ],
      "pkmn_hp": "50",
      "pkmn_weakness[]": [
        "Fighting"
      ],
      "pkmn_retreat_cost": "1",
      "pkmn_level": "",
      "card_weakness_modifier": "",
      "card_resistance_modifier": ""
    }
  },
  {
    "id": 11306,
    "url": "https://pkmncards.com/card/squirtle-pop-series-4-p4-14/",
    "set-slug": "pop-series-4",
    "data": {
      "post_ID": "11306",
      "post_title": "Squirtle \u00b7 POP Series 4 (P4) #14",
      "card_attachment_id_jpg": "21951",
      "card_attachment_id_png": "",
      "card_name": "Squirtle",
      "card_number": "14",
      "card_text": "Pok\u00e9-Body: Shell Retreat. As long as Squirtle has any Energy cards attached to it, damage done to Squirtle by an opponent's attack is reduced by 10 (after applying Weakness and Resistance).\r\n\r\n{C} Tackle: 10 damage.",
      "flavor_text": "",
      "pkmn_type[]": [
        "Pok\u00e9mon"
      ],
      "pkmn_artist[]": [
        "Atsuko Nishida"
      ],
      "pkmn_rarity": "Common",
      "pkmn_set": "POP Series 4",
      "tcgplayer_id": "89493",
      "sorting_number": "14",
      "release_date_unix": "2006-08-01 12:14:00",
      "pkmn_print_type": "",
      "pkmn_regulation_mark": "",
      "pkmn_format[]": [
        "DX-on (Modified 2007)",
        "HP-on (Modified 2008)"
      ],
      "pkmn_series[]": [
        "POP",
        "EX"
      ],
      "pkmn_collection": "",
      "pkmn_language": "",
      "card_prints": "",
      "pkmn_stage": "Basic",
      "pkmn_evolves_into[]": [
        "Wartortle",
        "Dark Wartortle"
      ],
      "pkmn_color[]": [
        "Water"
      ],
      "pkmn_hp": "50",
      "pkmn_weakness[]": [
        "Lightning"
      ],
      "pkmn_retreat_cost": "1",
      "pkmn_has[]": [
        "Pok\u00e9-Body"
      ],
      "pkmn_level": "",
      "card_weakness_modifier": "",
      "card_resistance_modifier": ""
    }
  },
  {
    "id": 11307,
    "url": "https://pkmncards.com/card/treecko-pop-series-4-p4-15/",
    "set-slug": "pop-series-4",
    "data": {
      "post_ID": "11307",
      "post_title": "Treecko \u00b7 POP Series 4 (P4) #15",
      "card_attachment_id_jpg": "21952",
      "card_attachment_id_png": "",
      "card_name": "Treecko",
      "card_number": "15",
      "card_text": "{C} Pound: 10 damage.\r\n\r\n{P} Shining Claws: 10 damage. Flip a coin. If heads, the Defending Pok\u00e9mon is now Confused.",
      "flavor_text": "",
      "pkmn_type[]": [
        "Pok\u00e9mon"
      ],
      "pkmn_artist[]": [
        "Masakazu Fukuda"
      ],
      "pkmn_rarity": "Common",
      "pkmn_set": "POP Series 4",
      "tcgplayer_id": "90045",
      "sorting_number": "15",
      "release_date_unix": "2006-08-01 12:15:00",
      "pkmn_print_type": "",
      "pkmn_regulation_mark": "",
      "pkmn_format[]": [
        "DX-on (Modified 2007)",
        "HP-on (Modified 2008)"
      ],
      "pkmn_series[]": [
        "POP",
        "EX"
      ],
      "pkmn_collection": "",
      "pkmn_language": "",
      "card_prints": "",
      "pkmn_stage": "Basic",
      "pkmn_evolves_into[]": [
        "Grovyle"
      ],
      "pkmn_color[]": [
        "Psychic"
      ],
      "pkmn_hp": "40",
      "pkmn_weakness[]": [
        "Fire"
      ],
      "pkmn_retreat_cost": "1",
      "pkmn_resistance[]": [
        "Water"
      ],
      "pkmn_is[]": [
        "Delta Species"
      ],
      "pkmn_level": "",
      "card_weakness_modifier": "",
      "card_resistance_modifier": ""
    }
  },
  {
    "id": 11308,
    "url": "https://pkmncards.com/card/wobbuffet-pop-series-4-p4-16/",
    "set-slug": "pop-series-4",
    "data": {
      "post_ID": "11308",
      "post_title": "Wobbuffet \u00b7 POP Series 4 (P4) #16",
      "card_attachment_id_jpg": "21953",
      "card_attachment_id_png": "",
      "card_name": "Wobbuffet",
      "card_number": "16",
      "card_text": "{C} Nap. Remove 2 damage counters from Wobbuffet.\r\n\r\n{P}{C} Expand: 20 damage. During your opponent's next turn, any damage done to Wobbuffet is reduced by 20 (after applying Weakness and Resistance).",
      "flavor_text": "",
      "pkmn_type[]": [
        "Pok\u00e9mon"
      ],
      "pkmn_artist[]": [
        "Kagemaru Himeno"
      ],
      "pkmn_rarity": "Common",
      "pkmn_set": "POP Series 4",
      "tcgplayer_id": "90618",
      "sorting_number": "16",
      "release_date_unix": "2006-08-01 12:16:00",
      "pkmn_print_type": "",
      "pkmn_regulation_mark": "",
      "pkmn_format[]": [
        "DX-on (Modified 2007)",
        "HP-on (Modified 2008)"
      ],
      "pkmn_series[]": [
        "POP",
        "EX"
      ],
      "pkmn_collection": "",
      "pkmn_language": "",
      "card_prints": "",
      "pkmn_stage": "Basic",
      "pkmn_evolves_into[]": [
        "Wobbuffet BREAK"
      ],
      "pkmn_color[]": [
        "Psychic"
      ],
      "pkmn_hp": "80",
      "pkmn_weakness[]": [
        "Psychic"
      ],
      "pkmn_retreat_cost": "2",
      "pkmn_level": "",
      "card_weakness_modifier": "",
      "card_resistance_modifier": ""
    }
  },
  {
    "id": 11295,
    "url": "https://pkmncards.com/card/deoxys-ex-pop-series-4-p4-17/",
    "set-slug": "pop-series-4",
    "data": {
      "post_ID": "11295",
      "post_title": "Deoxys ex \u00b7 POP Series 4 (P4) #17",
      "card_attachment_id_jpg": "21933",
      "card_attachment_id_png": "",
      "card_name": "Deoxys ex",
      "card_number": "17",
      "card_text": "Pok\u00e9-Power: Form Change. Once during your turn (before your attack), you may search your deck for another Deoxys ex and switch it with Deoxys ex. (Any cards attached to Deoxys ex, damage counters, Special Conditions, and effects on it are now on the new Pok\u00e9mon.) If you do, put Deoxys ex on top of your deck. Shuffle your deck afterward. You can't use more than 1 Form Change Pok\u00e9-Power each turn.\r\n\r\n{C}{C}{C} Fastwave: 50 damage. This attack's damage isn't affected by Resistance, Pok\u00e9-Powers, Pok\u00e9-Bodies, or any other effects on the Defending Pok\u00e9mon.",
      "flavor_text": "",
      "pkmn_type[]": [
        "Pok\u00e9mon"
      ],
      "pkmn_artist[]": [
        "Hiromichi Sugiyama"
      ],
      "pkmn_rarity": "Rare",
      "pkmn_set": "POP Series 4",
      "tcgplayer_id": "84774",
      "sorting_number": "17",
      "release_date_unix": "2006-08-01 12:17:00",
      "pkmn_print_type": "",
      "pkmn_regulation_mark": "",
      "pkmn_format[]": [
        "DX-on (Modified 2007)",
        "HP-on (Modified 2008)"
      ],
      "pkmn_series[]": [
        "POP",
        "EX"
      ],
      "pkmn_collection": "",
      "pkmn_language": "",
      "card_prints": "",
      "pkmn_stage": "Basic",
      "pkmn_color[]": [
        "Psychic"
      ],
      "pkmn_hp": "110",
      "pkmn_weakness[]": [
        "Psychic"
      ],
      "pkmn_retreat_cost": "1",
      "pkmn_is[]": [
        "ex"
      ],
      "pkmn_has[]": [
        "Pok\u00e9-Power"
      ],
      "pkmn_level": "",
      "card_weakness_modifier": "",
      "card_resistance_modifier": ""
    }
  }
]