[
  {
    "id": 61686,
    "url": "https://pkmncards.com/card/alakazam-box-topper-1/",
    "set-slug": "box-topper",
    "data": {
      "post_ID": "61686",
      "post_title": "Alakazam \u00b7 Box Topper #1",
      "card_attachment_id_jpg": "61698",
      "card_attachment_id_png": "",
      "card_name": "Alakazam",
      "card_number": "1",
      "card_text": "Pok\u00e9-Power: Psymimic\r\nOnce during your turn, instead of Alakazam's normal attack, you may choose 1 of your opponent's Pok\u00e9mon's attacks. Alakazam copies that attack including its Energy costs and anything else required in order to use that attack, such as discarding Energy cards. (No matter what type that Pok\u00e9mon is, Alakazam's type is still Psychic.) This power can't be used if Alakazam is affected by a Special Condition.\r\n\r\n{P}{C}{C} Syncroblast: 80 damage. If Alakazam and the Defending Pok\u00e9mon don't have the same number of Energy cards attached to them, this attack's base damage is 20 instead of 80.",
      "flavor_text": "",
      "pkmn_type[]": [
        "Pok\u00e9mon"
      ],
      "pkmn_artist[]": [
        "Hajime Kusajima"
      ],
      "pkmn_rarity": "Rare Holo",
      "pkmn_set": "Box Topper",
      "tcgplayer_id": "-1",
      "sorting_number": "1",
      "release_date_unix": "2003-01-15 12:01:00",
      "pkmn_print_type": "",
      "pkmn_regulation_mark": "",
      "pkmn_format[]": [
        "Neo-on (Modified 2003)",
        "E-on (Modified 2004)"
      ],
      "pkmn_series[]": [
        "Other"
      ],
      "pkmn_collection": "",
      "pkmn_language": "",
      "card_prints": "",
      "pkmn_stage": "Stage 2",
      "pkmn_evolves_from[]": [
        "Kadabra"
      ],
      "pkmn_color[]": [
        "Psychic"
      ],
      "pkmn_hp": "100",
      "pkmn_weakness[]": [
        "Psychic"
      ],
      "pkmn_retreat_cost": "2",
      "pkmn_has[]": [
        "Pok\u00e9-Power"
      ],
      "pkmn_level": "",
      "card_weakness_modifier": "",
      "card_resistance_modifier": ""
    }
  },
  {
    "id": 61701,
    "url": "https://pkmncards.com/card/feraligatr-box-topper-2/",
    "set-slug": "box-topper",
    "data": {
      "post_ID": "61701",
      "post_title": "Feraligatr \u00b7 Box Topper #2",
      "card_attachment_id_jpg": "61697",
      "card_attachment_id_png": "",
      "card_name": "Feraligatr",
      "card_number": "2",
      "card_text": "Pok\u00e9-Power: Major Tsunami\r\nOnce during your turn (before your attack), If Feraligatr is your Active Pok\u00e9mon and if your opponent has any Benched Pok\u00e9mon, your opponent switches his or her Active Pok\u00e9mon with 1 of his or her Benched Pok\u00e9mon. Either way, if you have any Benched Pok\u00e9mon, switch Feraligatr with 1 of them. This power can't be used if Feraligatr is affected by a Special Condition.\r\n\r\n{W}{W}{C}{C} Rending Jaws: 70 damage. If here are no damage counters on the Defending Pok\u00e9mon, this attack's base damage is 40 instead of 70.",
      "flavor_text": "",
      "pkmn_type[]": [
        "Pok\u00e9mon"
      ],
      "pkmn_artist[]": [
        "Mitsuhiro Arita"
      ],
      "pkmn_rarity": "Rare Holo",
      "pkmn_set": "Box Topper",
      "tcgplayer_id": "-1",
      "sorting_number": "2",
      "release_date_unix": "2003-01-15 12:02:00",
      "pkmn_print_type": "",
      "pkmn_regulation_mark": "",
      "pkmn_format[]": [
        "Neo-on (Modified 2003)",
        "E-on (Modified 2004)"
      ],
      "pkmn_series[]": [
        "Other"
      ],
      "pkmn_collection": "",
      "pkmn_language": "",
      "card_prints": "",
      "pkmn_stage": "Stage 2",
      "pkmn_evolves_from[]": [
        "Croconaw"
      ],
      "pkmn_color[]": [
        "Water"
      ],
      "pkmn_hp": "120",
      "pkmn_weakness[]": [
        "Lightning"
      ],
      "pkmn_retreat_cost": "3",
      "pkmn_has[]": [
        "Pok\u00e9-Power"
      ],
      "pkmn_level": "",
      "card_weakness_modifier": "",
      "card_resistance_modifier": ""
    }
  },
  {
    "id": 61704,
    "url": "https://pkmncards.com/card/tyranitar-box-topper-3/",
    "set-slug": "box-topper",
    "data": {
      "post_ID": "61704",
      "post_title": "Tyranitar \u00b7 Box Topper #3",
      "card_attachment_id_jpg": "61696",
      "card_attachment_id_png": "",
      "card_name": "Tyranitar",
      "card_number": "3",
      "card_text": "Pok\u00e9-Body: Dark Aura\r\nAll Energy attached to Tyranitar is {D} Energy instead of its usual type.\r\n\r\n{D}{D}{D}{D} Stamp: 50+ damage. Flip a coin. If heads this attack does 50 damage plus 10 more damage and does 10 damage to each of your opponent's Benched Pok\u00e9mon, if any. (Don't apply Weakness and Resistance for Benched Pok\u00e9mon.)",
      "flavor_text": "",
      "pkmn_type[]": [
        "Pok\u00e9mon"
      ],
      "pkmn_artist[]": [
        "Kimiya Masago"
      ],
      "pkmn_rarity": "Rare Holo",
      "pkmn_set": "Box Topper",
      "tcgplayer_id": "-1",
      "sorting_number": "3",
      "release_date_unix": "2003-01-15 12:03:00",
      "pkmn_print_type": "",
      "pkmn_regulation_mark": "",
      "pkmn_format[]": [
        "Neo-on (Modified 2003)",
        "E-on (Modified 2004)"
      ],
      "pkmn_series[]": [
        "Other"
      ],
      "pkmn_collection": "",
      "pkmn_language": "",
      "card_prints": "",
      "pkmn_stage": "Stage 2",
      "pkmn_evolves_from[]": [
        "Pupitar"
      ],
      "pkmn_color[]": [
        "Darkness"
      ],
      "pkmn_hp": "120",
      "pkmn_weakness[]": [
        "Fighting"
      ],
      "pkmn_retreat_cost": "4",
      "pkmn_resistance[]": [
        "Psychic"
      ],
      "pkmn_has[]": [
        "Pok\u00e9-Body"
      ],
      "pkmn_level": "",
      "card_weakness_modifier": "",
      "card_resistance_modifier": ""
    }
  },
  {
    "id": 61707,
    "url": "https://pkmncards.com/card/venusaur-box-topper-4/",
    "set-slug": "box-topper",
    "data": {
      "post_ID": "61707",
      "post_title": "Venusaur \u00b7 Box Topper #4",
      "card_attachment_id_jpg": "61695",
      "card_attachment_id_png": "",
      "card_name": "Venusaur",
      "card_number": "4",
      "card_text": "Pok\u00e9-Power: Harvest Bounty\r\nOnce during your turn (before your attack), if you attach an Energy card to your Active Pok\u00e9mon as part of your turn, you may attach an additional Energy card to that Pok\u00e9mon at the same time. This power can't be used if Venusaur is affected by a Special Condition.\r\n\r\n{G}{G}{C}{C} Body Slam: 40 damage. Flip a coin. If heads, the Defending Pok\u00e9mon is now Paralyzed.",
      "flavor_text": "",
      "pkmn_type[]": [
        "Pok\u00e9mon"
      ],
      "pkmn_artist[]": [
        "Shin-ichi Yoshikawa"
      ],
      "pkmn_rarity": "Rare Holo",
      "pkmn_set": "Box Topper",
      "tcgplayer_id": "-1",
      "sorting_number": "4",
      "release_date_unix": "2003-01-15 12:04:00",
      "pkmn_print_type": "",
      "pkmn_regulation_mark": "",
      "pkmn_format[]": [
        "Neo-on (Modified 2003)",
        "E-on (Modified 2004)"
      ],
      "pkmn_series[]": [
        "Other"
      ],
      "pkmn_collection": "",
      "pkmn_language": "",
      "card_prints": "",
      "pkmn_stage": "Stage 2",
      "pkmn_evolves_from[]": [
        "Ivysaur"
      ],
      "pkmn_color[]": [
        "Grass"
      ],
      "pkmn_hp": "100",
      "pkmn_weakness[]": [
        "Fire"
      ],
      "pkmn_retreat_cost": "2",
      "pkmn_has[]": [
        "Pok\u00e9-Power"
      ],
      "pkmn_level": "",
      "card_weakness_modifier": "",
      "card_resistance_modifier": ""
    }
  },
  {
    "id": 61710,
    "url": "https://pkmncards.com/card/entei-box-topper-5/",
    "set-slug": "box-topper",
    "data": {
      "post_ID": "61710",
      "post_title": "Entei \u00b7 Box Topper #5",
      "card_attachment_id_jpg": "61694",
      "card_attachment_id_png": "",
      "card_name": "Entei",
      "card_number": "5",
      "card_text": "Pok\u00e9-Body: Pure Body. To attach a {R} Energy card from your hand to Entei, you must discard an Energy card attached to Entei. (Attach the {R} Energy, and then discard an Energy from Entei.)\r\n\r\n{R}{C}{C} Burning Fang: 40 damage. You may flip a coin. If heads, discard a {R} Energy card attached to Entei and the Defending Pok\u00e9mon is now Burned.",
      "flavor_text": "",
      "pkmn_type[]": [
        "Pok\u00e9mon"
      ],
      "pkmn_artist[]": [
        "Atsuko Nishida"
      ],
      "pkmn_rarity": "Rare Holo",
      "pkmn_set": "Box Topper",
      "tcgplayer_id": "-1",
      "sorting_number": "5",
      "release_date_unix": "2003-01-15 12:05:00",
      "pkmn_print_type": "",
      "pkmn_regulation_mark": "",
      "pkmn_format[]": [
        "Neo-on (Modified 2003)",
        "E-on (Modified 2004)"
      ],
      "pkmn_series[]": [
        "Other"
      ],
      "pkmn_collection": "",
      "pkmn_language": "",
      "card_prints": "",
      "pkmn_stage": "Basic",
      "pkmn_color[]": [
        "Fire"
      ],
      "pkmn_hp": "70",
      "pkmn_weakness[]": [
        "Water"
      ],
      "pkmn_retreat_cost": "1",
      "pkmn_has[]": [
        "Pok\u00e9-Body"
      ],
      "pkmn_level": "",
      "card_weakness_modifier": "",
      "card_resistance_modifier": ""
    }
  },
  {
    "id": 61715,
    "url": "https://pkmncards.com/card/espeon-box-topper-6/",
    "set-slug": "box-topper",
    "data": {
      "post_ID": "61715",
      "post_title": "Espeon \u00b7 Box Topper #6",
      "card_attachment_id_jpg": "61693",
      "card_attachment_id_png": "",
      "card_name": "Espeon",
      "card_number": "6",
      "card_text": "Pok\u00e9-Power: Energy Return. As often as you like during your turn (before your attack), choose an Energy card attached to 1 of your Pok\u00e9mon and return it to your hand. This power can't be used if Espeon is affected by a Special Condition.\r\n\r\n{P}{C}{C} Damage Blast: 30+ damage. Flip a number of coins equal to the number of damage counter on the Defending Pok\u00e9mon. This attack does 30 damage plus 10 more damage for each heads.",
      "flavor_text": "",
      "pkmn_type[]": [
        "Pok\u00e9mon"
      ],
      "pkmn_artist[]": [
        "Kyoko Umemoto"
      ],
      "pkmn_rarity": "Rare Holo",
      "pkmn_set": "Box Topper",
      "tcgplayer_id": "-1",
      "sorting_number": "6",
      "release_date_unix": "2003-01-15 12:06:00",
      "pkmn_print_type": "",
      "pkmn_regulation_mark": "",
      "pkmn_format[]": [
        "Neo-on (Modified 2003)",
        "E-on (Modified 2004)"
      ],
      "pkmn_series[]": [
        "Other"
      ],
      "pkmn_collection": "",
      "pkmn_language": "",
      "card_prints": "",
      "pkmn_stage": "Stage 1",
      "pkmn_evolves_from[]": [
        "Eevee"
      ],
      "pkmn_color[]": [
        "Psychic"
      ],
      "pkmn_hp": "80",
      "pkmn_weakness[]": [
        "Psychic"
      ],
      "pkmn_retreat_cost": "0",
      "pkmn_has[]": [
        "Pok\u00e9-Power"
      ],
      "pkmn_level": "",
      "card_weakness_modifier": "",
      "card_resistance_modifier": ""
    }
  },
  {
    "id": 61718,
    "url": "https://pkmncards.com/card/scizor-box-topper-7/",
    "set-slug": "box-topper",
    "data": {
      "post_ID": "61718",
      "post_title": "Scizor \u00b7 Box Topper #7",
      "card_attachment_id_jpg": "61692",
      "card_attachment_id_png": "",
      "card_name": "Scizor",
      "card_number": "7",
      "card_text": "Pok\u00e9-Body: Poison Resistance. Scizor can't be Poisoned.\r\n\r\n{M}{C} Snatch: 20 damage. Before doing damage, you may choose 1 of your opponent's Benched Pok\u00e9mon with no damage counters on it and switch the Defending Pok\u00e9mon with it.\r\n\r\n{C}{C}{C} Heavy Metal: 30+ damage. Flip a number of coins equal to the amount of {M} Energy attached to Scizor. This attack does 30 damage plus 20 more damage for each heads.",
      "flavor_text": "",
      "pkmn_type[]": [
        "Pok\u00e9mon"
      ],
      "pkmn_artist[]": [
        "Hisao Nakamura"
      ],
      "pkmn_rarity": "Rare Holo",
      "pkmn_set": "Box Topper",
      "tcgplayer_id": "-1",
      "sorting_number": "7",
      "release_date_unix": "2003-01-15 12:07:00",
      "pkmn_print_type": "",
      "pkmn_regulation_mark": "",
      "pkmn_format[]": [
        "Neo-on (Modified 2003)",
        "E-on (Modified 2004)"
      ],
      "pkmn_series[]": [
        "Other"
      ],
      "pkmn_collection": "",
      "pkmn_language": "",
      "card_prints": "",
      "pkmn_stage": "Stage 1",
      "pkmn_evolves_from[]": [
        "Scyther"
      ],
      "pkmn_color[]": [
        "Metal"
      ],
      "pkmn_hp": "80",
      "pkmn_weakness[]": [
        "Fire"
      ],
      "pkmn_retreat_cost": "2",
      "pkmn_has[]": [
        "Pok\u00e9-Body"
      ],
      "pkmn_level": "",
      "card_weakness_modifier": "",
      "card_resistance_modifier": ""
    }
  },
  {
    "id": 61721,
    "url": "https://pkmncards.com/card/suicune-box-topper-8/",
    "set-slug": "box-topper",
    "data": {
      "post_ID": "61721",
      "post_title": "Suicune \u00b7 Box Topper #8",
      "card_attachment_id_jpg": "61691",
      "card_attachment_id_png": "",
      "card_name": "Suicune",
      "card_number": "8",
      "card_text": "Pok\u00e9-Body: Pure Body. To attach a {W} Energy card from your hand to Suicune, you must discard an Energy card attached to Suicune. (Attach the {W} Energy, and then discard an Energy card from Suicune.)\r\n\r\n{W}{C}{C} Hypno Wave: 30+ damage. Flip a coin. If heads, this attack does 30 damage plus 20 more damage. If tails, this attack does 30 damage and the Defending Pok\u00e9mon is now Asleep.",
      "flavor_text": "",
      "pkmn_type[]": [
        "Pok\u00e9mon"
      ],
      "pkmn_artist[]": [
        "Atsuko Nishida"
      ],
      "pkmn_rarity": "Rare Holo",
      "pkmn_set": "Box Topper",
      "tcgplayer_id": "-1",
      "sorting_number": "8",
      "release_date_unix": "2003-01-15 12:08:00",
      "pkmn_print_type": "",
      "pkmn_regulation_mark": "",
      "pkmn_format[]": [
        "Neo-on (Modified 2003)",
        "E-on (Modified 2004)"
      ],
      "pkmn_series[]": [
        "Other"
      ],
      "pkmn_collection": "",
      "pkmn_language": "",
      "card_prints": "",
      "pkmn_stage": "Basic",
      "pkmn_color[]": [
        "Water"
      ],
      "pkmn_hp": "70",
      "pkmn_weakness[]": [
        "Lightning"
      ],
      "pkmn_retreat_cost": "1",
      "pkmn_has[]": [
        "Pok\u00e9-Body"
      ],
      "pkmn_level": "",
      "card_weakness_modifier": "",
      "card_resistance_modifier": ""
    }
  },
  {
    "id": 61724,
    "url": "https://pkmncards.com/card/charizard-box-topper-9/",
    "set-slug": "box-topper",
    "data": {
      "post_ID": "61724",
      "post_title": "Charizard \u00b7 Box Topper #9",
      "card_attachment_id_jpg": "61690",
      "card_attachment_id_png": "",
      "card_name": "Charizard",
      "card_number": "9",
      "card_text": "Pok\u00e9-Body: Crystal Type\r\nWhenever you attach a {R}, {L}, or {F} basic Energy card from your hand to Charizard, Charizard's type (color) becomes the same as that type of Energy until the end of the turn.\r\n\r\n{R}{R}{F} Fireblast: 40 damage. Discard an Energy card attached to Charizard.\r\n\r\n{R}{L}{L}{C} Dragon Tail: 50x damage. Flip 2 coins. This attack does 50 damage times the number of heads.",
      "flavor_text": "",
      "pkmn_type[]": [
        "Pok\u00e9mon"
      ],
      "pkmn_artist[]": [
        "Kouki Saitou"
      ],
      "pkmn_rarity": "Rare Holo",
      "pkmn_set": "Box Topper",
      "tcgplayer_id": "-1",
      "sorting_number": "9",
      "release_date_unix": "2003-01-15 12:09:00",
      "pkmn_print_type": "",
      "pkmn_regulation_mark": "",
      "pkmn_format[]": [
        "Neo-on (Modified 2003)",
        "E-on (Modified 2004)"
      ],
      "pkmn_series[]": [
        "Other"
      ],
      "pkmn_collection": "",
      "pkmn_language": "",
      "card_prints": "",
      "pkmn_stage": "Stage 2",
      "pkmn_evolves_from[]": [
        "Charmeleon"
      ],
      "pkmn_color[]": [
        "Colorless"
      ],
      "pkmn_hp": "110",
      "pkmn_weakness[]": [
        "Water"
      ],
      "pkmn_retreat_cost": "4",
      "pkmn_is[]": [
        "Crystal"
      ],
      "pkmn_has[]": [
        "Pok\u00e9-Body"
      ],
      "pkmn_level": "",
      "card_weakness_modifier": "",
      "card_resistance_modifier": ""
    }
  },
  {
    "id": 61727,
    "url": "https://pkmncards.com/card/crobat-box-topper-10/",
    "set-slug": "box-topper",
    "data": {
      "post_ID": "61727",
      "post_title": "Crobat \u00b7 Box Topper #10",
      "card_attachment_id_jpg": "61689",
      "card_attachment_id_png": "",
      "card_name": "Crobat",
      "card_number": "10",
      "card_text": "Pok\u00e9-Body: Crystal Type\r\nWhenever you attach a {G}, {R}, or {P} basic Energy card from your hand to Crobat, Crobat's type (color) becomes the same as that type of Energy until the end of the turn.\r\n\r\n{G}{R}{C} Poison Flame: 20 damage. Flip a coin. If heads, the Defending Pok\u00e9mon is now Burned and Poisoned.\r\n\r\n{G}{P}{P} Squared Attack: 20x damage. Flip 4 coins. This attack does 20 damage times the number of heads.",
      "flavor_text": "",
      "pkmn_type[]": [
        "Pok\u00e9mon"
      ],
      "pkmn_artist[]": [
        "Atsuko Nishida"
      ],
      "pkmn_rarity": "Rare Holo",
      "pkmn_set": "Box Topper",
      "tcgplayer_id": "-1",
      "sorting_number": "10",
      "release_date_unix": "2003-01-15 12:10:00",
      "pkmn_print_type": "",
      "pkmn_regulation_mark": "",
      "pkmn_format[]": [
        "Neo-on (Modified 2003)",
        "E-on (Modified 2004)"
      ],
      "pkmn_series[]": [
        "Other"
      ],
      "pkmn_collection": "",
      "pkmn_language": "",
      "card_prints": "",
      "pkmn_stage": "Stage 2",
      "pkmn_evolves_from[]": [
        "Golbat"
      ],
      "pkmn_evolves_into[]": [
        "Crobat BREAK"
      ],
      "pkmn_color[]": [
        "Colorless"
      ],
      "pkmn_hp": "80",
      "pkmn_weakness[]": [
        "Psychic"
      ],
      "pkmn_retreat_cost": "0",
      "pkmn_is[]": [
        "Crystal"
      ],
      "pkmn_has[]": [
        "Pok\u00e9-Body"
      ],
      "pkmn_level": "",
      "card_weakness_modifier": "",
      "card_resistance_modifier": ""
    }
  },
  {
    "id": 61730,
    "url": "https://pkmncards.com/card/ho-oh-box-topper-11/",
    "set-slug": "box-topper",
    "data": {
      "post_ID": "61730",
      "post_title": "Ho-oh \u00b7 Box Topper #11",
      "card_attachment_id_jpg": "61688",
      "card_attachment_id_png": "",
      "card_name": "Ho-oh",
      "card_number": "11",
      "card_text": "Pok\u00e9-Body: Crystal Type\r\nWhenever you attach a {R}, {W}, or {L} basic Energy card from your hand to Ho-oh, Ho-oh's type (color) becomes the same as that type of Energy until the end of the turn.\r\n\r\n{R}{L} Holy Flame: 20 damage.\r\n\r\n{R}{W}{W}{C} Scalding Steam: 40 damage. Discard an Energy card attached to Ho-oh and flip a coin. If heads, the Defending Pok\u00e9mon is now Burned.",
      "flavor_text": "",
      "pkmn_type[]": [
        "Pok\u00e9mon"
      ],
      "pkmn_artist[]": [
        "Hajime Kusajima"
      ],
      "pkmn_rarity": "Rare Holo",
      "pkmn_set": "Box Topper",
      "tcgplayer_id": "-1",
      "sorting_number": "11",
      "release_date_unix": "2003-01-15 12:11:00",
      "pkmn_print_type": "",
      "pkmn_regulation_mark": "",
      "pkmn_format[]": [
        "Neo-on (Modified 2003)",
        "E-on (Modified 2004)"
      ],
      "pkmn_series[]": [
        "Other"
      ],
      "pkmn_collection": "",
      "pkmn_language": "",
      "card_prints": "",
      "pkmn_stage": "Basic",
      "pkmn_evolves_into[]": [
        "Ho-Oh BREAK"
      ],
      "pkmn_color[]": [
        "Colorless"
      ],
      "pkmn_hp": "80",
      "pkmn_weakness[]": [
        "Water"
      ],
      "pkmn_retreat_cost": "3",
      "pkmn_is[]": [
        "Crystal"
      ],
      "pkmn_has[]": [
        "Pok\u00e9-Body"
      ],
      "pkmn_level": "",
      "card_weakness_modifier": "",
      "card_resistance_modifier": ""
    }
  },
  {
    "id": 61733,
    "url": "https://pkmncards.com/card/kabutops-box-topper-12/",
    "set-slug": "box-topper",
    "data": {
      "post_ID": "61733",
      "post_title": "Kabutops \u00b7 Box Topper #12",
      "card_attachment_id_jpg": "61687",
      "card_attachment_id_png": "",
      "card_name": "Kabutops",
      "card_number": "12",
      "card_text": "Pok\u00e9-Body: Crystal Type\r\nWhenever you attach a {W}, {L}, or {F} basic Energy card from your hand to Kabutops, Kabutops's type (color) becomes the same as that type of Energy until the end of the turn.\r\n\r\n{W}{F}{C} Draining Cut: 20 damage. Remove a damage counter from Kabutops.\r\n\r\n{L}{L}{F}{C} Triple Cutter: 30x damage. Flip 3 coins. This attack does 30 damage times the number of heads.",
      "flavor_text": "",
      "pkmn_type[]": [
        "Pok\u00e9mon"
      ],
      "pkmn_artist[]": [
        "Atsuko Nishida"
      ],
      "pkmn_rarity": "Rare Holo",
      "pkmn_set": "Box Topper",
      "tcgplayer_id": "-1",
      "sorting_number": "12",
      "release_date_unix": "2003-01-15 12:12:00",
      "pkmn_print_type": "",
      "pkmn_regulation_mark": "",
      "pkmn_format[]": [
        "Neo-on (Modified 2003)",
        "E-on (Modified 2004)"
      ],
      "pkmn_series[]": [
        "Other"
      ],
      "pkmn_collection": "",
      "pkmn_language": "",
      "card_prints": "",
      "pkmn_stage": "Stage 2",
      "pkmn_evolves_from[]": [
        "Kabuto"
      ],
      "pkmn_color[]": [
        "Colorless"
      ],
      "pkmn_hp": "90",
      "pkmn_weakness[]": [
        "Grass"
      ],
      "pkmn_retreat_cost": "3",
      "pkmn_is[]": [
        "Crystal"
      ],
      "pkmn_has[]": [
        "Pok\u00e9-Body"
      ],
      "pkmn_level": "",
      "card_weakness_modifier": "",
      "card_resistance_modifier": ""
    }
  }
]