[
  {
    "id": 76434,
    "url": "https://pkmncards.com/card/bulbasaur-mcdonalds-collection-2021-mcd21-1/",
    "set-slug": "mcdonalds-collection-2021",
    "data": {
      "post_ID": "76434",
      "post_title": "Bulbasaur \u00b7 McDonald's Collection 2021 (MCD21) #1",
      "card_attachment_id_jpg": "76435",
      "card_attachment_id_png": "76436",
      "card_name": "Bulbasaur",
      "card_number": "1",
      "card_text": "{G}{C} Razor Leaf: 30 damage.",
      "flavor_text": "A strange seed was planted on its back at birth. The plant sprouts and grows with this Pok\u00e9mon.",
      "pkmn_type[]": [
        "Pok\u00e9mon"
      ],
      "pkmn_artist[]": [
        "Mizue"
      ],
      "pkmn_rarity": "Promo",
      "pkmn_set": "McDonald's Collection 2021",
      "tcgplayer_id": "232316",
      "sorting_number": "1",
      "release_date_unix": "2021-02-09 12:01:00",
      "pkmn_print_type": "",
      "pkmn_regulation_mark": "",
      "pkmn_format[]": [
        "BLW-on (Expanded 2021)",
        "BLW-on (Expanded 2022)"
      ],
      "pkmn_series[]": [
        "Other"
      ],
      "pkmn_collection": "",
      "pkmn_language": "",
      "card_prints": "",
      "pkmn_stage": "Basic",
      "pkmn_evolves_into[]": [
        "Ivysaur",
        "Dark Ivysaur"
      ],
      "pkmn_color[]": [
        "Grass"
      ],
      "pkmn_hp": "70",
      "pkmn_weakness[]": [
        "Fire"
      ],
      "pkmn_retreat_cost": "2",
      "pkmn_has[]": [
        "Flavor Text"
      ],
      "pkmn_level": "",
      "card_weakness_modifier": "",
      "card_resistance_modifier": ""
    }
  },
  {
    "id": 76437,
    "url": "https://pkmncards.com/card/chikorita-mcdonalds-collection-2021-mcd21-2/",
    "set-slug": "mcdonalds-collection-2021",
    "data": {
      "post_ID": "76437",
      "post_title": "Chikorita \u00b7 McDonald's Collection 2021 (MCD21) #2",
      "card_attachment_id_jpg": "76462",
      "card_attachment_id_png": "76438",
      "card_name": "Chikorita",
      "card_number": "2",
      "card_text": "{G} Mini Drain: 10. Heal 10 damage from this Pok\u00e9mon.",
      "flavor_text": "It uses the leaf on its head to determine the temperature and humidity. It loves to sunbathe.",
      "pkmn_type[]": [
        "Pok\u00e9mon"
      ],
      "pkmn_artist[]": [
        "sowsow"
      ],
      "pkmn_rarity": "Promo",
      "pkmn_set": "McDonald's Collection 2021",
      "tcgplayer_id": "232317",
      "sorting_number": "2",
      "release_date_unix": "2021-02-09 12:02:00",
      "pkmn_print_type": "",
      "pkmn_regulation_mark": "",
      "pkmn_format[]": [
        "BLW-on (Expanded 2021)",
        "BLW-on (Expanded 2022)"
      ],
      "pkmn_series[]": [
        "Other"
      ],
      "pkmn_collection": "",
      "pkmn_language": "",
      "card_prints": "",
      "pkmn_stage": "Basic",
      "pkmn_evolves_into[]": [
        "Bayleef"
      ],
      "pkmn_color[]": [
        "Grass"
      ],
      "pkmn_hp": "70",
      "pkmn_weakness[]": [
        "Fire"
      ],
      "pkmn_retreat_cost": "1",
      "pkmn_has[]": [
        "Flavor Text"
      ],
      "pkmn_level": "",
      "card_weakness_modifier": "",
      "card_resistance_modifier": ""
    }
  },
  {
    "id": 76486,
    "url": "https://pkmncards.com/card/treecko-mcdonalds-collection-2021-mcd21-3/",
    "set-slug": "mcdonalds-collection-2021",
    "data": {
      "post_ID": "76486",
      "post_title": "Treecko \u00b7 McDonald's Collection 2021 (MCD21) #3",
      "card_attachment_id_jpg": "76463",
      "card_attachment_id_png": "76439",
      "card_name": "Treecko",
      "card_number": "3",
      "card_text": "{G} Quick Attack: 10+ damage. Flip a coin. If heads, this attack does 10 more damage.",
      "flavor_text": "Small hooks on the bottom of its feet catch on walls and ceilings. That is how it can hang from above.",
      "pkmn_type[]": [
        "Pok\u00e9mon"
      ],
      "pkmn_artist[]": [
        "Akira Komayama"
      ],
      "pkmn_rarity": "Promo",
      "pkmn_set": "McDonald's Collection 2021",
      "tcgplayer_id": "232318",
      "sorting_number": "3",
      "release_date_unix": "2021-02-09 12:03:00",
      "pkmn_print_type": "",
      "pkmn_regulation_mark": "",
      "pkmn_format[]": [
        "BLW-on (Expanded 2021)",
        "BLW-on (Expanded 2022)"
      ],
      "pkmn_series[]": [
        "Other"
      ],
      "pkmn_collection": "",
      "pkmn_language": "",
      "card_prints": "",
      "pkmn_stage": "Basic",
      "pkmn_evolves_into[]": [
        "Grovyle"
      ],
      "pkmn_color[]": [
        "Grass"
      ],
      "pkmn_hp": "60",
      "pkmn_weakness[]": [
        "Fire"
      ],
      "pkmn_retreat_cost": "1",
      "pkmn_has[]": [
        "Flavor Text"
      ],
      "pkmn_level": "",
      "card_weakness_modifier": "",
      "card_resistance_modifier": ""
    }
  },
  {
    "id": 76487,
    "url": "https://pkmncards.com/card/turtwig-mcdonalds-collection-2021-mcd21-4/",
    "set-slug": "mcdonalds-collection-2021",
    "data": {
      "post_ID": "76487",
      "post_title": "Turtwig \u00b7 McDonald's Collection 2021 (MCD21) #4",
      "card_attachment_id_jpg": "76464",
      "card_attachment_id_png": "76440",
      "card_name": "Turtwig",
      "card_number": "4",
      "card_text": "{C}{C} Tackle: 20 damage.\r\n\r\n{G}{G}{C} Razor Leaf: 50 damage.",
      "flavor_text": "It undertakes photosynthesis with its body, making oxygen. The leaf on its head wilts if it is thirsty.",
      "pkmn_type[]": [
        "Pok\u00e9mon"
      ],
      "pkmn_artist[]": [
        "OOYAMA"
      ],
      "pkmn_rarity": "Promo",
      "pkmn_set": "McDonald's Collection 2021",
      "tcgplayer_id": "232319",
      "sorting_number": "4",
      "release_date_unix": "2021-02-09 12:04:00",
      "pkmn_print_type": "",
      "pkmn_regulation_mark": "",
      "pkmn_format[]": [
        "BLW-on (Expanded 2021)",
        "BLW-on (Expanded 2022)"
      ],
      "pkmn_series[]": [
        "Other"
      ],
      "pkmn_collection": "",
      "pkmn_language": "",
      "card_prints": "",
      "pkmn_stage": "Basic",
      "pkmn_evolves_into[]": [
        "Grotle"
      ],
      "pkmn_color[]": [
        "Grass"
      ],
      "pkmn_hp": "80",
      "pkmn_weakness[]": [
        "Fire"
      ],
      "pkmn_retreat_cost": "2",
      "pkmn_has[]": [
        "Flavor Text"
      ],
      "pkmn_level": "",
      "card_weakness_modifier": "",
      "card_resistance_modifier": ""
    }
  },
  {
    "id": 76488,
    "url": "https://pkmncards.com/card/snivy-mcdonalds-collection-2021-mcd21-5/",
    "set-slug": "mcdonalds-collection-2021",
    "data": {
      "post_ID": "76488",
      "post_title": "Snivy \u00b7 McDonald's Collection 2021 (MCD21) #5",
      "card_attachment_id_jpg": "76465",
      "card_attachment_id_png": "76441",
      "card_name": "Snivy",
      "card_number": "5",
      "card_text": "{G}{C} Slam: 20x damage. Flip 2 coins. This attack does 20 damage times the number of heads.",
      "flavor_text": "It is very intelligent and calm. Being exposed to lots of sunlight makes its movements swifter.",
      "pkmn_type[]": [
        "Pok\u00e9mon"
      ],
      "pkmn_artist[]": [
        "Ken Sugimori"
      ],
      "pkmn_rarity": "Promo",
      "pkmn_set": "McDonald's Collection 2021",
      "tcgplayer_id": "232320",
      "sorting_number": "5",
      "release_date_unix": "2021-02-09 12:05:00",
      "pkmn_print_type": "",
      "pkmn_regulation_mark": "",
      "pkmn_format[]": [
        "BLW-on (Expanded 2021)",
        "BLW-on (Expanded 2022)"
      ],
      "pkmn_series[]": [
        "Other"
      ],
      "pkmn_collection": "",
      "pkmn_language": "",
      "card_prints": "",
      "pkmn_stage": "Basic",
      "pkmn_evolves_into[]": [
        "Servine"
      ],
      "pkmn_color[]": [
        "Grass"
      ],
      "pkmn_hp": "60",
      "pkmn_weakness[]": [
        "Fire"
      ],
      "pkmn_retreat_cost": "1",
      "pkmn_resistance[]": [
        "Water"
      ],
      "pkmn_has[]": [
        "Flavor Text"
      ],
      "pkmn_level": "",
      "card_weakness_modifier": "",
      "card_resistance_modifier": "-20"
    }
  },
  {
    "id": 76489,
    "url": "https://pkmncards.com/card/chespin-mcdonalds-collection-2021-mcd21-6/",
    "set-slug": "mcdonalds-collection-2021",
    "data": {
      "post_ID": "76489",
      "post_title": "Chespin \u00b7 McDonald's Collection 2021 (MCD21) #6",
      "card_attachment_id_jpg": "76466",
      "card_attachment_id_png": "76442",
      "card_name": "Chespin",
      "card_number": "6",
      "card_text": "{G} Vine Whip: 10 damage.\r\n\r\n{G}{C} Seed Bomb: 20 damage.",
      "flavor_text": "The quills on its head are usually soft. When it flexes them, the points become so hard and sharp that they can pierce rock.",
      "pkmn_type[]": [
        "Pok\u00e9mon"
      ],
      "pkmn_artist[]": [
        "5ban Graphics"
      ],
      "pkmn_rarity": "Promo",
      "pkmn_set": "McDonald's Collection 2021",
      "tcgplayer_id": "232321",
      "sorting_number": "6",
      "release_date_unix": "2021-02-09 12:06:00",
      "pkmn_print_type": "",
      "pkmn_regulation_mark": "",
      "pkmn_format[]": [
        "BLW-on (Expanded 2021)",
        "BLW-on (Expanded 2022)"
      ],
      "pkmn_series[]": [
        "Other"
      ],
      "pkmn_collection": "",
      "pkmn_language": "",
      "card_prints": "",
      "pkmn_stage": "Basic",
      "pkmn_evolves_into[]": [
        "Quilladin"
      ],
      "pkmn_color[]": [
        "Grass"
      ],
      "pkmn_hp": "60",
      "pkmn_weakness[]": [
        "Fire"
      ],
      "pkmn_retreat_cost": "1",
      "pkmn_has[]": [
        "Flavor Text"
      ],
      "pkmn_level": "",
      "card_weakness_modifier": "",
      "card_resistance_modifier": ""
    }
  },
  {
    "id": 76490,
    "url": "https://pkmncards.com/card/rowlet-mcdonalds-collection-2021-mcd21-7/",
    "set-slug": "mcdonalds-collection-2021",
    "data": {
      "post_ID": "76490",
      "post_title": "Rowlet \u00b7 McDonald's Collection 2021 (MCD21) #7",
      "card_attachment_id_jpg": "76467",
      "card_attachment_id_png": "76443",
      "card_name": "Rowlet",
      "card_number": "7",
      "card_text": "{C} Tackle: 10 damage.\r\n\r\n{G}{C} Leafage: 20 damage.",
      "flavor_text": "This wary Pok\u00e9mon uses photosynthesis to store up energy during the day, while becoming active at night.",
      "pkmn_type[]": [
        "Pok\u00e9mon"
      ],
      "pkmn_artist[]": [
        "Megumi Mizutani"
      ],
      "pkmn_rarity": "Promo",
      "pkmn_set": "McDonald's Collection 2021",
      "tcgplayer_id": "232322",
      "sorting_number": "7",
      "release_date_unix": "2021-02-09 12:07:00",
      "pkmn_print_type": "",
      "pkmn_regulation_mark": "",
      "pkmn_format[]": [
        "BLW-on (Expanded 2021)",
        "BLW-on (Expanded 2022)"
      ],
      "pkmn_series[]": [
        "Other"
      ],
      "pkmn_collection": "",
      "pkmn_language": "",
      "card_prints": "",
      "pkmn_stage": "Basic",
      "pkmn_evolves_into[]": [
        "Dartrix"
      ],
      "pkmn_color[]": [
        "Grass"
      ],
      "pkmn_hp": "60",
      "pkmn_weakness[]": [
        "Fire"
      ],
      "pkmn_retreat_cost": "1",
      "pkmn_has[]": [
        "Flavor Text"
      ],
      "pkmn_level": "",
      "card_weakness_modifier": "",
      "card_resistance_modifier": ""
    }
  },
  {
    "id": 76491,
    "url": "https://pkmncards.com/card/grookey-mcdonalds-collection-2021-mcd21-8/",
    "set-slug": "mcdonalds-collection-2021",
    "data": {
      "post_ID": "76491",
      "post_title": "Grookey \u00b7 McDonald's Collection 2021 (MCD21) #8",
      "card_attachment_id_jpg": "76468",
      "card_attachment_id_png": "76444",
      "card_name": "Grookey",
      "card_number": "8",
      "card_text": "{G}{C} Branch Poke: 30 damage.",
      "flavor_text": "When it uses its special stick to strike up a beat, the sound waves produced carry revitalizing energy to the plants and flowers in the area.",
      "pkmn_type[]": [
        "Pok\u00e9mon"
      ],
      "pkmn_artist[]": [
        "kirisAki"
      ],
      "pkmn_rarity": "Promo",
      "pkmn_set": "McDonald's Collection 2021",
      "tcgplayer_id": "232323",
      "sorting_number": "8",
      "release_date_unix": "2021-02-09 12:08:00",
      "pkmn_print_type": "",
      "pkmn_regulation_mark": "D",
      "pkmn_format[]": [
        "BLW-on (Expanded 2022)",
        "BLW-on (Expanded 2021)",
        "D-on (Standard 2022)"
      ],
      "pkmn_series[]": [
        "Other"
      ],
      "pkmn_collection": "",
      "pkmn_language": "",
      "card_prints": "",
      "pkmn_stage": "Basic",
      "pkmn_evolves_into[]": [
        "Thwackey"
      ],
      "pkmn_color[]": [
        "Grass"
      ],
      "pkmn_hp": "60",
      "pkmn_weakness[]": [
        "Fire"
      ],
      "pkmn_retreat_cost": "1",
      "pkmn_has[]": [
        "Flavor Text"
      ],
      "pkmn_level": "",
      "card_weakness_modifier": "",
      "card_resistance_modifier": ""
    }
  },
  {
    "id": 76492,
    "url": "https://pkmncards.com/card/charmander-mcdonalds-collection-2021-mcd21-9/",
    "set-slug": "mcdonalds-collection-2021",
    "data": {
      "post_ID": "76492",
      "post_title": "Charmander \u00b7 McDonald's Collection 2021 (MCD21) #9",
      "card_attachment_id_jpg": "76469",
      "card_attachment_id_png": "76445",
      "card_name": "Charmander",
      "card_number": "9",
      "card_text": "{C} Scratch: 10 damage.\r\n\r\n{R}{C} Flame Tail: 20 damage.",
      "flavor_text": "The flame on its tail indicates Charmander's life force. If it is healthy, the flame burns brightly.",
      "pkmn_type[]": [
        "Pok\u00e9mon"
      ],
      "pkmn_artist[]": [
        "Kagemaru Himeno"
      ],
      "pkmn_rarity": "Promo",
      "pkmn_set": "McDonald's Collection 2021",
      "tcgplayer_id": "232324",
      "sorting_number": "9",
      "release_date_unix": "2021-02-09 12:09:00",
      "pkmn_print_type": "",
      "pkmn_regulation_mark": "",
      "pkmn_format[]": [
        "BLW-on (Expanded 2021)",
        "BLW-on (Expanded 2022)"
      ],
      "pkmn_series[]": [
        "Other"
      ],
      "pkmn_collection": "",
      "pkmn_language": "",
      "card_prints": "",
      "pkmn_stage": "Basic",
      "pkmn_evolves_into[]": [
        "Charmeleon",
        "Dark Charmeleon"
      ],
      "pkmn_color[]": [
        "Fire"
      ],
      "pkmn_hp": "70",
      "pkmn_weakness[]": [
        "Water"
      ],
      "pkmn_retreat_cost": "1",
      "pkmn_has[]": [
        "Flavor Text"
      ],
      "pkmn_level": "",
      "card_weakness_modifier": "",
      "card_resistance_modifier": ""
    }
  },
  {
    "id": 76493,
    "url": "https://pkmncards.com/card/cyndaquil-mcdonalds-collection-2021-mcd21-10/",
    "set-slug": "mcdonalds-collection-2021",
    "data": {
      "post_ID": "76493",
      "post_title": "Cyndaquil \u00b7 McDonald's Collection 2021 (MCD21) #10",
      "card_attachment_id_jpg": "76470",
      "card_attachment_id_png": "76446",
      "card_name": "Cyndaquil",
      "card_number": "10",
      "card_text": "{C}{C} Hammer In: 30 damage.",
      "flavor_text": "It has a timid nature. If it is startled, the flames on its back burn more vigorously.",
      "pkmn_type[]": [
        "Pok\u00e9mon"
      ],
      "pkmn_artist[]": [
        "kirisAki"
      ],
      "pkmn_rarity": "Promo",
      "pkmn_set": "McDonald's Collection 2021",
      "tcgplayer_id": "232325",
      "sorting_number": "9",
      "release_date_unix": "2021-02-09 12:09:00",
      "pkmn_print_type": "",
      "pkmn_regulation_mark": "",
      "pkmn_format[]": [
        "BLW-on (Expanded 2021)",
        "BLW-on (Expanded 2022)"
      ],
      "pkmn_series[]": [
        "Other"
      ],
      "pkmn_collection": "",
      "pkmn_language": "",
      "card_prints": "",
      "pkmn_stage": "Basic",
      "pkmn_evolves_into[]": [
        "Quilava",
        "Dark Quilava"
      ],
      "pkmn_color[]": [
        "Fire"
      ],
      "pkmn_hp": "70",
      "pkmn_weakness[]": [
        "Water"
      ],
      "pkmn_retreat_cost": "1",
      "pkmn_has[]": [
        "Flavor Text"
      ],
      "pkmn_level": "",
      "card_weakness_modifier": "",
      "card_resistance_modifier": ""
    }
  },
  {
    "id": 76494,
    "url": "https://pkmncards.com/card/torchic-mcdonalds-collection-2021-mcd21-11/",
    "set-slug": "mcdonalds-collection-2021",
    "data": {
      "post_ID": "76494",
      "post_title": "Torchic \u00b7 McDonald's Collection 2021 (MCD21) #11",
      "card_attachment_id_jpg": "76471",
      "card_attachment_id_png": "76447",
      "card_name": "Torchic",
      "card_number": "11",
      "card_text": "{R} Ember: 20 damage. Flip a coin. If tails, discard a {R} Energy attached to this Pok\u00e9mon.",
      "flavor_text": "A fire burns inside, so it feels very warm to hug. It launches fireballs of 1,800 degrees Fahrenheit.",
      "pkmn_type[]": [
        "Pok\u00e9mon"
      ],
      "pkmn_artist[]": [
        "sui"
      ],
      "pkmn_rarity": "Promo",
      "pkmn_set": "McDonald's Collection 2021",
      "tcgplayer_id": "232326",
      "sorting_number": "11",
      "release_date_unix": "2021-02-09 12:11:00",
      "pkmn_print_type": "",
      "pkmn_regulation_mark": "",
      "pkmn_format[]": [
        "BLW-on (Expanded 2021)",
        "BLW-on (Expanded 2022)"
      ],
      "pkmn_series[]": [
        "Other"
      ],
      "pkmn_collection": "",
      "pkmn_language": "",
      "card_prints": "",
      "pkmn_stage": "Basic",
      "pkmn_evolves_into[]": [
        "Combusken"
      ],
      "pkmn_color[]": [
        "Fire"
      ],
      "pkmn_hp": "60",
      "pkmn_weakness[]": [
        "Water"
      ],
      "pkmn_retreat_cost": "1",
      "pkmn_has[]": [
        "Flavor Text"
      ],
      "pkmn_level": "",
      "card_weakness_modifier": "",
      "card_resistance_modifier": ""
    }
  },
  {
    "id": 76495,
    "url": "https://pkmncards.com/card/chimchar-mcdonalds-collection-2021-mcd21-12/",
    "set-slug": "mcdonalds-collection-2021",
    "data": {
      "post_ID": "76495",
      "post_title": "Chimchar \u00b7 McDonald's Collection 2021 (MCD21) #12",
      "card_attachment_id_jpg": "76472",
      "card_attachment_id_png": "76448",
      "card_name": "Chimchar",
      "card_number": "12",
      "card_text": "{C} Fury Swipes: 10x damage. Flip 3 coins. This attack does 10 damage for each heads.",
      "flavor_text": "The gas made in its belly burns from its rear end. The fire burns weakly when it feels sick.",
      "pkmn_type[]": [
        "Pok\u00e9mon"
      ],
      "pkmn_artist[]": [
        "Kouki Saitou"
      ],
      "pkmn_rarity": "Promo",
      "pkmn_set": "McDonald's Collection 2021",
      "tcgplayer_id": "232327",
      "sorting_number": "12",
      "release_date_unix": "2021-02-09 12:12:00",
      "pkmn_print_type": "",
      "pkmn_regulation_mark": "",
      "pkmn_format[]": [
        "BLW-on (Expanded 2021)",
        "BLW-on (Expanded 2022)"
      ],
      "pkmn_series[]": [
        "Other"
      ],
      "pkmn_collection": "",
      "pkmn_language": "",
      "card_prints": "",
      "pkmn_stage": "Basic",
      "pkmn_evolves_into[]": [
        "Monferno"
      ],
      "pkmn_color[]": [
        "Fire"
      ],
      "pkmn_hp": "60",
      "pkmn_weakness[]": [
        "Water"
      ],
      "pkmn_retreat_cost": "1",
      "pkmn_has[]": [
        "Flavor Text"
      ],
      "pkmn_level": "",
      "card_weakness_modifier": "",
      "card_resistance_modifier": ""
    }
  },
  {
    "id": 76496,
    "url": "https://pkmncards.com/card/tepig-mcdonalds-collection-2021-mcd21-13/",
    "set-slug": "mcdonalds-collection-2021",
    "data": {
      "post_ID": "76496",
      "post_title": "Tepig \u00b7 McDonald's Collection 2021 (MCD21) #13",
      "card_attachment_id_jpg": "76473",
      "card_attachment_id_png": "76449",
      "card_name": "Tepig",
      "card_number": "13",
      "card_text": "{R}{C} Ember: 30 damage. Discard an Energy attached to this Pok\u00e9mon.",
      "flavor_text": "It blows fire through its nose. When it catches a cold, the fire becomes pitch-black smoke instead.",
      "pkmn_type[]": [
        "Pok\u00e9mon"
      ],
      "pkmn_artist[]": [
        "Ken Sugimori"
      ],
      "pkmn_rarity": "Promo",
      "pkmn_set": "McDonald's Collection 2021",
      "tcgplayer_id": "232328",
      "sorting_number": "13",
      "release_date_unix": "2021-02-09 12:13:00",
      "pkmn_print_type": "",
      "pkmn_regulation_mark": "",
      "pkmn_format[]": [
        "BLW-on (Expanded 2021)",
        "BLW-on (Expanded 2022)"
      ],
      "pkmn_series[]": [
        "Other"
      ],
      "pkmn_collection": "",
      "pkmn_language": "",
      "card_prints": "",
      "pkmn_stage": "Basic",
      "pkmn_evolves_into[]": [
        "Pignite"
      ],
      "pkmn_color[]": [
        "Fire"
      ],
      "pkmn_hp": "70",
      "pkmn_weakness[]": [
        "Water"
      ],
      "pkmn_retreat_cost": "2",
      "pkmn_has[]": [
        "Flavor Text"
      ],
      "pkmn_level": "",
      "card_weakness_modifier": "",
      "card_resistance_modifier": ""
    }
  },
  {
    "id": 76497,
    "url": "https://pkmncards.com/card/fennekin-mcdonalds-collection-2021-mcd21-14/",
    "set-slug": "mcdonalds-collection-2021",
    "data": {
      "post_ID": "76497",
      "post_title": "Fennekin \u00b7 McDonald's Collection 2021 (MCD21) #14",
      "card_attachment_id_jpg": "76474",
      "card_attachment_id_png": "76450",
      "card_name": "Fennekin",
      "card_number": "14",
      "card_text": "{R} Scratch: 10 damage.\r\n\r\n{R}{C} Live Coal: 20 damage.",
      "flavor_text": "Eating a twig fills it with energy, and its roomy ears give vent to air hotter than 390 degrees Fahrenheit.",
      "pkmn_type[]": [
        "Pok\u00e9mon"
      ],
      "pkmn_artist[]": [
        "5ban Graphics"
      ],
      "pkmn_rarity": "Promo",
      "pkmn_set": "McDonald's Collection 2021",
      "tcgplayer_id": "232329",
      "sorting_number": "14",
      "release_date_unix": "2021-02-09 12:14:00",
      "pkmn_print_type": "",
      "pkmn_regulation_mark": "",
      "pkmn_format[]": [
        "BLW-on (Expanded 2021)",
        "BLW-on (Expanded 2022)"
      ],
      "pkmn_series[]": [
        "Other"
      ],
      "pkmn_collection": "",
      "pkmn_language": "",
      "card_prints": "",
      "pkmn_stage": "Basic",
      "pkmn_evolves_into[]": [
        "Braixen"
      ],
      "pkmn_color[]": [
        "Fire"
      ],
      "pkmn_hp": "60",
      "pkmn_weakness[]": [
        "Water"
      ],
      "pkmn_retreat_cost": "1",
      "pkmn_has[]": [
        "Flavor Text"
      ],
      "pkmn_level": "",
      "card_weakness_modifier": "",
      "card_resistance_modifier": ""
    }
  },
  {
    "id": 76498,
    "url": "https://pkmncards.com/card/litten-mcdonalds-collection-2021-mcd21-15/",
    "set-slug": "mcdonalds-collection-2021",
    "data": {
      "post_ID": "76498",
      "post_title": "Litten \u00b7 McDonald's Collection 2021 (MCD21) #15",
      "card_attachment_id_jpg": "76475",
      "card_attachment_id_png": "76451",
      "card_name": "Litten",
      "card_number": "15",
      "card_text": "{R} Bite: 10 damage.\r\n\r\n{R}{C} Flare: 20 damage.",
      "flavor_text": "While grooming itself, it builds up fur inside its stomach. It sets the fur alight and spews fiery attacks, which change based on how it coughs.",
      "pkmn_type[]": [
        "Pok\u00e9mon"
      ],
      "pkmn_artist[]": [
        "Akira Komayama"
      ],
      "pkmn_rarity": "Promo",
      "pkmn_set": "McDonald's Collection 2021",
      "tcgplayer_id": "232341",
      "sorting_number": "15",
      "release_date_unix": "2021-02-09 12:15:00",
      "pkmn_print_type": "",
      "pkmn_regulation_mark": "",
      "pkmn_format[]": [
        "BLW-on (Expanded 2021)",
        "BLW-on (Expanded 2022)"
      ],
      "pkmn_series[]": [
        "Other"
      ],
      "pkmn_collection": "",
      "pkmn_language": "",
      "card_prints": "",
      "pkmn_stage": "Basic",
      "pkmn_evolves_into[]": [
        "Torracat"
      ],
      "pkmn_color[]": [
        "Fire"
      ],
      "pkmn_hp": "70",
      "pkmn_weakness[]": [
        "Water"
      ],
      "pkmn_retreat_cost": "1",
      "pkmn_has[]": [
        "Flavor Text"
      ],
      "pkmn_level": "",
      "card_weakness_modifier": "",
      "card_resistance_modifier": ""
    }
  },
  {
    "id": 76499,
    "url": "https://pkmncards.com/card/scorbunny-mcdonalds-collection-2021-mcd21-16/",
    "set-slug": "mcdonalds-collection-2021",
    "data": {
      "post_ID": "76499",
      "post_title": "Scorbunny \u00b7 McDonald's Collection 2021 (MCD21) #16",
      "card_attachment_id_jpg": "76476",
      "card_attachment_id_png": "76452",
      "card_name": "Scorbunny",
      "card_number": "16",
      "card_text": "{R} Super Singe: 10 damage. Flip a coin. If heads, your opponent's Active Pok\u00e9mon is now Burned.",
      "flavor_text": "A warm-up of running around gets fire energy coursing through this Pok\u00e9mon's body. Once that happens, it's ready to fight at full power.",
      "pkmn_type[]": [
        "Pok\u00e9mon"
      ],
      "pkmn_artist[]": [
        "Hitoshi Ariga"
      ],
      "pkmn_rarity": "Promo",
      "pkmn_set": "McDonald's Collection 2021",
      "tcgplayer_id": "232330",
      "sorting_number": "16",
      "release_date_unix": "2021-02-09 12:16:00",
      "pkmn_print_type": "",
      "pkmn_regulation_mark": "D",
      "pkmn_format[]": [
        "BLW-on (Expanded 2022)",
        "BLW-on (Expanded 2021)",
        "D-on (Standard 2022)"
      ],
      "pkmn_series[]": [
        "Other"
      ],
      "pkmn_collection": "",
      "pkmn_language": "",
      "card_prints": "",
      "pkmn_stage": "Basic",
      "pkmn_evolves_into[]": [
        "Raboot"
      ],
      "pkmn_color[]": [
        "Fire"
      ],
      "pkmn_hp": "60",
      "pkmn_weakness[]": [
        "Water"
      ],
      "pkmn_retreat_cost": "1",
      "pkmn_has[]": [
        "Flavor Text"
      ],
      "pkmn_level": "",
      "card_weakness_modifier": "",
      "card_resistance_modifier": ""
    }
  },
  {
    "id": 76500,
    "url": "https://pkmncards.com/card/squirtle-mcdonalds-collection-2021-mcd21-17/",
    "set-slug": "mcdonalds-collection-2021",
    "data": {
      "post_ID": "76500",
      "post_title": "Squirtle \u00b7 McDonald's Collection 2021 (MCD21) #17",
      "card_attachment_id_jpg": "76477",
      "card_attachment_id_png": "76453",
      "card_name": "Squirtle",
      "card_number": "17",
      "card_text": "{W} Bubble: 10 damage. Flip a coin. If heads, your opponent's Active Pok\u00e9mon is now Paralyzed.",
      "flavor_text": "It shelters itself in its shell, then strikes back with spouts of water at every opportunity.",
      "pkmn_type[]": [
        "Pok\u00e9mon"
      ],
      "pkmn_artist[]": [
        "tetsuya koizumi"
      ],
      "pkmn_rarity": "Promo",
      "pkmn_set": "McDonald's Collection 2021",
      "tcgplayer_id": "232331",
      "sorting_number": "17",
      "release_date_unix": "2021-02-09 12:17:00",
      "pkmn_print_type": "",
      "pkmn_regulation_mark": "",
      "pkmn_format[]": [
        "BLW-on (Expanded 2021)",
        "BLW-on (Expanded 2022)"
      ],
      "pkmn_series[]": [
        "Other"
      ],
      "pkmn_collection": "",
      "pkmn_language": "",
      "card_prints": "",
      "pkmn_stage": "Basic",
      "pkmn_evolves_into[]": [
        "Wartortle",
        "Dark Wartortle"
      ],
      "pkmn_color[]": [
        "Water"
      ],
      "pkmn_hp": "60",
      "pkmn_weakness[]": [
        "Grass"
      ],
      "pkmn_retreat_cost": "1",
      "pkmn_has[]": [
        "Flavor Text"
      ],
      "pkmn_level": "",
      "card_weakness_modifier": "",
      "card_resistance_modifier": ""
    }
  },
  {
    "id": 76501,
    "url": "https://pkmncards.com/card/totodile-mcdonalds-collection-2021-mcd21-18/",
    "set-slug": "mcdonalds-collection-2021",
    "data": {
      "post_ID": "76501",
      "post_title": "Totodile \u00b7 McDonald's Collection 2021 (MCD21) #18",
      "card_attachment_id_jpg": "76478",
      "card_attachment_id_png": "76454",
      "card_name": "Totodile",
      "card_number": "18",
      "card_text": "{W} Fury Strikes: 10x damage. Flip 3 coins. This attack does 10 damage times the number of heads.",
      "flavor_text": "It is small but rough and tough. It won't hesitate to take a bite out of anything that moves.",
      "pkmn_type[]": [
        "Pok\u00e9mon"
      ],
      "pkmn_artist[]": [
        "Kagemaru Himeno"
      ],
      "pkmn_rarity": "Promo",
      "pkmn_set": "McDonald's Collection 2021",
      "tcgplayer_id": "232332",
      "sorting_number": "18",
      "release_date_unix": "2021-02-09 12:18:00",
      "pkmn_print_type": "",
      "pkmn_regulation_mark": "",
      "pkmn_format[]": [
        "BLW-on (Expanded 2021)",
        "BLW-on (Expanded 2022)"
      ],
      "pkmn_series[]": [
        "Other"
      ],
      "pkmn_collection": "",
      "pkmn_language": "",
      "card_prints": "",
      "pkmn_stage": "Basic",
      "pkmn_evolves_into[]": [
        "Croconaw",
        "Dark Croconaw"
      ],
      "pkmn_color[]": [
        "Water"
      ],
      "pkmn_hp": "60",
      "pkmn_weakness[]": [
        "Grass"
      ],
      "pkmn_retreat_cost": "1",
      "pkmn_has[]": [
        "Flavor Text"
      ],
      "pkmn_level": "",
      "card_weakness_modifier": "",
      "card_resistance_modifier": ""
    }
  },
  {
    "id": 76502,
    "url": "https://pkmncards.com/card/mudkip-mcdonalds-collection-2021-mcd21-19/",
    "set-slug": "mcdonalds-collection-2021",
    "data": {
      "post_ID": "76502",
      "post_title": "Mudkip \u00b7 McDonald's Collection 2021 (MCD21) #19",
      "card_attachment_id_jpg": "76479",
      "card_attachment_id_png": "76455",
      "card_name": "Mudkip",
      "card_number": "19",
      "card_text": "{W} Tackle: 10 damage.\r\n\r\n{W}{C} Mud-Slap: 20 damage.",
      "flavor_text": "To alert it, the fin on its head senses the flow of water. It has the strength to heft boulders.",
      "pkmn_type[]": [
        "Pok\u00e9mon"
      ],
      "pkmn_artist[]": [
        "Aya Kusube"
      ],
      "pkmn_rarity": "Promo",
      "pkmn_set": "McDonald's Collection 2021",
      "tcgplayer_id": "232333",
      "sorting_number": "19",
      "release_date_unix": "2021-02-09 12:19:00",
      "pkmn_print_type": "",
      "pkmn_regulation_mark": "",
      "pkmn_format[]": [
        "BLW-on (Expanded 2021)",
        "BLW-on (Expanded 2022)"
      ],
      "pkmn_series[]": [
        "Other"
      ],
      "pkmn_collection": "",
      "pkmn_language": "",
      "card_prints": "",
      "pkmn_stage": "Basic",
      "pkmn_evolves_into[]": [
        "Marshtomp"
      ],
      "pkmn_color[]": [
        "Water"
      ],
      "pkmn_hp": "60",
      "pkmn_weakness[]": [
        "Grass"
      ],
      "pkmn_retreat_cost": "1",
      "pkmn_has[]": [
        "Flavor Text"
      ],
      "pkmn_level": "",
      "card_weakness_modifier": "",
      "card_resistance_modifier": ""
    }
  },
  {
    "id": 76503,
    "url": "https://pkmncards.com/card/piplup-mcdonalds-collection-2021-mcd21-20/",
    "set-slug": "mcdonalds-collection-2021",
    "data": {
      "post_ID": "76503",
      "post_title": "Piplup \u00b7 McDonald's Collection 2021 (MCD21) #20",
      "card_attachment_id_jpg": "76480",
      "card_attachment_id_png": "76456",
      "card_name": "Piplup",
      "card_number": "20",
      "card_text": "{C} Peck: 10 damage.\r\n\r\n{W}{C} Wave Splash: 20 damage.",
      "flavor_text": "Because it is very proud, it hates accepting food from people. Its thick down guards it from cold.",
      "pkmn_type[]": [
        "Pok\u00e9mon"
      ],
      "pkmn_artist[]": [
        "Shibuzoh."
      ],
      "pkmn_rarity": "Promo",
      "pkmn_set": "McDonald's Collection 2021",
      "tcgplayer_id": "232334",
      "sorting_number": "20",
      "release_date_unix": "2021-02-09 12:20:00",
      "pkmn_print_type": "",
      "pkmn_regulation_mark": "",
      "pkmn_format[]": [
        "BLW-on (Expanded 2021)",
        "BLW-on (Expanded 2022)"
      ],
      "pkmn_series[]": [
        "Other"
      ],
      "pkmn_collection": "",
      "pkmn_language": "",
      "card_prints": "",
      "pkmn_stage": "Basic",
      "pkmn_evolves_into[]": [
        "Prinplup"
      ],
      "pkmn_color[]": [
        "Water"
      ],
      "pkmn_hp": "70",
      "pkmn_weakness[]": [
        "Lightning"
      ],
      "pkmn_retreat_cost": "1",
      "pkmn_has[]": [
        "Flavor Text"
      ],
      "pkmn_level": "",
      "card_weakness_modifier": "",
      "card_resistance_modifier": ""
    }
  },
  {
    "id": 76504,
    "url": "https://pkmncards.com/card/oshawott-mcdonalds-collection-2021-mcd21-21/",
    "set-slug": "mcdonalds-collection-2021",
    "data": {
      "post_ID": "76504",
      "post_title": "Oshawott \u00b7 McDonald's Collection 2021 (MCD21) #21",
      "card_attachment_id_jpg": "76481",
      "card_attachment_id_png": "76457",
      "card_name": "Oshawott",
      "card_number": "21",
      "card_text": "{W}{C} Water Pulse: 20 damage. Flip a coin. If heads, the Defending Pok\u00e9mon is now Asleep.",
      "flavor_text": "It fights using the scalchop on its stomach. In response to an attack, it retaliates immediately by slashing.",
      "pkmn_type[]": [
        "Pok\u00e9mon"
      ],
      "pkmn_artist[]": [
        "Ken Sugimori"
      ],
      "pkmn_rarity": "Promo",
      "pkmn_set": "McDonald's Collection 2021",
      "tcgplayer_id": "232335",
      "sorting_number": "21",
      "release_date_unix": "2021-02-09 12:21:00",
      "pkmn_print_type": "",
      "pkmn_regulation_mark": "",
      "pkmn_format[]": [
        "BLW-on (Expanded 2021)",
        "BLW-on (Expanded 2022)"
      ],
      "pkmn_series[]": [
        "Other"
      ],
      "pkmn_collection": "",
      "pkmn_language": "",
      "card_prints": "",
      "pkmn_stage": "Basic",
      "pkmn_evolves_into[]": [
        "Dewott"
      ],
      "pkmn_color[]": [
        "Water"
      ],
      "pkmn_hp": "60",
      "pkmn_weakness[]": [
        "Lightning"
      ],
      "pkmn_retreat_cost": "1",
      "pkmn_has[]": [
        "Flavor Text"
      ],
      "pkmn_level": "",
      "card_weakness_modifier": "",
      "card_resistance_modifier": ""
    }
  },
  {
    "id": 76505,
    "url": "https://pkmncards.com/card/froakie-mcdonalds-collection-2021-mcd21-22/",
    "set-slug": "mcdonalds-collection-2021",
    "data": {
      "post_ID": "76505",
      "post_title": "Froakie \u00b7 McDonald's Collection 2021 (MCD21) #22",
      "card_attachment_id_jpg": "76482",
      "card_attachment_id_png": "76458",
      "card_name": "Froakie",
      "card_number": "22",
      "card_text": "{W} Pound: 10 damage.\r\n\r\n{W}{C} Water Drip: 20 damage.",
      "flavor_text": "It secretes flexible bubbles from its chest and back. The bubbles reduce the damage it would otherwise take when attacked.",
      "pkmn_type[]": [
        "Pok\u00e9mon"
      ],
      "pkmn_artist[]": [
        "5ban Graphics"
      ],
      "pkmn_rarity": "Promo",
      "pkmn_set": "McDonald's Collection 2021",
      "tcgplayer_id": "232336",
      "sorting_number": "22",
      "release_date_unix": "2021-02-09 12:22:00",
      "pkmn_print_type": "",
      "pkmn_regulation_mark": "",
      "pkmn_format[]": [
        "BLW-on (Expanded 2021)",
        "BLW-on (Expanded 2022)"
      ],
      "pkmn_series[]": [
        "Other"
      ],
      "pkmn_collection": "",
      "pkmn_language": "",
      "card_prints": "",
      "pkmn_stage": "Basic",
      "pkmn_evolves_into[]": [
        "Frogadier"
      ],
      "pkmn_color[]": [
        "Water"
      ],
      "pkmn_hp": "60",
      "pkmn_weakness[]": [
        "Grass"
      ],
      "pkmn_retreat_cost": "1",
      "pkmn_has[]": [
        "Flavor Text"
      ],
      "pkmn_level": "",
      "card_weakness_modifier": "",
      "card_resistance_modifier": ""
    }
  },
  {
    "id": 76506,
    "url": "https://pkmncards.com/card/popplio-mcdonalds-collection-2021-mcd21-23/",
    "set-slug": "mcdonalds-collection-2021",
    "data": {
      "post_ID": "76506",
      "post_title": "Popplio \u00b7 McDonald's Collection 2021 (MCD21) #23",
      "card_attachment_id_jpg": "76483",
      "card_attachment_id_png": "76459",
      "card_name": "Popplio",
      "card_number": "23",
      "card_text": "{W} Pound: 10 damage.\r\n\r\n{W}{C} Water Gun: 20 damage.",
      "flavor_text": "This Pok\u00e9mon snorts body fluids from its nose, blowing balloons to smash into its foes. It's famous for being a hard worker.",
      "pkmn_type[]": [
        "Pok\u00e9mon"
      ],
      "pkmn_artist[]": [
        "Kouki Saitou"
      ],
      "pkmn_rarity": "Promo",
      "pkmn_set": "McDonald's Collection 2021",
      "tcgplayer_id": "232337",
      "sorting_number": "23",
      "release_date_unix": "2021-02-09 12:23:00",
      "pkmn_print_type": "",
      "pkmn_regulation_mark": "",
      "pkmn_format[]": [
        "BLW-on (Expanded 2021)",
        "BLW-on (Expanded 2022)"
      ],
      "pkmn_series[]": [
        "Other"
      ],
      "pkmn_collection": "",
      "pkmn_language": "",
      "card_prints": "",
      "pkmn_stage": "Basic",
      "pkmn_evolves_into[]": [
        "Brionne"
      ],
      "pkmn_color[]": [
        "Water"
      ],
      "pkmn_hp": "70",
      "pkmn_weakness[]": [
        "Grass"
      ],
      "pkmn_retreat_cost": "1",
      "pkmn_has[]": [
        "Flavor Text"
      ],
      "pkmn_level": "",
      "card_weakness_modifier": "",
      "card_resistance_modifier": ""
    }
  },
  {
    "id": 76507,
    "url": "https://pkmncards.com/card/sobble-mcdonalds-collection-2021-mcd21-24/",
    "set-slug": "mcdonalds-collection-2021",
    "data": {
      "post_ID": "76507",
      "post_title": "Sobble \u00b7 McDonald's Collection 2021 (MCD21) #24",
      "card_attachment_id_jpg": "76484",
      "card_attachment_id_png": "76460",
      "card_name": "Sobble",
      "card_number": "24",
      "card_text": "{W}{C} Bind: 20 damage. Flip a coin. If heads, your opponent's Active Pok\u00e9mon is now Paralyzed.",
      "flavor_text": "When scared, this Pok\u00e9mon cries. Its tears pack the chemical punch of 100 onions, and attackers won't be able to resist weeping.",
      "pkmn_type[]": [
        "Pok\u00e9mon"
      ],
      "pkmn_artist[]": [
        "Mizue"
      ],
      "pkmn_rarity": "Promo",
      "pkmn_set": "McDonald's Collection 2021",
      "tcgplayer_id": "232338",
      "sorting_number": "24",
      "release_date_unix": "2021-02-09 12:24:00",
      "pkmn_print_type": "",
      "pkmn_regulation_mark": "D",
      "pkmn_format[]": [
        "BLW-on (Expanded 2022)",
        "BLW-on (Expanded 2021)",
        "D-on (Standard 2022)"
      ],
      "pkmn_series[]": [
        "Other"
      ],
      "pkmn_collection": "",
      "pkmn_language": "",
      "card_prints": "",
      "pkmn_stage": "Basic",
      "pkmn_evolves_into[]": [
        "Drizzile"
      ],
      "pkmn_color[]": [
        "Water"
      ],
      "pkmn_hp": "60",
      "pkmn_weakness[]": [
        "Lightning"
      ],
      "pkmn_retreat_cost": "1",
      "pkmn_has[]": [
        "Flavor Text"
      ],
      "pkmn_level": "",
      "card_weakness_modifier": "",
      "card_resistance_modifier": ""
    }
  },
  {
    "id": 76508,
    "url": "https://pkmncards.com/card/pikachu-mcdonalds-collection-2021-mcd21-25/",
    "set-slug": "mcdonalds-collection-2021",
    "data": {
      "post_ID": "76508",
      "post_title": "Pikachu \u00b7 McDonald's Collection 2021 (MCD21) #25",
      "card_attachment_id_jpg": "76485",
      "card_attachment_id_png": "76461",
      "card_name": "Pikachu",
      "card_number": "25",
      "card_text": "{L} Meal Time: Flip a coin until you get tails. For each heads, draw a card.\r\n\r\n{L}{C} Gnaw: 20.",
      "flavor_text": "Its nature is to store up electricity. Forests where nests of Pikachu live are dangerous, since the trees are so often struck by lightning.",
      "pkmn_type[]": [
        "Pok\u00e9mon"
      ],
      "pkmn_artist[]": [
        "Sanosuke Sakuma"
      ],
      "pkmn_rarity": "Promo",
      "pkmn_set": "McDonald's Collection 2021",
      "tcgplayer_id": "232339",
      "sorting_number": "25",
      "release_date_unix": "2021-02-09 12:25:00",
      "pkmn_print_type": "",
      "pkmn_regulation_mark": "",
      "pkmn_format[]": [
        "BLW-on (Expanded 2021)",
        "BLW-on (Expanded 2022)"
      ],
      "pkmn_series[]": [
        "Other"
      ],
      "pkmn_collection": "",
      "pkmn_language": "",
      "card_prints": "",
      "pkmn_stage": "Basic",
      "pkmn_evolves_into[]": [
        "Raichu",
        "Dark Raichu",
        "Raichu ex",
        "Raichu-GX",
        "Alolan Raichu"
      ],
      "pkmn_color[]": [
        "Lightning"
      ],
      "pkmn_hp": "60",
      "pkmn_weakness[]": [
        "Fighting"
      ],
      "pkmn_retreat_cost": "1",
      "pkmn_resistance[]": [
        "Metal"
      ],
      "pkmn_has[]": [
        "Flavor Text"
      ],
      "pkmn_level": "",
      "card_weakness_modifier": "",
      "card_resistance_modifier": "-20"
    }
  }
]