[
  {
    "id": 11005,
    "url": "https://pkmncards.com/card/mew-southern-islands-si-1/",
    "set-slug": "southern-islands",
    "data": {
      "post_ID": "11005",
      "post_title": "Mew \u00b7 Southern Islands (SI) #1",
      "card_attachment_id_jpg": "21770",
      "card_attachment_id_png": "",
      "card_name": "Mew",
      "card_number": "1",
      "card_text": "{P} Rainbow Wave: Choose a type of Energy other than {C} attached to Mew. This attack does 20 damage to each of your opponent's Pok\u00e9mon of that type <em>(including Benched Pok\u00e9mon)</em>. Don't apply Weakness and Resistance.",
      "flavor_text": "This Pok\u00e9mon's body is covered by fine hairs that can be seen only under a microscope.",
      "pkmn_type[]": [
        "Pok\u00e9mon"
      ],
      "pkmn_artist[]": [
        "Keiko Fukuyama"
      ],
      "pkmn_rarity": "",
      "pkmn_set": "Southern Islands",
      "tcgplayer_id": "46466",
      "sorting_number": "1",
      "release_date_unix": "2001-07-31 12:01:00",
      "pkmn_print_type": "",
      "pkmn_regulation_mark": "",
      "pkmn_format[]": [
        "RO-on (Modified 2002)",
        "Neo-on (Modified 2003)"
      ],
      "pkmn_series[]": [
        "Other"
      ],
      "pkmn_collection": "",
      "pkmn_language": "",
      "card_prints": "",
      "pkmn_stage": "Basic",
      "pkmn_color[]": [
        "Psychic"
      ],
      "pkmn_hp": "30",
      "pkmn_weakness[]": [
        "Psychic"
      ],
      "pkmn_retreat_cost": "0",
      "pkmn_has[]": [
        "Flavor Text"
      ],
      "pkmn_level": "",
      "card_weakness_modifier": "",
      "card_resistance_modifier": ""
    }
  },
  {
    "id": 11014,
    "url": "https://pkmncards.com/card/pidgeot-southern-islands-si-2/",
    "set-slug": "southern-islands",
    "data": {
      "post_ID": "11014",
      "post_title": "Pidgeot \u00b7 Southern Islands (SI) #2",
      "card_attachment_id_jpg": "21774",
      "card_attachment_id_png": "",
      "card_name": "Pidgeot",
      "card_number": "2",
      "card_text": "{C}{C} Supersonic Flight: 40 damage. Flip a coin. If tails, this attack does nothing.\r\n\r\n{C}{C}{C}{C} Slicing Wind: 50 damage.",
      "flavor_text": "This Pok\u00e9mon searches for food while flying at Mach 2. Its large claws make fearsome weapons.",
      "pkmn_type[]": [
        "Pok\u00e9mon"
      ],
      "pkmn_artist[]": [
        "Keiko Fukuyama"
      ],
      "pkmn_rarity": "",
      "pkmn_set": "Southern Islands",
      "tcgplayer_id": "46476",
      "sorting_number": "2",
      "release_date_unix": "2001-07-31 12:02:00",
      "pkmn_print_type": "",
      "pkmn_regulation_mark": "",
      "pkmn_format[]": [
        "RO-on (Modified 2002)",
        "Neo-on (Modified 2003)"
      ],
      "pkmn_series[]": [
        "Other"
      ],
      "pkmn_collection": "",
      "pkmn_language": "",
      "card_prints": "",
      "pkmn_stage": "Stage 2",
      "pkmn_evolves_from[]": [
        "Pidgeotto"
      ],
      "pkmn_color[]": [
        "Colorless"
      ],
      "pkmn_hp": "70",
      "pkmn_weakness[]": [
        "Lightning"
      ],
      "pkmn_retreat_cost": "0",
      "pkmn_resistance[]": [
        "Fighting"
      ],
      "pkmn_has[]": [
        "Flavor Text"
      ],
      "pkmn_level": "",
      "card_weakness_modifier": "",
      "card_resistance_modifier": ""
    }
  },
  {
    "id": 11006,
    "url": "https://pkmncards.com/card/onix-southern-islands-si-3/",
    "set-slug": "southern-islands",
    "data": {
      "post_ID": "11006",
      "post_title": "Onix \u00b7 Southern Islands (SI) #3",
      "card_attachment_id_jpg": "21772",
      "card_attachment_id_png": "",
      "card_name": "Onix",
      "card_number": "3",
      "card_text": "{C}{C} Slam: 20x damage. Flip 2 coins. This attack does 20 damage times the number of heads.\r\n\r\n{F}{F}{F}{F} Body Slam: 40 damage. Flip a coin. If heads, the Defending Pok\u00e9mon is now Paralyzed.",
      "flavor_text": "This Pok\u00e9mon burrows through the earth at high speed, looking for food. The tunnels it digs are used by Diglett as nests.",
      "pkmn_type[]": [
        "Pok\u00e9mon"
      ],
      "pkmn_artist[]": [
        "Keiko Fukuyama"
      ],
      "pkmn_rarity": "",
      "pkmn_set": "Southern Islands",
      "tcgplayer_id": "46477",
      "sorting_number": "3",
      "release_date_unix": "2001-07-31 12:03:00",
      "pkmn_print_type": "",
      "pkmn_regulation_mark": "",
      "pkmn_format[]": [
        "RO-on (Modified 2002)",
        "Neo-on (Modified 2003)"
      ],
      "pkmn_series[]": [
        "Other"
      ],
      "pkmn_collection": "",
      "pkmn_language": "",
      "card_prints": "",
      "pkmn_stage": "Basic",
      "pkmn_evolves_into[]": [
        "Steelix",
        "Steelix ex",
        "Dark Steelix"
      ],
      "pkmn_color[]": [
        "Fighting"
      ],
      "pkmn_hp": "90",
      "pkmn_weakness[]": [
        "Grass"
      ],
      "pkmn_retreat_cost": "3",
      "pkmn_has[]": [
        "Flavor Text"
      ],
      "pkmn_level": "",
      "card_weakness_modifier": "",
      "card_resistance_modifier": ""
    }
  },
  {
    "id": 11011,
    "url": "https://pkmncards.com/card/togepi-southern-islands-si-4/",
    "set-slug": "southern-islands",
    "data": {
      "post_ID": "11011",
      "post_title": "Togepi \u00b7 Southern Islands (SI) #4",
      "card_attachment_id_jpg": "21782",
      "card_attachment_id_png": "",
      "card_name": "Togepi",
      "card_number": "4",
      "card_text": "{C} Bawl: 10 damage. Flip a coin. If heads, the Defending Pok\u00e9mon is now Confused.",
      "flavor_text": "This Pok\u00e9mon is still immature. When threatened, it releases poison from its head and tries to drive its enemies away.",
      "pkmn_type[]": [
        "Pok\u00e9mon"
      ],
      "pkmn_artist[]": [
        "Keiko Fukuyama"
      ],
      "pkmn_rarity": "",
      "pkmn_set": "Southern Islands",
      "tcgplayer_id": "46478",
      "sorting_number": "4",
      "release_date_unix": "2001-07-31 12:04:00",
      "pkmn_print_type": "",
      "pkmn_regulation_mark": "",
      "pkmn_format[]": [
        "RO-on (Modified 2002)",
        "Neo-on (Modified 2003)"
      ],
      "pkmn_series[]": [
        "Other"
      ],
      "pkmn_collection": "",
      "pkmn_language": "",
      "card_prints": "",
      "pkmn_stage": "Basic",
      "pkmn_evolves_into[]": [
        "Togetic",
        "Light Togetic"
      ],
      "pkmn_color[]": [
        "Colorless"
      ],
      "pkmn_hp": "40",
      "pkmn_retreat_cost": "1",
      "pkmn_resistance[]": [
        "Psychic"
      ],
      "pkmn_has[]": [
        "Flavor Text"
      ],
      "pkmn_level": "",
      "card_weakness_modifier": "",
      "card_resistance_modifier": ""
    }
  },
  {
    "id": 10999,
    "url": "https://pkmncards.com/card/ivysaur-southern-islands-si-5/",
    "set-slug": "southern-islands",
    "data": {
      "post_ID": "10999",
      "post_title": "Ivysaur \u00b7 Southern Islands (SI) #5",
      "card_attachment_id_jpg": "21761",
      "card_attachment_id_png": "",
      "card_name": "Ivysaur",
      "card_number": "5",
      "card_text": "{G} Strange Scent. Each player flips a coin. Each player who gets heads chooses a total of 3 damage counters from among his or her Pok\u00e9mon and removes them. (If the player's Pok\u00e9mon have fewer total damage counters than that, he or she removes all of them.)\r\n\r\n{G}{G} Razor Leaf: 30 damage.",
      "flavor_text": "A sure sign spring is on its way is when the seed on this Pok\u00e9mon's back flowers.",
      "pkmn_type[]": [
        "Pok\u00e9mon"
      ],
      "pkmn_artist[]": [
        "Keiko Fukuyama"
      ],
      "pkmn_rarity": "",
      "pkmn_set": "Southern Islands",
      "tcgplayer_id": "46479",
      "sorting_number": "5",
      "release_date_unix": "2001-07-31 12:05:00",
      "pkmn_print_type": "",
      "pkmn_regulation_mark": "",
      "pkmn_format[]": [
        "RO-on (Modified 2002)",
        "Neo-on (Modified 2003)"
      ],
      "pkmn_series[]": [
        "Other"
      ],
      "pkmn_collection": "",
      "pkmn_language": "",
      "card_prints": "",
      "pkmn_stage": "Stage 1",
      "pkmn_evolves_from[]": [
        "Bulbasaur"
      ],
      "pkmn_evolves_into[]": [
        "Venusaur",
        "Venusaur ex"
      ],
      "pkmn_color[]": [
        "Grass"
      ],
      "pkmn_hp": "60",
      "pkmn_weakness[]": [
        "Fire"
      ],
      "pkmn_retreat_cost": "1",
      "pkmn_has[]": [
        "Flavor Text"
      ],
      "pkmn_level": "",
      "card_weakness_modifier": "",
      "card_resistance_modifier": ""
    }
  },
  {
    "id": 11008,
    "url": "https://pkmncards.com/card/raticate-southern-islands-si-6/",
    "set-slug": "southern-islands",
    "data": {
      "post_ID": "11008",
      "post_title": "Raticate \u00b7 Southern Islands (SI) #6",
      "card_attachment_id_jpg": "21777",
      "card_attachment_id_png": "",
      "card_name": "Raticate",
      "card_number": "6",
      "card_text": "{C}{C} Sharp Teeth: 10+ damage. Flip a coin. If heads, this attack does 10 damage plus 30 more damage; if tails, this attack does 10 damage.",
      "flavor_text": "This Pok\u00e9mon sometimes hunts for food in rivers, swimming using the small webs between the toes on its rear legs.",
      "pkmn_type[]": [
        "Pok\u00e9mon"
      ],
      "pkmn_artist[]": [
        "Keiko Fukuyama"
      ],
      "pkmn_rarity": "",
      "pkmn_set": "Southern Islands",
      "tcgplayer_id": "46480",
      "sorting_number": "6",
      "release_date_unix": "2001-07-31 12:06:00",
      "pkmn_print_type": "",
      "pkmn_regulation_mark": "",
      "pkmn_format[]": [
        "RO-on (Modified 2002)",
        "Neo-on (Modified 2003)"
      ],
      "pkmn_series[]": [
        "Other"
      ],
      "pkmn_collection": "",
      "pkmn_language": "",
      "card_prints": "",
      "pkmn_stage": "Stage 1",
      "pkmn_evolves_from[]": [
        "Rattata"
      ],
      "pkmn_evolves_into[]": [
        "Raticate BREAK"
      ],
      "pkmn_color[]": [
        "Colorless"
      ],
      "pkmn_hp": "60",
      "pkmn_weakness[]": [
        "Fighting"
      ],
      "pkmn_retreat_cost": "0",
      "pkmn_resistance[]": [
        "Psychic"
      ],
      "pkmn_has[]": [
        "Flavor Text"
      ],
      "pkmn_level": "",
      "card_weakness_modifier": "",
      "card_resistance_modifier": ""
    }
  },
  {
    "id": 11002,
    "url": "https://pkmncards.com/card/ledyba-southern-islands-si-7/",
    "set-slug": "southern-islands",
    "data": {
      "post_ID": "11002",
      "post_title": "Ledyba \u00b7 Southern Islands (SI) #7",
      "card_attachment_id_jpg": "21765",
      "card_attachment_id_png": "",
      "card_name": "Ledyba",
      "card_number": "7",
      "card_text": "{C} Gnaw: 10 damage.\r\n\r\n{G}{G} Agility: 20 damage. Flip a coin. If heads, during your opponent's next turn, prevent all effects of attacks, including damage, done to Ledyba.",
      "flavor_text": "When it senses enemies approaching, this Pok\u00e9mon releases an orange fluid from the joints in its legs and flees.",
      "pkmn_type[]": [
        "Pok\u00e9mon"
      ],
      "pkmn_artist[]": [
        "Keiko Fukuyama"
      ],
      "pkmn_rarity": "",
      "pkmn_set": "Southern Islands",
      "tcgplayer_id": "46481",
      "sorting_number": "7",
      "release_date_unix": "2001-07-31 12:07:00",
      "pkmn_print_type": "",
      "pkmn_regulation_mark": "",
      "pkmn_format[]": [
        "RO-on (Modified 2002)",
        "Neo-on (Modified 2003)"
      ],
      "pkmn_series[]": [
        "Other"
      ],
      "pkmn_collection": "",
      "pkmn_language": "",
      "card_prints": "",
      "pkmn_stage": "Basic",
      "pkmn_evolves_into[]": [
        "Ledian",
        "Light Ledian"
      ],
      "pkmn_color[]": [
        "Grass"
      ],
      "pkmn_hp": "40",
      "pkmn_weakness[]": [
        "Fire"
      ],
      "pkmn_retreat_cost": "1",
      "pkmn_resistance[]": [
        "Fighting"
      ],
      "pkmn_has[]": [
        "Flavor Text"
      ],
      "pkmn_level": "",
      "card_weakness_modifier": "",
      "card_resistance_modifier": ""
    }
  },
  {
    "id": 11000,
    "url": "https://pkmncards.com/card/jigglypuff-southern-islands-si-8/",
    "set-slug": "southern-islands",
    "data": {
      "post_ID": "11000",
      "post_title": "Jigglypuff \u00b7 Southern Islands (SI) #8",
      "card_attachment_id_jpg": "21762",
      "card_attachment_id_png": "",
      "card_name": "Jigglypuff",
      "card_number": "8",
      "card_text": "{C} Tempting Eyes. Choose 1 of your opponent's Benched Pok\u00e9mon and switch it with the Defending Pok\u00e9mon.\r\n\r\n{C} Sing. Flip a coin. If heads, the Defending Pok\u00e9mon is now Asleep.",
      "flavor_text": "After lulling its enemies with its large eyes, this Pok\u00e9mon sings them to sleep with a relaxing melody.",
      "pkmn_type[]": [
        "Pok\u00e9mon"
      ],
      "pkmn_artist[]": [
        "Keiko Fukuyama"
      ],
      "pkmn_rarity": "",
      "pkmn_set": "Southern Islands",
      "tcgplayer_id": "46482",
      "sorting_number": "8",
      "release_date_unix": "2001-07-31 12:08:00",
      "pkmn_print_type": "",
      "pkmn_regulation_mark": "",
      "pkmn_format[]": [
        "RO-on (Modified 2002)",
        "Neo-on (Modified 2003)"
      ],
      "pkmn_series[]": [
        "Other"
      ],
      "pkmn_collection": "",
      "pkmn_language": "",
      "card_prints": "",
      "pkmn_stage": "Basic",
      "pkmn_evolves_into[]": [
        "Wigglytuff",
        "Wigglytuff ex",
        "Dark Wigglytuff",
        "Light Wigglytuff",
        "Wigglytuff-GX"
      ],
      "pkmn_color[]": [
        "Colorless"
      ],
      "pkmn_hp": "50",
      "pkmn_weakness[]": [
        "Fighting"
      ],
      "pkmn_retreat_cost": "1",
      "pkmn_resistance[]": [
        "Psychic"
      ],
      "pkmn_has[]": [
        "Flavor Text"
      ],
      "pkmn_level": "",
      "card_weakness_modifier": "",
      "card_resistance_modifier": ""
    }
  },
  {
    "id": 10985,
    "url": "https://pkmncards.com/card/butterfree-southern-islands-si-9/",
    "set-slug": "southern-islands",
    "data": {
      "post_ID": "10985",
      "post_title": "Butterfree \u00b7 Southern Islands (SI) #9",
      "card_attachment_id_jpg": "21759",
      "card_attachment_id_png": "",
      "card_name": "Butterfree",
      "card_number": "9",
      "card_text": "{C}{C}{C} Fly: 30 damage. Flip a coin. If heads, during your opponent's next turn, prevent all effects of attacks, including damage, done to Butterfree. If tails, this attack does nothing (not even damage).\r\n\r\n{G}{G}{C} Rainbow Powder: 20 damage. Flip a coin. If heads, the Defending Pok\u00e9mon is now Paralyzed. If tails, the Defending Pok\u00e9mon is now Poisoned.",
      "flavor_text": "The poison scales on its wings are waterproof, allowing this Pok\u00e9mon to be active even on rainy days.",
      "pkmn_type[]": [
        "Pok\u00e9mon"
      ],
      "pkmn_artist[]": [
        "Keiko Fukuyama"
      ],
      "pkmn_rarity": "",
      "pkmn_set": "Southern Islands",
      "tcgplayer_id": "46483",
      "sorting_number": "9",
      "release_date_unix": "2001-07-31 12:09:00",
      "pkmn_print_type": "",
      "pkmn_regulation_mark": "",
      "pkmn_format[]": [
        "RO-on (Modified 2002)",
        "Neo-on (Modified 2003)"
      ],
      "pkmn_series[]": [
        "Other"
      ],
      "pkmn_collection": "",
      "pkmn_language": "",
      "card_prints": "",
      "pkmn_stage": "Stage 2",
      "pkmn_evolves_from[]": [
        "Metapod"
      ],
      "pkmn_color[]": [
        "Grass"
      ],
      "pkmn_hp": "80",
      "pkmn_weakness[]": [
        "Fire"
      ],
      "pkmn_retreat_cost": "1",
      "pkmn_resistance[]": [
        "Fighting"
      ],
      "pkmn_has[]": [
        "Flavor Text"
      ],
      "pkmn_level": "",
      "card_weakness_modifier": "",
      "card_resistance_modifier": ""
    }
  },
  {
    "id": 11010,
    "url": "https://pkmncards.com/card/tentacruel-southern-islands-si-10/",
    "set-slug": "southern-islands",
    "data": {
      "post_ID": "11010",
      "post_title": "Tentacruel \u00b7 Southern Islands (SI) #10",
      "card_attachment_id_jpg": "21780",
      "card_attachment_id_png": "",
      "card_name": "Tentacruel",
      "card_number": "10",
      "card_text": "{W} Tentacle Grip. Flip a number of coins equal to the number of {W} Energy attached to Tentacruel. For each heads, draw 2 cards.\r\n\r\n{W}{W} Poison Sting: 20 damage. Flip a coin. If heads, the Defending Pok\u00e9mon is now Paralyzed.",
      "flavor_text": "This Pok\u00e9mon attacks its prey with its eighty toxin-producing tentacles.",
      "pkmn_type[]": [
        "Pok\u00e9mon"
      ],
      "pkmn_artist[]": [
        "Naoyo Kimura"
      ],
      "pkmn_rarity": "",
      "pkmn_set": "Southern Islands",
      "tcgplayer_id": "46467",
      "sorting_number": "10",
      "release_date_unix": "2001-07-31 12:10:00",
      "pkmn_print_type": "",
      "pkmn_regulation_mark": "",
      "pkmn_format[]": [
        "RO-on (Modified 2002)",
        "Neo-on (Modified 2003)"
      ],
      "pkmn_series[]": [
        "Other"
      ],
      "pkmn_collection": "",
      "pkmn_language": "",
      "card_prints": "",
      "pkmn_stage": "Stage 1",
      "pkmn_evolves_from[]": [
        "Tentacool"
      ],
      "pkmn_color[]": [
        "Water"
      ],
      "pkmn_hp": "60",
      "pkmn_weakness[]": [
        "Lightning"
      ],
      "pkmn_retreat_cost": "1",
      "pkmn_has[]": [
        "Flavor Text"
      ],
      "pkmn_level": "",
      "card_weakness_modifier": "",
      "card_resistance_modifier": ""
    }
  },
  {
    "id": 11004,
    "url": "https://pkmncards.com/card/marill-southern-islands-si-11/",
    "set-slug": "southern-islands",
    "data": {
      "post_ID": "11004",
      "post_title": "Marill \u00b7 Southern Islands (SI) #11",
      "card_attachment_id_jpg": "21768",
      "card_attachment_id_png": "",
      "card_name": "Marill",
      "card_number": "11",
      "card_text": "{W} Squirt: Choose 1 of your opponent's Pok\u00e9mon. This attack does 10 damage to that Pok\u00e9mon. Don't apply Weakness and Resistance.\r\n\r\n{C}{C} Rolling Tackle: 20 damage.",
      "flavor_text": "This Pok\u00e9mon's fur repels water like a duck's feathers, allowing it to stay dry and fluffy even in water.",
      "pkmn_type[]": [
        "Pok\u00e9mon"
      ],
      "pkmn_artist[]": [
        "Naoyo Kimura"
      ],
      "pkmn_rarity": "",
      "pkmn_set": "Southern Islands",
      "tcgplayer_id": "46468",
      "sorting_number": "11",
      "release_date_unix": "2001-07-31 12:11:00",
      "pkmn_print_type": "",
      "pkmn_regulation_mark": "",
      "pkmn_format[]": [
        "RO-on (Modified 2002)",
        "Neo-on (Modified 2003)"
      ],
      "pkmn_series[]": [
        "Other"
      ],
      "pkmn_collection": "",
      "pkmn_language": "",
      "card_prints": "",
      "pkmn_stage": "Basic",
      "pkmn_evolves_into[]": [
        "Azumarill",
        "Light Azumarill"
      ],
      "pkmn_color[]": [
        "Water"
      ],
      "pkmn_hp": "40",
      "pkmn_weakness[]": [
        "Lightning"
      ],
      "pkmn_retreat_cost": "1",
      "pkmn_has[]": [
        "Flavor Text"
      ],
      "pkmn_level": "",
      "card_weakness_modifier": "",
      "card_resistance_modifier": ""
    }
  },
  {
    "id": 11001,
    "url": "https://pkmncards.com/card/lapras-southern-islands-si-12/",
    "set-slug": "southern-islands",
    "data": {
      "post_ID": "11001",
      "post_title": "Lapras \u00b7 Southern Islands (SI) #12",
      "card_attachment_id_jpg": "21763",
      "card_attachment_id_png": "",
      "card_name": "Lapras",
      "card_number": "12",
      "card_text": "{C} Gentle Song. If Lapras has any damage counters on it, remove 2 of them from it (1 if it only has 1). If the Defending Pok\u00e9mon has any damage counters on it, remove 2 of them from it (1 if it only has 1). The Defending Pok\u00e9mon is now Asleep.\r\n\r\n{W}{W} Ice Beam: 20 damage. Flip a coin. If heads, the Defending Pok\u00e9mon is now Paralyzed.",
      "flavor_text": "This gentle Pok\u00e9mon can understand human language and allows people to ride on its back.",
      "pkmn_type[]": [
        "Pok\u00e9mon"
      ],
      "pkmn_artist[]": [
        "Naoyo Kimura"
      ],
      "pkmn_rarity": "",
      "pkmn_set": "Southern Islands",
      "tcgplayer_id": "46469",
      "sorting_number": "12",
      "release_date_unix": "2001-07-31 12:12:00",
      "pkmn_print_type": "",
      "pkmn_regulation_mark": "",
      "pkmn_format[]": [
        "RO-on (Modified 2002)",
        "Neo-on (Modified 2003)"
      ],
      "pkmn_series[]": [
        "Other"
      ],
      "pkmn_collection": "",
      "pkmn_language": "",
      "card_prints": "",
      "pkmn_stage": "Basic",
      "pkmn_color[]": [
        "Water"
      ],
      "pkmn_hp": "70",
      "pkmn_weakness[]": [
        "Lightning"
      ],
      "pkmn_retreat_cost": "1",
      "pkmn_has[]": [
        "Flavor Text"
      ],
      "pkmn_level": "",
      "card_weakness_modifier": "",
      "card_resistance_modifier": ""
    }
  },
  {
    "id": 10998,
    "url": "https://pkmncards.com/card/exeggutor-southern-islands-si-13/",
    "set-slug": "southern-islands",
    "data": {
      "post_ID": "10998",
      "post_title": "Exeggutor \u00b7 Southern Islands (SI) #13",
      "card_attachment_id_jpg": "21760",
      "card_attachment_id_png": "",
      "card_name": "Exeggutor",
      "card_number": "13",
      "card_text": "{G} Sharpshooter. Choose 1 of your opponent's Pok\u00e9mon. Flip a number of coins equal to the number of {G} Energy attached to Exeggutor. This attack does 10 damage times the number of heads to that Pok\u00e9mon. Don't apply Weakness and Resistance.",
      "flavor_text": "This Pok\u00e9mon has a unique cry, as all three of its heads are always talking independently of one another.",
      "pkmn_type[]": [
        "Pok\u00e9mon"
      ],
      "pkmn_artist[]": [
        "Naoyo Kimura"
      ],
      "pkmn_rarity": "",
      "pkmn_set": "Southern Islands",
      "tcgplayer_id": "46470",
      "sorting_number": "13",
      "release_date_unix": "2001-07-31 12:13:00",
      "pkmn_print_type": "",
      "pkmn_regulation_mark": "",
      "pkmn_format[]": [
        "RO-on (Modified 2002)",
        "Neo-on (Modified 2003)"
      ],
      "pkmn_series[]": [
        "Other"
      ],
      "pkmn_collection": "",
      "pkmn_language": "",
      "card_prints": "",
      "pkmn_stage": "Stage 1",
      "pkmn_evolves_from[]": [
        "Exeggcute"
      ],
      "pkmn_color[]": [
        "Grass"
      ],
      "pkmn_hp": "70",
      "pkmn_weakness[]": [
        "Fire"
      ],
      "pkmn_retreat_cost": "2",
      "pkmn_has[]": [
        "Flavor Text"
      ],
      "pkmn_level": "",
      "card_weakness_modifier": "",
      "card_resistance_modifier": ""
    }
  },
  {
    "id": 11009,
    "url": "https://pkmncards.com/card/slowking-southern-islands-si-14/",
    "set-slug": "southern-islands",
    "data": {
      "post_ID": "11009",
      "post_title": "Slowking \u00b7 Southern Islands (SI) #14",
      "card_attachment_id_jpg": "21779",
      "card_attachment_id_png": "",
      "card_name": "Slowking",
      "card_number": "14",
      "card_text": "{P} Revelation: Flip a coin. If heads, search your deck for a Trainer card, show it to your opponent, and put it into your hand. Shuffle your deck afterward.\r\n\r\n{P}{C} Psychic: 10+ damage. Does 10 damage plus 10 more damage for each Energy card attached to the Defending Pok\u00e9mon.",
      "flavor_text": "Its nonchalant reaction to everything somehow gives this Pok\u00e9mon an imposing presence.",
      "pkmn_type[]": [
        "Pok\u00e9mon"
      ],
      "pkmn_artist[]": [
        "Naoyo Kimura"
      ],
      "pkmn_rarity": "",
      "pkmn_set": "Southern Islands",
      "tcgplayer_id": "46471",
      "sorting_number": "14",
      "release_date_unix": "2001-07-31 12:14:00",
      "pkmn_print_type": "",
      "pkmn_regulation_mark": "",
      "pkmn_format[]": [
        "RO-on (Modified 2002)",
        "Neo-on (Modified 2003)"
      ],
      "pkmn_series[]": [
        "Other"
      ],
      "pkmn_collection": "",
      "pkmn_language": "",
      "card_prints": "",
      "pkmn_stage": "Stage 1",
      "pkmn_evolves_from[]": [
        "Slowpoke"
      ],
      "pkmn_color[]": [
        "Psychic"
      ],
      "pkmn_hp": "70",
      "pkmn_weakness[]": [
        "Psychic"
      ],
      "pkmn_retreat_cost": "2",
      "pkmn_has[]": [
        "Flavor Text"
      ],
      "pkmn_level": "",
      "card_weakness_modifier": "",
      "card_resistance_modifier": ""
    }
  },
  {
    "id": 11013,
    "url": "https://pkmncards.com/card/wartortle-southern-islands-si-15/",
    "set-slug": "southern-islands",
    "data": {
      "post_ID": "11013",
      "post_title": "Wartortle \u00b7 Southern Islands (SI) #15",
      "card_attachment_id_jpg": "21786",
      "card_attachment_id_png": "",
      "card_name": "Wartortle",
      "card_number": "15",
      "card_text": "{W}{W} Water Gun: 20+ damage. Does 20 damage plus 10 more damage for each {W} Energy attached to Wartortle but not used to pay for this attack's Energy cost. You can't add more than 20 damage in this way.",
      "flavor_text": "When attacked, this Pok\u00e9mon withdraws into its shell, although it can't quite pull in all of its long tail.",
      "pkmn_type[]": [
        "Pok\u00e9mon"
      ],
      "pkmn_artist[]": [
        "Naoyo Kimura"
      ],
      "pkmn_rarity": "",
      "pkmn_set": "Southern Islands",
      "tcgplayer_id": "46472",
      "sorting_number": "15",
      "release_date_unix": "2001-07-31 12:15:00",
      "pkmn_print_type": "",
      "pkmn_regulation_mark": "",
      "pkmn_format[]": [
        "RO-on (Modified 2002)",
        "Neo-on (Modified 2003)"
      ],
      "pkmn_series[]": [
        "Other"
      ],
      "pkmn_collection": "",
      "pkmn_language": "",
      "card_prints": "",
      "pkmn_stage": "Stage 1",
      "pkmn_evolves_from[]": [
        "Squirtle"
      ],
      "pkmn_evolves_into[]": [
        "Blastoise",
        "Blastoise ex",
        "Blastoise-GX"
      ],
      "pkmn_color[]": [
        "Water"
      ],
      "pkmn_hp": "60",
      "pkmn_weakness[]": [
        "Lightning"
      ],
      "pkmn_retreat_cost": "1",
      "pkmn_has[]": [
        "Flavor Text"
      ],
      "pkmn_level": "",
      "card_weakness_modifier": "",
      "card_resistance_modifier": ""
    }
  },
  {
    "id": 11003,
    "url": "https://pkmncards.com/card/lickitung-southern-islands-si-16/",
    "set-slug": "southern-islands",
    "data": {
      "post_ID": "11003",
      "post_title": "Lickitung \u00b7 Southern Islands (SI) #16",
      "card_attachment_id_jpg": "21766",
      "card_attachment_id_png": "",
      "card_name": "Lickitung",
      "card_number": "16",
      "card_text": "{C} Lick Wounds. Flip a coin. If heads, choose 1 Pok\u00e9mon (yours or your opponent's) with damage counters on it and remove 2 damage counters from it (1 if it only has 1).\r\n\r\n{C}{C} Tongue Stretch. Flip a coin. If heads, choose 1 of your opponent's Pok\u00e9mon. This attack does 20 damage to that Pok\u00e9mon. Don't apply Weakness and Resistance.",
      "flavor_text": "This Pok\u00e9mon uses its six-foot tongue as if it were a hand. The origin of its anaesthetic properties is still a mystery.",
      "pkmn_type[]": [
        "Pok\u00e9mon"
      ],
      "pkmn_artist[]": [
        "Naoyo Kimura"
      ],
      "pkmn_rarity": "",
      "pkmn_set": "Southern Islands",
      "tcgplayer_id": "46473",
      "sorting_number": "16",
      "release_date_unix": "2001-07-31 12:16:00",
      "pkmn_print_type": "",
      "pkmn_regulation_mark": "",
      "pkmn_format[]": [
        "RO-on (Modified 2002)",
        "Neo-on (Modified 2003)"
      ],
      "pkmn_series[]": [
        "Other"
      ],
      "pkmn_collection": "",
      "pkmn_language": "",
      "card_prints": "",
      "pkmn_stage": "Basic",
      "pkmn_evolves_into[]": [
        "Lickilicky"
      ],
      "pkmn_color[]": [
        "Colorless"
      ],
      "pkmn_hp": "70",
      "pkmn_weakness[]": [
        "Fighting"
      ],
      "pkmn_retreat_cost": "2",
      "pkmn_resistance[]": [
        "Psychic"
      ],
      "pkmn_has[]": [
        "Flavor Text"
      ],
      "pkmn_level": "",
      "card_weakness_modifier": "",
      "card_resistance_modifier": ""
    }
  },
  {
    "id": 11012,
    "url": "https://pkmncards.com/card/vileplume-southern-islands-si-17/",
    "set-slug": "southern-islands",
    "data": {
      "post_ID": "11012",
      "post_title": "Vileplume \u00b7 Southern Islands (SI) #17",
      "card_attachment_id_jpg": "21784",
      "card_attachment_id_png": "",
      "card_name": "Vileplume",
      "card_number": "17",
      "card_text": "{G} Paradise Pollen: Flip a coin. If heads, remove 2 damage counters from Vileplume (1 if it only has 1). Then, if you have any Benched Pok\u00e9mon with damage counters on them, choose 1 of them and remove 2 damage counters from it (1 if it only has 1).\r\n\r\n{G}{G}{C} Horrid Pollen: 30 damage. Flip a coin. If heads, the Defending Pok\u00e9mon is now Paralyzed. If tails, the Defending Pok\u00e9mon is now Confused.",
      "flavor_text": "This Pok\u00e9mon makes a loud jangling noise when it shakes its petals to spread poison powder.",
      "pkmn_type[]": [
        "Pok\u00e9mon"
      ],
      "pkmn_artist[]": [
        "Naoyo Kimura"
      ],
      "pkmn_rarity": "",
      "pkmn_set": "Southern Islands",
      "tcgplayer_id": "46474",
      "sorting_number": "17",
      "release_date_unix": "2001-07-31 12:17:00",
      "pkmn_print_type": "",
      "pkmn_regulation_mark": "",
      "pkmn_format[]": [
        "RO-on (Modified 2002)",
        "Neo-on (Modified 2003)"
      ],
      "pkmn_series[]": [
        "Other"
      ],
      "pkmn_collection": "",
      "pkmn_language": "",
      "card_prints": "",
      "pkmn_stage": "Stage 2",
      "pkmn_evolves_from[]": [
        "Gloom"
      ],
      "pkmn_color[]": [
        "Grass"
      ],
      "pkmn_hp": "70",
      "pkmn_weakness[]": [
        "Fire"
      ],
      "pkmn_retreat_cost": "2",
      "pkmn_has[]": [
        "Flavor Text"
      ],
      "pkmn_level": "",
      "card_weakness_modifier": "",
      "card_resistance_modifier": ""
    }
  },
  {
    "id": 11007,
    "url": "https://pkmncards.com/card/primeape-southern-islands-si-18/",
    "set-slug": "southern-islands",
    "data": {
      "post_ID": "11007",
      "post_title": "Primeape \u00b7 Southern Islands (SI) #18",
      "card_attachment_id_jpg": "21776",
      "card_attachment_id_png": "",
      "card_name": "Primeape",
      "card_number": "18",
      "card_text": "{F} Low Kick: 20 damage.\r\n\r\n{F}{F} Rampage: 20+ damage. Does 20 damage plus 10 more damage for each damage counter on Primeape. Flip a coin. If tails, Primeape is now Confused (after doing damage).",
      "flavor_text": "This Pok\u00e9mon only calms down when there are no other animals or people around\u2014which means no one has ever seen it when it's not angry.",
      "pkmn_type[]": [
        "Pok\u00e9mon"
      ],
      "pkmn_artist[]": [
        "Naoyo Kimura"
      ],
      "pkmn_rarity": "",
      "pkmn_set": "Southern Islands",
      "tcgplayer_id": "46475",
      "sorting_number": "18",
      "release_date_unix": "2001-07-31 12:18:00",
      "pkmn_print_type": "",
      "pkmn_regulation_mark": "",
      "pkmn_format[]": [
        "RO-on (Modified 2002)",
        "Neo-on (Modified 2003)"
      ],
      "pkmn_series[]": [
        "Other"
      ],
      "pkmn_collection": "",
      "pkmn_language": "",
      "card_prints": "",
      "pkmn_stage": "Stage 1",
      "pkmn_evolves_from[]": [
        "Mankey"
      ],
      "pkmn_color[]": [
        "Fighting"
      ],
      "pkmn_hp": "60",
      "pkmn_weakness[]": [
        "Psychic"
      ],
      "pkmn_retreat_cost": "1",
      "pkmn_has[]": [
        "Flavor Text"
      ],
      "pkmn_level": "",
      "card_weakness_modifier": "",
      "card_resistance_modifier": ""
    }
  }
]