[
  {
    "id": 73173,
    "url": "https://pkmncards.com/card/pikachu-on-the-ball-pokemon-futsal-promos-2020-fut20-001/",
    "set-slug": "pokemon-futsal-promos-2020",
    "data": {
      "post_ID": "73173",
      "post_title": "Pikachu on the Ball \u00b7 Pok\u00e9mon Futsal Promos 2020 (FUT20) #001",
      "card_attachment_id_jpg": "73174",
      "card_attachment_id_png": "",
      "card_name": "Pikachu on the Ball",
      "card_number": "001",
      "card_text": "{C} Tail Whap: 10 damage.\r\n\r\n{L}{L}{C} Lightning Shot: 120 damage. Flip a coin. If tails, this attack does nothing.",
      "flavor_text": "Pikachu that can generate powerful electricity have cheek sacs that are extra soft and super stretchy.",
      "pkmn_type[]": [
        "Pok\u00e9mon"
      ],
      "pkmn_artist[]": [
        "The Pok\u00e9mon Company Art Team"
      ],
      "pkmn_rarity": "Promo",
      "pkmn_set": "Pok\u00e9mon Futsal Promos 2020",
      "tcgplayer_id": "-1",
      "sorting_number": "001",
      "release_date_unix": "2020-09-11 12:01:00",
      "pkmn_print_type": "",
      "pkmn_regulation_mark": "D",
      "pkmn_format[]": [
        "D-on (Standard 2022)"
      ],
      "pkmn_series[]": [
        "Promos",
        "Sword & Shield"
      ],
      "pkmn_collection": "",
      "pkmn_language": "",
      "card_prints": "",
      "pkmn_stage": "Basic",
      "pkmn_color[]": [
        "Lightning"
      ],
      "pkmn_hp": "60",
      "pkmn_weakness[]": [
        "Fighting"
      ],
      "pkmn_retreat_cost": "1",
      "pkmn_has[]": [
        "Flavor Text"
      ],
      "pkmn_level": "",
      "card_weakness_modifier": "",
      "card_resistance_modifier": ""
    }
  },
  {
    "id": 73171,
    "url": "https://pkmncards.com/card/eevee-on-the-ball-pokemon-futsal-promos-2020-fut20-002/",
    "set-slug": "pokemon-futsal-promos-2020",
    "data": {
      "post_ID": "73171",
      "post_title": "Eevee on the Ball \u00b7 Pok\u00e9mon Futsal Promos 2020 (FUT20) #002",
      "card_attachment_id_jpg": "73172",
      "card_attachment_id_png": "",
      "card_name": "Eevee on the Ball",
      "card_number": "002",
      "card_text": "{C} Make the Assist: Attach a basic Energy card from your hand to 1 of your Benched Pok\u00e9mon.\r\n\r\n{C}{C} Tackle: 20 damage.",
      "flavor_text": "It has the ability to alter the composition of its body to suit its surrounding environment.",
      "pkmn_type[]": [
        "Pok\u00e9mon"
      ],
      "pkmn_artist[]": [
        "The Pok\u00e9mon Company Art Team"
      ],
      "pkmn_rarity": "Promo",
      "pkmn_set": "Pok\u00e9mon Futsal Promos 2020",
      "tcgplayer_id": "223760",
      "sorting_number": "002",
      "release_date_unix": "2020-09-11 12:02:00",
      "pkmn_print_type": "",
      "pkmn_regulation_mark": "D",
      "pkmn_format[]": [
        "D-on (Standard 2022)",
        "BLW-on (Expanded 2021)",
        "BLW-on (Expanded 2022)"
      ],
      "pkmn_series[]": [
        "Promos",
        "Sword & Shield"
      ],
      "pkmn_collection": "",
      "pkmn_language": "",
      "card_prints": "",
      "pkmn_stage": "Basic",
      "pkmn_color[]": [
        "Colorless"
      ],
      "pkmn_hp": "60",
      "pkmn_weakness[]": [
        "Fighting"
      ],
      "pkmn_retreat_cost": "1",
      "pkmn_has[]": [
        "Flavor Text"
      ],
      "pkmn_level": "",
      "card_weakness_modifier": "",
      "card_resistance_modifier": ""
    }
  },
  {
    "id": 73401,
    "url": "https://pkmncards.com/card/grookey-on-the-ball-pokemon-futsal-promos-2020-fut20-003/",
    "set-slug": "pokemon-futsal-promos-2020",
    "data": {
      "post_ID": "73401",
      "post_title": "Grookey on the Ball \u00b7 Pok\u00e9mon Futsal Promos 2020 (FUT20) #003",
      "card_attachment_id_jpg": "73402",
      "card_attachment_id_png": "",
      "card_name": "Grookey on the Ball",
      "card_number": "003",
      "card_text": "{G} Tenacious Defense: During your opponent's next turn, the Defending Pok\u00e9mon can't retreat.\r\n\r\n{G}{G}{C} Razor Leaf: 50 damage.",
      "flavor_text": "When it uses its special stick to strike up a beat, the sound waves produced carry revitalizing energy to the plants and flowers in the area.",
      "pkmn_type[]": [
        "Pok\u00e9mon"
      ],
      "pkmn_artist[]": [
        "The Pok\u00e9mon Company Art Team"
      ],
      "pkmn_rarity": "Promo",
      "pkmn_set": "Pok\u00e9mon Futsal Promos 2020",
      "tcgplayer_id": "227413",
      "sorting_number": "003",
      "release_date_unix": "2020-10-16 12:03:00",
      "pkmn_print_type": "",
      "pkmn_regulation_mark": "D",
      "pkmn_format[]": [
        "D-on (Standard 2022)",
        "BLW-on (Expanded 2022)",
        "BLW-on (Expanded 2021)"
      ],
      "pkmn_series[]": [
        "Promos",
        "Sword & Shield"
      ],
      "pkmn_collection": "",
      "pkmn_language": "",
      "card_prints": "",
      "pkmn_stage": "Basic",
      "pkmn_color[]": [
        "Grass"
      ],
      "pkmn_hp": "60",
      "pkmn_weakness[]": [
        "Fire"
      ],
      "pkmn_retreat_cost": "1",
      "pkmn_has[]": [
        "Flavor Text"
      ],
      "pkmn_level": "",
      "card_weakness_modifier": "",
      "card_resistance_modifier": ""
    }
  },
  {
    "id": 74945,
    "url": "https://pkmncards.com/card/scorbunny-on-the-ball-pokemon-futsal-promos-2020-fut20-004/",
    "set-slug": "pokemon-futsal-promos-2020",
    "data": {
      "post_ID": "74945",
      "post_title": "Scorbunny on the Ball \u00b7 Pok\u00e9mon Futsal Promos 2020 (FUT20) #004",
      "card_attachment_id_jpg": "74946",
      "card_attachment_id_png": "",
      "card_name": "Scorbunny on the Ball",
      "card_number": "004",
      "card_text": "{R} Fiery Dribbling: 20x damage. Flip a coin until you get tails. This attack does 20 damage for each heads.\r\n\r\n{R}{C} Reckless Charge: 30 damage. This Pok\u00e9mon also does 10 damage to itself.",
      "flavor_text": "A warm-up of running around gets fire energy coursing through this Pok\u00e9mon's body. Once that happens, it's ready to fight at full power.",
      "pkmn_type[]": [
        "Pok\u00e9mon"
      ],
      "pkmn_artist[]": [
        "The Pok\u00e9mon Company Art Team"
      ],
      "pkmn_rarity": "Promo",
      "pkmn_set": "Pok\u00e9mon Futsal Promos 2020",
      "tcgplayer_id": "-1",
      "sorting_number": "004",
      "release_date_unix": "2021-06-18 12:04:00",
      "pkmn_print_type": "",
      "pkmn_regulation_mark": "D",
      "pkmn_format[]": [
        "D-on (Standard 2022)",
        "BLW-on (Expanded 2022)",
        "BLW-on (Expanded 2021)"
      ],
      "pkmn_series[]": [
        "Promos",
        "Sword & Shield"
      ],
      "pkmn_collection": "",
      "pkmn_language": "",
      "card_prints": "",
      "pkmn_stage": "Basic",
      "pkmn_color[]": [
        "Fire"
      ],
      "pkmn_hp": "60",
      "pkmn_weakness[]": [
        "Water"
      ],
      "pkmn_retreat_cost": "1",
      "pkmn_has[]": [
        "Flavor Text"
      ],
      "pkmn_level": "",
      "card_weakness_modifier": "",
      "card_resistance_modifier": ""
    }
  },
  {
    "id": 76365,
    "url": "https://pkmncards.com/card/sobble-on-the-ball-pokemon-futsal-promos-2020-fut20-005/",
    "set-slug": "pokemon-futsal-promos-2020",
    "data": {
      "post_ID": "76365",
      "post_title": "Sobble on the Ball \u00b7 Pok\u00e9mon Futsal Promos 2020 (FUT20) #005",
      "card_attachment_id_jpg": "76367",
      "card_attachment_id_png": "76366",
      "card_name": "Sobble on the Ball",
      "card_number": "005",
      "card_text": "{W} Spectacular Save: Flip a coin. If heads, during your opponent's next turn, prevent all effects of attacks, including damage, done to this Pok\u00e9mon.\r\n\r\n{W}{C} Rain Splash: 20 damage.",
      "flavor_text": "When scared, this Pok\u00e9mon cries. Its tears pack the chemical punch of 100 onions, and attackers won't be able to resist weeping.",
      "pkmn_type[]": [
        "Pok\u00e9mon"
      ],
      "pkmn_artist[]": [
        "The Pok\u00e9mon Company Art Team"
      ],
      "pkmn_rarity": "Promo",
      "pkmn_set": "Pok\u00e9mon Futsal Promos 2020",
      "tcgplayer_id": "-1",
      "sorting_number": "5",
      "release_date_unix": "2021-09-07 12:05:00",
      "pkmn_print_type": "",
      "pkmn_regulation_mark": "D",
      "pkmn_format[]": [
        "D-on (Standard 2022)",
        "BLW-on (Expanded 2022)"
      ],
      "pkmn_series[]": [
        "Promos",
        "Sword & Shield"
      ],
      "pkmn_collection": "",
      "pkmn_language": "",
      "card_prints": "",
      "pkmn_stage": "Basic",
      "pkmn_color[]": [
        "Water"
      ],
      "pkmn_hp": "60",
      "pkmn_weakness[]": [
        "Lightning"
      ],
      "pkmn_retreat_cost": "1",
      "pkmn_has[]": [
        "Flavor Text"
      ],
      "pkmn_level": "",
      "card_weakness_modifier": "",
      "card_resistance_modifier": ""
    }
  }
]