[
  {
    "id": 65525,
    "url": "https://pkmncards.com/card/gyarados-hs-trainer-kit-gyarados-tk4g-20/",
    "set-slug": "hs-trainer-kit-gyarados",
    "data": {
      "post_ID": "65525",
      "post_title": "Gyarados \u00b7 HS Trainer Kit\u2014Gyarados (TK4G) #20",
      "card_attachment_id_jpg": "65572",
      "card_attachment_id_png": "",
      "card_name": "Gyarados",
      "card_number": "20",
      "card_text": "{W}{C}{C} Hydro Splash: 50 damage.\r\n\r\n{W}{W}{C}{C} Hyper Beam: 80 damage. Discard an Energy card attached to the Defending Pok\u00e9mon.",
      "flavor_text": "Once it appears, it goes on a rampage. It remains enraged until it demolishes everything around it.",
      "pkmn_type[]": [
        "Pok\u00e9mon"
      ],
      "pkmn_artist[]": [
        "Mitsuhiro Arita"
      ],
      "pkmn_rarity": "",
      "pkmn_set": "HS Trainer Kit\u2014Gyarados",
      "tcgplayer_id": "85997",
      "sorting_number": "20",
      "release_date_unix": "2010-05-07 12:20:00",
      "pkmn_print_type": "",
      "pkmn_regulation_mark": "",
      "pkmn_format[]": [
        "MD-on (Modified 2011)",
        "HS-on (Modified 2012)",
        "DP-on (Modified 2010)"
      ],
      "pkmn_series[]": [
        "HeartGold & SoulSilver",
        "Trainer Kits"
      ],
      "pkmn_collection": "",
      "pkmn_language": "",
      "card_prints": "",
      "pkmn_stage": "Stage 1",
      "pkmn_evolves_from[]": [
        "Magikarp"
      ],
      "pkmn_color[]": [
        "Water"
      ],
      "pkmn_hp": "130",
      "pkmn_weakness[]": [
        "Lightning"
      ],
      "pkmn_retreat_cost": "3",
      "pkmn_resistance[]": [
        "Fighting"
      ],
      "pkmn_has[]": [
        "Flavor Text"
      ],
      "pkmn_level": "",
      "card_weakness_modifier": "",
      "card_resistance_modifier": "-20"
    }
  }
]