[
  {
    "id": 65528,
    "url": "https://pkmncards.com/card/raichu-hs-trainer-kit-raichu-tk4r-19/",
    "set-slug": "hs-trainer-kit-raichu",
    "data": {
      "post_ID": "65528",
      "post_title": "Raichu \u00b7 HS Trainer Kit\u2014Raichu (TK4R) #19",
      "card_attachment_id_jpg": "65574",
      "card_attachment_id_png": "",
      "card_name": "Raichu",
      "card_number": "19",
      "card_text": "{C} Iron Tail: 30x damage. Flip a coin until you get tails. This attack does 30 damage times the number of heads.\r\n\r\n{L}{L} Thunderbolt: 100 damage. Discard all Energy attached to Raichu.",
      "flavor_text": "If the electric pouches in its cheeks become fully charged, both ears will stand straight up.",
      "pkmn_type[]": [
        "Pok\u00e9mon"
      ],
      "pkmn_artist[]": [
        "match"
      ],
      "pkmn_rarity": "",
      "pkmn_set": "HS Trainer Kit\u2014Raichu",
      "tcgplayer_id": "88520",
      "sorting_number": "19",
      "release_date_unix": "2010-05-07 12:19:00",
      "pkmn_print_type": "",
      "pkmn_regulation_mark": "",
      "pkmn_format[]": [
        "MD-on (Modified 2011)",
        "HS-on (Modified 2012)",
        "DP-on (Modified 2010)"
      ],
      "pkmn_series[]": [
        "HeartGold & SoulSilver",
        "Trainer Kits"
      ],
      "pkmn_collection": "",
      "pkmn_language": "",
      "card_prints": "",
      "pkmn_stage": "Stage 1",
      "pkmn_evolves_from[]": [
        "Pikachu"
      ],
      "pkmn_evolves_into[]": [
        "Raichu LV.X",
        "Raichu BREAK"
      ],
      "pkmn_color[]": [
        "Lightning"
      ],
      "pkmn_hp": "90",
      "pkmn_weakness[]": [
        "Fighting"
      ],
      "pkmn_retreat_cost": "0",
      "pkmn_resistance[]": [
        "Metal"
      ],
      "pkmn_has[]": [
        "Flavor Text"
      ],
      "pkmn_level": "",
      "card_weakness_modifier": "",
      "card_resistance_modifier": "-20"
    }
  }
]