[
  {
    "id": 64842,
    "url": "https://pkmncards.com/card/taillow-xy-trainer-kit-pikachu-libre-tk9p-7/",
    "set-slug": "xy-trainer-kit-pikachu-libre",
    "data": {
      "post_ID": "64842",
      "post_title": "Taillow \u00b7 XY Trainer Kit\u2014Pikachu Libre (TK9P) #7",
      "card_attachment_id_jpg": "64843",
      "card_attachment_id_png": "",
      "card_name": "Taillow",
      "card_number": "7",
      "card_text": "{C} Double Peck: 10x. Flip 2 coins. This attack does 10 damage times the number of heads.",
      "flavor_text": "It dislikes cold seasons. They migrate to other lands in search of warmth, flying over 180 miles a day.",
      "pkmn_type[]": [
        "Pok\u00e9mon"
      ],
      "pkmn_artist[]": [
        "Atsuko Nishida"
      ],
      "pkmn_rarity": "",
      "pkmn_set": "XY Trainer Kit\u2014Pikachu Libre",
      "tcgplayer_id": "118812",
      "sorting_number": "7",
      "release_date_unix": "2016-04-27 12:07:00",
      "pkmn_print_type": "",
      "pkmn_regulation_mark": "",
      "pkmn_format[]": [
        "XY-on (Standard 2016)",
        "BLW-on (Expanded 2016)",
        "PRC-on (Standard 2017)",
        "BLW-on (Expanded 2017)",
        "BKT-on (Standard 2018)",
        "BLW-on (Expanded 2018)",
        "BLW-on (Expanded 2019)",
        "BLW-on (Expanded 2020)",
        "BLW-on (Expanded 2021)",
        "BLW-on (Expanded 2022)"
      ],
      "pkmn_series[]": [
        "XY",
        "Trainer Kits"
      ],
      "pkmn_collection": "",
      "pkmn_language": "",
      "card_prints": "",
      "pkmn_stage": "Basic",
      "pkmn_evolves_into[]": [
        "Swellow"
      ],
      "pkmn_color[]": [
        "Colorless"
      ],
      "pkmn_hp": "50",
      "pkmn_weakness[]": [
        "Lightning"
      ],
      "pkmn_retreat_cost": "1",
      "pkmn_resistance[]": [
        "Fighting"
      ],
      "pkmn_has[]": [
        "Flavor Text"
      ],
      "pkmn_level": "",
      "card_weakness_modifier": "",
      "card_resistance_modifier": ""
    }
  },
  {
    "id": 64844,
    "url": "https://pkmncards.com/card/electrike-xy-trainer-kit-pikachu-libre-tk9p-11/",
    "set-slug": "xy-trainer-kit-pikachu-libre",
    "data": {
      "post_ID": "64844",
      "post_title": "Electrike \u00b7 XY Trainer Kit\u2014Pikachu Libre (TK9P) #11",
      "card_attachment_id_jpg": "64845",
      "card_attachment_id_png": "",
      "card_name": "Electrike",
      "card_number": "11",
      "card_text": "{C} Bite: 10.",
      "flavor_text": "It stores static electricity in its fur for discharging. It gives off sparks if a storm approaches.",
      "pkmn_type[]": [
        "Pok\u00e9mon"
      ],
      "pkmn_artist[]": [
        "Akira Komayama"
      ],
      "pkmn_rarity": "",
      "pkmn_set": "XY Trainer Kit\u2014Pikachu Libre",
      "tcgplayer_id": "-1",
      "sorting_number": "11",
      "release_date_unix": "2016-04-27 12:11:00",
      "pkmn_print_type": "",
      "pkmn_regulation_mark": "",
      "pkmn_format[]": [
        "XY-on (Standard 2016)",
        "BLW-on (Expanded 2016)",
        "PRC-on (Standard 2017)",
        "BLW-on (Expanded 2017)",
        "BKT-on (Standard 2018)",
        "BLW-on (Expanded 2018)",
        "BLW-on (Expanded 2019)",
        "BLW-on (Expanded 2020)",
        "BLW-on (Expanded 2021)",
        "BLW-on (Expanded 2022)"
      ],
      "pkmn_series[]": [
        "XY",
        "Trainer Kits"
      ],
      "pkmn_collection": "",
      "pkmn_language": "",
      "card_prints": "",
      "pkmn_stage": "Basic",
      "pkmn_evolves_into[]": [
        "Manectric",
        "Manectric ex"
      ],
      "pkmn_color[]": [
        "Lightning"
      ],
      "pkmn_hp": "60",
      "pkmn_weakness[]": [
        "Fighting"
      ],
      "pkmn_retreat_cost": "1",
      "pkmn_resistance[]": [
        "Metal"
      ],
      "pkmn_has[]": [
        "Flavor Text"
      ],
      "pkmn_level": "",
      "card_weakness_modifier": "",
      "card_resistance_modifier": ""
    }
  },
  {
    "id": 64848,
    "url": "https://pkmncards.com/card/manectric-xy-trainer-kit-pikachu-libre-tk9p-13/",
    "set-slug": "xy-trainer-kit-pikachu-libre",
    "data": {
      "post_ID": "64848",
      "post_title": "Manectric \u00b7 XY Trainer Kit\u2014Pikachu Libre (TK9P) #13",
      "card_attachment_id_jpg": "64849",
      "card_attachment_id_png": "",
      "card_name": "Manectric",
      "card_number": "13",
      "card_text": "{L} Random Spark: This attack does 30 damage to 1 of your opponent's Pok\u00e9mon. (Don't apply Weakness and Resistance for Benched Pok\u00e9mon.)\r\n\r\n{C}{C} Bite: 40.",
      "flavor_text": "It discharges electricity from its mane. It creates a thundercloud overhead to drop lightning bolts.",
      "pkmn_type[]": [
        "Pok\u00e9mon"
      ],
      "pkmn_artist[]": [
        "match"
      ],
      "pkmn_rarity": "",
      "pkmn_set": "XY Trainer Kit\u2014Pikachu Libre",
      "tcgplayer_id": "-1",
      "sorting_number": "13",
      "release_date_unix": "2016-04-27 12:13:00",
      "pkmn_print_type": "",
      "pkmn_regulation_mark": "",
      "pkmn_format[]": [
        "XY-on (Standard 2016)",
        "BLW-on (Expanded 2016)",
        "PRC-on (Standard 2017)",
        "BLW-on (Expanded 2017)",
        "BKT-on (Standard 2018)",
        "BLW-on (Expanded 2018)",
        "BLW-on (Expanded 2019)",
        "BLW-on (Expanded 2020)",
        "BLW-on (Expanded 2021)",
        "BLW-on (Expanded 2022)"
      ],
      "pkmn_series[]": [
        "XY",
        "Trainer Kits"
      ],
      "pkmn_collection": "",
      "pkmn_language": "",
      "card_prints": "",
      "pkmn_stage": "Stage 1",
      "pkmn_evolves_from[]": [
        "Electrike"
      ],
      "pkmn_color[]": [
        "Lightning"
      ],
      "pkmn_hp": "90",
      "pkmn_weakness[]": [
        "Fighting"
      ],
      "pkmn_retreat_cost": "1",
      "pkmn_resistance[]": [
        "Metal"
      ],
      "pkmn_has[]": [
        "Flavor Text"
      ],
      "pkmn_level": "",
      "card_weakness_modifier": "",
      "card_resistance_modifier": ""
    }
  },
  {
    "id": 64810,
    "url": "https://pkmncards.com/card/pikachu-libre-xy-trainer-kit-pikachu-libre-tk9p-14/",
    "set-slug": "xy-trainer-kit-pikachu-libre",
    "data": {
      "post_ID": "64810",
      "post_title": "Pikachu Libre \u00b7 XY Trainer Kit\u2014Pikachu Libre (TK9P) #14",
      "card_attachment_id_jpg": "64811",
      "card_attachment_id_png": "",
      "card_name": "Pikachu Libre",
      "card_number": "14",
      "card_text": "{C}{C} Quick Attack: 10+. Flip a coin. If heads, this attack does 30 more damage.\r\n\r\n{L}{C}{C} Flying Elekick: 50.",
      "flavor_text": "It has small electric sacs on both its cheeks. If threatened, it looses electric charges from the sacs.",
      "pkmn_type[]": [
        "Pok\u00e9mon"
      ],
      "pkmn_artist[]": [
        "Yoshinobu Saito"
      ],
      "pkmn_rarity": "",
      "pkmn_set": "XY Trainer Kit\u2014Pikachu Libre",
      "tcgplayer_id": "-1",
      "sorting_number": "14",
      "release_date_unix": "2016-04-27 12:14:00",
      "pkmn_print_type": "",
      "pkmn_regulation_mark": "",
      "pkmn_format[]": [
        "XY-on (Standard 2016)",
        "BLW-on (Expanded 2016)",
        "PRC-on (Standard 2017)",
        "BLW-on (Expanded 2017)",
        "BKT-on (Standard 2018)",
        "BLW-on (Expanded 2018)",
        "BLW-on (Expanded 2019)",
        "BLW-on (Expanded 2020)",
        "BLW-on (Expanded 2021)",
        "BLW-on (Expanded 2022)"
      ],
      "pkmn_series[]": [
        "XY",
        "Trainer Kits"
      ],
      "pkmn_collection": "",
      "pkmn_language": "",
      "card_prints": "",
      "pkmn_stage": "Basic",
      "pkmn_color[]": [
        "Lightning"
      ],
      "pkmn_hp": "80",
      "pkmn_weakness[]": [
        "Fighting"
      ],
      "pkmn_retreat_cost": "1",
      "pkmn_resistance[]": [
        "Metal"
      ],
      "pkmn_has[]": [
        "Flavor Text"
      ],
      "pkmn_level": "",
      "card_weakness_modifier": "",
      "card_resistance_modifier": ""
    }
  },
  {
    "id": 64840,
    "url": "https://pkmncards.com/card/fletchling-xy-trainer-kit-pikachu-libre-tk9p-16/",
    "set-slug": "xy-trainer-kit-pikachu-libre",
    "data": {
      "post_ID": "64840",
      "post_title": "Fletchling \u00b7 XY Trainer Kit\u2014Pikachu Libre (TK9P) #16",
      "card_attachment_id_jpg": "64841",
      "card_attachment_id_png": "",
      "card_name": "Fletchling",
      "card_number": "16",
      "card_text": "{C} Acrobatics: 10+. Flip 2 coins. This attack does 10 more damage for each heads.",
      "flavor_text": "Despite the beauty of its lilting voice, it's merciless to intruders that enter its territory.",
      "pkmn_type[]": [
        "Pok\u00e9mon"
      ],
      "pkmn_artist[]": [
        "Kanako Eo"
      ],
      "pkmn_rarity": "",
      "pkmn_set": "XY Trainer Kit\u2014Pikachu Libre",
      "tcgplayer_id": "118823",
      "sorting_number": "16",
      "release_date_unix": "2016-04-27 12:16:00",
      "pkmn_print_type": "",
      "pkmn_regulation_mark": "",
      "pkmn_format[]": [
        "XY-on (Standard 2016)",
        "BLW-on (Expanded 2016)",
        "PRC-on (Standard 2017)",
        "BLW-on (Expanded 2017)",
        "BKT-on (Standard 2018)",
        "BLW-on (Expanded 2018)",
        "BLW-on (Expanded 2019)",
        "BLW-on (Expanded 2020)",
        "BLW-on (Expanded 2021)",
        "BLW-on (Expanded 2022)"
      ],
      "pkmn_series[]": [
        "XY",
        "Trainer Kits"
      ],
      "pkmn_collection": "",
      "pkmn_language": "",
      "card_prints": "",
      "pkmn_stage": "Basic",
      "pkmn_evolves_into[]": [
        "Fletchinder"
      ],
      "pkmn_color[]": [
        "Colorless"
      ],
      "pkmn_hp": "40",
      "pkmn_weakness[]": [
        "Lightning"
      ],
      "pkmn_retreat_cost": "1",
      "pkmn_resistance[]": [
        "Fighting"
      ],
      "pkmn_has[]": [
        "Flavor Text"
      ],
      "pkmn_level": "",
      "card_weakness_modifier": "",
      "card_resistance_modifier": ""
    }
  },
  {
    "id": 64850,
    "url": "https://pkmncards.com/card/manectric-xy-trainer-kit-pikachu-libre-tk9p-22/",
    "set-slug": "xy-trainer-kit-pikachu-libre",
    "data": {
      "post_ID": "64850",
      "post_title": "Manectric \u00b7 XY Trainer Kit\u2014Pikachu Libre (TK9P) #22",
      "card_attachment_id_jpg": "64851",
      "card_attachment_id_png": "",
      "card_name": "Manectric",
      "card_number": "22",
      "card_text": "{L} Random Spark: This attack does 30 damage to 1 of your opponent's Pok\u00e9mon. (Don't apply Weakness and Resistance for Benched Pok\u00e9mon.)\r\n\r\n{C}{C} Bite: 40.",
      "flavor_text": "It discharges electricity from its mane. It creates a thundercloud overhead to drop lightning bolts.",
      "pkmn_type[]": [
        "Pok\u00e9mon"
      ],
      "pkmn_artist[]": [
        "match"
      ],
      "pkmn_rarity": "",
      "pkmn_set": "XY Trainer Kit\u2014Pikachu Libre",
      "tcgplayer_id": "-1",
      "sorting_number": "22",
      "release_date_unix": "2016-04-27 12:22:00",
      "pkmn_print_type": "",
      "pkmn_regulation_mark": "",
      "pkmn_format[]": [
        "XY-on (Standard 2016)",
        "BLW-on (Expanded 2016)",
        "PRC-on (Standard 2017)",
        "BLW-on (Expanded 2017)",
        "BKT-on (Standard 2018)",
        "BLW-on (Expanded 2018)",
        "BLW-on (Expanded 2019)",
        "BLW-on (Expanded 2020)",
        "BLW-on (Expanded 2021)",
        "BLW-on (Expanded 2022)"
      ],
      "pkmn_series[]": [
        "XY",
        "Trainer Kits"
      ],
      "pkmn_collection": "",
      "pkmn_language": "",
      "card_prints": "",
      "pkmn_stage": "Stage 1",
      "pkmn_evolves_from[]": [
        "Electrike"
      ],
      "pkmn_color[]": [
        "Lightning"
      ],
      "pkmn_hp": "90",
      "pkmn_weakness[]": [
        "Fighting"
      ],
      "pkmn_retreat_cost": "1",
      "pkmn_resistance[]": [
        "Metal"
      ],
      "pkmn_has[]": [
        "Flavor Text"
      ],
      "pkmn_level": "",
      "card_weakness_modifier": "",
      "card_resistance_modifier": ""
    }
  },
  {
    "id": 64846,
    "url": "https://pkmncards.com/card/electrike-xy-trainer-kit-pikachu-libre-tk9p-28/",
    "set-slug": "xy-trainer-kit-pikachu-libre",
    "data": {
      "post_ID": "64846",
      "post_title": "Electrike \u00b7 XY Trainer Kit\u2014Pikachu Libre (TK9P) #28",
      "card_attachment_id_jpg": "64847",
      "card_attachment_id_png": "",
      "card_name": "Electrike",
      "card_number": "28",
      "card_text": "{C} Bite: 10.",
      "flavor_text": "It stores static electricity in its fur for discharging. It gives off sparks if a storm approaches.",
      "pkmn_type[]": [
        "Pok\u00e9mon"
      ],
      "pkmn_artist[]": [
        "Akira Komayama"
      ],
      "pkmn_rarity": "",
      "pkmn_set": "XY Trainer Kit\u2014Pikachu Libre",
      "tcgplayer_id": "-1",
      "sorting_number": "28",
      "release_date_unix": "2016-04-27 12:28:00",
      "pkmn_print_type": "",
      "pkmn_regulation_mark": "",
      "pkmn_format[]": [
        "XY-on (Standard 2016)",
        "BLW-on (Expanded 2016)",
        "PRC-on (Standard 2017)",
        "BLW-on (Expanded 2017)",
        "BKT-on (Standard 2018)",
        "BLW-on (Expanded 2018)",
        "BLW-on (Expanded 2019)",
        "BLW-on (Expanded 2020)",
        "BLW-on (Expanded 2021)",
        "BLW-on (Expanded 2022)"
      ],
      "pkmn_series[]": [
        "XY",
        "Trainer Kits"
      ],
      "pkmn_collection": "",
      "pkmn_language": "",
      "card_prints": "",
      "pkmn_stage": "Basic",
      "pkmn_evolves_into[]": [
        "Manectric",
        "Manectric ex"
      ],
      "pkmn_color[]": [
        "Lightning"
      ],
      "pkmn_hp": "60",
      "pkmn_weakness[]": [
        "Fighting"
      ],
      "pkmn_retreat_cost": "1",
      "pkmn_resistance[]": [
        "Metal"
      ],
      "pkmn_has[]": [
        "Flavor Text"
      ],
      "pkmn_level": "",
      "card_weakness_modifier": "",
      "card_resistance_modifier": ""
    }
  },
  {
    "id": 64812,
    "url": "https://pkmncards.com/card/pikachu-libre-xy-trainer-kit-pikachu-libre-tk9p-30/",
    "set-slug": "xy-trainer-kit-pikachu-libre",
    "data": {
      "post_ID": "64812",
      "post_title": "Pikachu Libre \u00b7 XY Trainer Kit\u2014Pikachu Libre (TK9P) #30",
      "card_attachment_id_jpg": "64813",
      "card_attachment_id_png": "",
      "card_name": "Pikachu Libre",
      "card_number": "30",
      "card_text": "{C}{C} Quick Attack: 10+. Flip a coin. If heads, this attack does 30 more damage.\r\n\r\n{L}{C}{C} Flying Elekick: 50.",
      "flavor_text": "It has small electric sacs on both its cheeks. If threatened, it looses electric charges from the sacs.",
      "pkmn_type[]": [
        "Pok\u00e9mon"
      ],
      "pkmn_artist[]": [
        "Yoshinobu Saito"
      ],
      "pkmn_rarity": "",
      "pkmn_set": "XY Trainer Kit\u2014Pikachu Libre",
      "tcgplayer_id": "-1",
      "sorting_number": "30",
      "release_date_unix": "2016-04-27 12:30:00",
      "pkmn_print_type": "",
      "pkmn_regulation_mark": "",
      "pkmn_format[]": [
        "XY-on (Standard 2016)",
        "BLW-on (Expanded 2016)",
        "PRC-on (Standard 2017)",
        "BLW-on (Expanded 2017)",
        "BKT-on (Standard 2018)",
        "BLW-on (Expanded 2018)",
        "BLW-on (Expanded 2019)",
        "BLW-on (Expanded 2020)",
        "BLW-on (Expanded 2021)",
        "BLW-on (Expanded 2022)"
      ],
      "pkmn_series[]": [
        "XY",
        "Trainer Kits"
      ],
      "pkmn_collection": "",
      "pkmn_language": "",
      "card_prints": "",
      "pkmn_stage": "Basic",
      "pkmn_color[]": [
        "Lightning"
      ],
      "pkmn_hp": "80",
      "pkmn_weakness[]": [
        "Fighting"
      ],
      "pkmn_retreat_cost": "1",
      "pkmn_resistance[]": [
        "Metal"
      ],
      "pkmn_has[]": [
        "Flavor Text"
      ],
      "pkmn_level": "",
      "card_weakness_modifier": "",
      "card_resistance_modifier": ""
    }
  }
]