[
  {
    "id": 11068,
    "url": "https://pkmncards.com/card/pikachu-wizards-black-star-promos-1/",
    "set-slug": "wizards-black-star-promos",
    "data": {
      "post_ID": "11068",
      "post_title": "Pikachu \u00b7 Wizards Black Star Promos #1",
      "card_attachment_id_jpg": "22166",
      "card_attachment_id_png": "",
      "card_name": "Pikachu",
      "card_number": "1",
      "card_text": "{C} Growl: If the Defending Pok\u00e9mon attacks Pikachu during your opponent's next turn, any damage done by the attack is reduced by 10 (after applying Weakness and Resistance). (Benching either Pok\u00e9mon ends this effect.)\r\n\r\n{L}{L} Thundershock: 20 damage. Flip a coin. If heads, the Defending Pok\u00e9mon is now Paralyzed.",
      "flavor_text": "When several of these Pok\u00e9mon gather, their electricity could build and cause lightning storms.",
      "pkmn_type[]": [
        "Pok\u00e9mon"
      ],
      "pkmn_artist[]": [
        "Keiji Kinebuchi"
      ],
      "pkmn_rarity": "Promo",
      "pkmn_set": "Wizards Black Star Promos",
      "tcgplayer_id": "121772",
      "sorting_number": "1",
      "release_date_unix": "1999-07-01 12:01:00",
      "pkmn_print_type": "",
      "pkmn_regulation_mark": "",
      "pkmn_format[]": [
        "BS-on (1999\u20132001)",
        "RO-on (Modified 2002)",
        "Neo-on (Modified 2003)"
      ],
      "pkmn_series[]": [
        "Promos"
      ],
      "pkmn_collection": "",
      "pkmn_language": "",
      "card_prints": "",
      "pkmn_stage": "Basic",
      "pkmn_evolves_into[]": [
        "Raichu",
        "Dark Raichu",
        "Raichu ex",
        "Raichu-GX",
        "Alolan Raichu"
      ],
      "pkmn_color[]": [
        "Lightning"
      ],
      "pkmn_hp": "60",
      "pkmn_weakness[]": [
        "Fighting"
      ],
      "pkmn_retreat_cost": "1",
      "pkmn_has[]": [
        "Flavor Text"
      ],
      "pkmn_level": "",
      "card_weakness_modifier": "",
      "card_resistance_modifier": ""
    }
  },
  {
    "id": 11074,
    "url": "https://pkmncards.com/card/jigglypuff-wizards-black-star-promos-7/",
    "set-slug": "wizards-black-star-promos",
    "data": {
      "post_ID": "11074",
      "post_title": "Jigglypuff \u00b7 Wizards Black Star Promos #7",
      "card_attachment_id_jpg": "22151",
      "card_attachment_id_png": "",
      "card_name": "Jigglypuff",
      "card_number": "7",
      "card_text": "{C} First Aid: Remove 1 damage counter from Jigglypuff.\r\n\r\n{C}{C}{C} Double-edge: 40 damage. Jigglypuff does 20 damage to itself.",
      "flavor_text": "When its huge eyes light up, it sings a mysteriously soothing melody that lulls its enemies to sleep.",
      "pkmn_type[]": [
        "Pok\u00e9mon"
      ],
      "pkmn_artist[]": [
        "Keiji Kinebuchi"
      ],
      "pkmn_rarity": "Promo",
      "pkmn_set": "Wizards Black Star Promos",
      "tcgplayer_id": "86309",
      "sorting_number": "7",
      "release_date_unix": "1999-11-09 12:07:00",
      "pkmn_print_type": "",
      "pkmn_regulation_mark": "",
      "pkmn_format[]": [
        "BS-on (1999\u20132001)",
        "RO-on (Modified 2002)",
        "Neo-on (Modified 2003)"
      ],
      "pkmn_series[]": [
        "Promos"
      ],
      "pkmn_collection": "",
      "pkmn_language": "",
      "card_prints": "",
      "pkmn_stage": "Basic",
      "pkmn_evolves_into[]": [
        "Wigglytuff",
        "Wigglytuff ex",
        "Dark Wigglytuff",
        "Light Wigglytuff",
        "Wigglytuff-GX"
      ],
      "pkmn_color[]": [
        "Colorless"
      ],
      "pkmn_hp": "50",
      "pkmn_weakness[]": [
        "Fighting"
      ],
      "pkmn_retreat_cost": "1",
      "pkmn_resistance[]": [
        "Psychic"
      ],
      "pkmn_has[]": [
        "Flavor Text"
      ],
      "pkmn_level": "",
      "card_weakness_modifier": "",
      "card_resistance_modifier": "-30"
    }
  },
  {
    "id": 11069,
    "url": "https://pkmncards.com/card/electabuzz-wizards-black-star-promos-2/",
    "set-slug": "wizards-black-star-promos",
    "data": {
      "post_ID": "11069",
      "post_title": "Electabuzz \u00b7 Wizards Black Star Promos #2",
      "card_attachment_id_jpg": "22144",
      "card_attachment_id_png": "",
      "card_name": "Electabuzz",
      "card_number": "2",
      "card_text": "{L} Light Screen: Whenever an attack does damage to Electabuzz (after applying Weakness and Resistance) during your opponent's next turn, that attack only does half the damage to Electabuzz (rounded down to the nearest 10). (Any other effects of attacks still happen.)\r\n\r\n{C}{C} Quick Attack: 10+ damage. Flip a coin. If heads, this attack does 10 damage plus 20 more damage; if tails, this attack does 10 damage.",
      "flavor_text": "A wild Pok\u00e9mon with a short temper. It is able to distinguish colors, and likes the color red.",
      "pkmn_type[]": [
        "Pok\u00e9mon"
      ],
      "pkmn_artist[]": [
        "Ken Sugimori"
      ],
      "pkmn_rarity": "Promo",
      "pkmn_set": "Wizards Black Star Promos",
      "tcgplayer_id": "85107",
      "sorting_number": "2",
      "release_date_unix": "1999-11-12 12:02:00",
      "pkmn_print_type": "",
      "pkmn_regulation_mark": "",
      "pkmn_format[]": [
        "BS-on (1999\u20132001)",
        "RO-on (Modified 2002)",
        "Neo-on (Modified 2003)"
      ],
      "pkmn_series[]": [
        "Promos"
      ],
      "pkmn_collection": "",
      "pkmn_language": "",
      "card_prints": "",
      "pkmn_stage": "Basic",
      "pkmn_evolves_into[]": [
        "Electivire"
      ],
      "pkmn_color[]": [
        "Lightning"
      ],
      "pkmn_hp": "60",
      "pkmn_weakness[]": [
        "Fighting"
      ],
      "pkmn_retreat_cost": "2",
      "pkmn_has[]": [
        "Flavor Text"
      ],
      "pkmn_level": "",
      "card_weakness_modifier": "",
      "card_resistance_modifier": ""
    }
  },
  {
    "id": 11070,
    "url": "https://pkmncards.com/card/mewtwo-wizards-black-star-promos-3/",
    "set-slug": "wizards-black-star-promos",
    "data": {
      "post_ID": "11070",
      "post_title": "Mewtwo \u00b7 Wizards Black Star Promos #3",
      "card_attachment_id_jpg": "22160",
      "card_attachment_id_png": "",
      "card_name": "Mewtwo",
      "card_number": "3",
      "card_text": "{P} Energy Absorption: Choose up to 2 Energy cards from your discard pile and attach them to Mewtwo.\r\n\r\n{P}{P}{C} Psyburn: 40 damage.",
      "flavor_text": "Years of genetic experiments resulted in the creation of this never-before-seen violent Pok\u00e9mon.",
      "pkmn_type[]": [
        "Pok\u00e9mon"
      ],
      "pkmn_artist[]": [
        "Ken Sugimori"
      ],
      "pkmn_rarity": "Promo",
      "pkmn_set": "Wizards Black Star Promos",
      "tcgplayer_id": "87414",
      "sorting_number": "3",
      "release_date_unix": "1999-11-12 12:03:00",
      "pkmn_print_type": "",
      "pkmn_regulation_mark": "",
      "pkmn_format[]": [
        "BS-on (1999\u20132001)",
        "RO-on (Modified 2002)",
        "Neo-on (Modified 2003)"
      ],
      "pkmn_series[]": [
        "Promos"
      ],
      "pkmn_collection": "",
      "pkmn_language": "",
      "card_prints": "",
      "pkmn_stage": "Basic",
      "pkmn_evolves_into[]": [
        "Mewtwo LV.X"
      ],
      "pkmn_color[]": [
        "Psychic"
      ],
      "pkmn_hp": "70",
      "pkmn_weakness[]": [
        "Psychic"
      ],
      "pkmn_retreat_cost": "2",
      "pkmn_has[]": [
        "Flavor Text"
      ],
      "pkmn_level": "",
      "card_weakness_modifier": "",
      "card_resistance_modifier": ""
    }
  },
  {
    "id": 11071,
    "url": "https://pkmncards.com/card/pikachu-wizards-black-star-promos-4/",
    "set-slug": "wizards-black-star-promos",
    "data": {
      "post_ID": "11071",
      "post_title": "Pikachu \u00b7 Wizards Black Star Promos #4",
      "card_attachment_id_jpg": "22167",
      "card_attachment_id_png": "",
      "card_name": "Pikachu",
      "card_number": "4",
      "card_text": "{L} Recharge: Search your deck for a {L} Energy card and attach it to Pikachu. Shuffle your deck afterward.\r\n\r\n{L}{L}{L} Thunderbolt: 50 damage. Discard all Energy cards attached to Pikachu in order to use this attack.",
      "flavor_text": "When several of these Pok\u00e9mon gather, they attract so much electricity that they can cause lightning to strike.",
      "pkmn_type[]": [
        "Pok\u00e9mon"
      ],
      "pkmn_artist[]": [
        "Ken Sugimori"
      ],
      "pkmn_rarity": "Promo",
      "pkmn_set": "Wizards Black Star Promos",
      "tcgplayer_id": "88066",
      "sorting_number": "4",
      "release_date_unix": "1999-11-12 12:04:00",
      "pkmn_print_type": "",
      "pkmn_regulation_mark": "",
      "pkmn_format[]": [
        "BS-on (1999\u20132001)",
        "RO-on (Modified 2002)",
        "Neo-on (Modified 2003)"
      ],
      "pkmn_series[]": [
        "Promos"
      ],
      "pkmn_collection": "",
      "pkmn_language": "",
      "card_prints": "",
      "pkmn_stage": "Basic",
      "pkmn_evolves_into[]": [
        "Raichu",
        "Dark Raichu",
        "Raichu ex",
        "Raichu-GX",
        "Alolan Raichu"
      ],
      "pkmn_color[]": [
        "Lightning"
      ],
      "pkmn_hp": "50",
      "pkmn_weakness[]": [
        "Fighting"
      ],
      "pkmn_retreat_cost": "1",
      "pkmn_has[]": [
        "Flavor Text"
      ],
      "pkmn_level": "",
      "card_weakness_modifier": "",
      "card_resistance_modifier": ""
    }
  },
  {
    "id": 11072,
    "url": "https://pkmncards.com/card/dragonite-wizards-black-star-promos-5/",
    "set-slug": "wizards-black-star-promos",
    "data": {
      "post_ID": "11072",
      "post_title": "Dragonite \u00b7 Wizards Black Star Promos #5",
      "card_attachment_id_jpg": "22142",
      "card_attachment_id_png": "",
      "card_name": "Dragonite",
      "card_number": "5",
      "card_text": "Pok\u00e9mon Power: Special Delivery\r\nOnce during your turn (before your attack), you may draw a card. If you do, choose a card from your hand and put it on top of your deck. This power can't be used if Dragonite is Asleep, Confused, or Paralyzed.\r\n\r\n{C}{C}{C} Supersonic Flight: 60 damage. Flip a coin. If tails, this attack does nothing.",
      "flavor_text": "This Pok\u00e9mon can fly is spite of its large bulk. It is said to be able to circumnavigate the earth in just 16 hours.",
      "pkmn_type[]": [
        "Pok\u00e9mon"
      ],
      "pkmn_artist[]": [
        "Toshinao Aoki"
      ],
      "pkmn_rarity": "Promo",
      "pkmn_set": "Wizards Black Star Promos",
      "tcgplayer_id": "84909",
      "sorting_number": "5",
      "release_date_unix": "1999-11-12 12:05:00",
      "pkmn_print_type": "",
      "pkmn_regulation_mark": "",
      "pkmn_format[]": [
        "BS-on (1999\u20132001)",
        "RO-on (Modified 2002)",
        "Neo-on (Modified 2003)"
      ],
      "pkmn_series[]": [
        "Promos"
      ],
      "pkmn_collection": "",
      "pkmn_language": "",
      "card_prints": "",
      "pkmn_stage": "Stage 2",
      "pkmn_evolves_from[]": [
        "Dragonair"
      ],
      "pkmn_color[]": [
        "Colorless"
      ],
      "pkmn_hp": "90",
      "pkmn_retreat_cost": "2",
      "pkmn_resistance[]": [
        "Fighting"
      ],
      "pkmn_has[]": [
        "Pok\u00e9mon Power",
        "Flavor Text"
      ],
      "pkmn_level": "",
      "card_weakness_modifier": "",
      "card_resistance_modifier": "-30"
    }
  },
  {
    "id": 11075,
    "url": "https://pkmncards.com/card/mew-wizards-black-star-promos-8/",
    "set-slug": "wizards-black-star-promos",
    "data": {
      "post_ID": "11075",
      "post_title": "Mew \u00b7 Wizards Black Star Promos #8",
      "card_attachment_id_jpg": "22157",
      "card_attachment_id_png": "",
      "card_name": "Mew",
      "card_number": "8",
      "card_text": "{P} Psywave: 10x damage. Does 10 damage times the number of Energy cards attached to the Defending Pok\u00e9mon.\r\n\r\n{P}{P} Devolution Beam: Choose an evolved Pok\u00e9mon <em>(your own or your opponent's)</em>. Return the highest Stage Evolution card on that Pok\u00e9mon to its player's hand. That Pok\u00e9mon is no longer Asleep, Confused, Paralyzed, or Poisoned, or anything else that might be the result of an attack (just as if you had evolved it).",
      "flavor_text": "So rare that it is still said to be a mirage by many experts. Only a few people have seen it worldwide.",
      "pkmn_type[]": [
        "Pok\u00e9mon"
      ],
      "pkmn_artist[]": [
        "Ken Sugimori"
      ],
      "pkmn_rarity": "Promo",
      "pkmn_set": "Wizards Black Star Promos",
      "tcgplayer_id": "87394",
      "sorting_number": "8",
      "release_date_unix": "2000-01-08 12:08:00",
      "pkmn_print_type": "",
      "pkmn_regulation_mark": "",
      "pkmn_format[]": [
        "BS-on (1999\u20132001)",
        "RO-on (Modified 2002)",
        "Neo-on (Modified 2003)"
      ],
      "pkmn_series[]": [
        "Promos"
      ],
      "pkmn_collection": "",
      "pkmn_language": "",
      "card_prints": "",
      "pkmn_stage": "Basic",
      "pkmn_color[]": [
        "Psychic"
      ],
      "pkmn_hp": "50",
      "pkmn_weakness[]": [
        "Psychic"
      ],
      "pkmn_retreat_cost": "1",
      "pkmn_has[]": [
        "Flavor Text"
      ],
      "pkmn_level": "",
      "card_weakness_modifier": "",
      "card_resistance_modifier": ""
    }
  },
  {
    "id": 11073,
    "url": "https://pkmncards.com/card/arcanine-wizards-black-star-promos-6/",
    "set-slug": "wizards-black-star-promos",
    "data": {
      "post_ID": "11073",
      "post_title": "Arcanine \u00b7 Wizards Black Star Promos #6",
      "card_attachment_id_jpg": "22133",
      "card_attachment_id_png": "",
      "card_name": "Arcanine",
      "card_number": "6",
      "card_text": "{C}{C} Quick Attack: 10+ damage. Flip a coin. If heads, this attack does 10 damage plus 20 more damage; if tails, this attack does 10 damage.\r\n\r\n{R}{R} Flames of Rage: 40+ damage. Discard 2 {R} Energy cards attached to Arcanine in order to use this attack. This attack does 40 damage plus 10 more damage for each damage counter on Arcanine.",
      "flavor_text": "A legendary Pok\u00e9mon famous for its beauty. It looks almost as if it flies when it runs.",
      "pkmn_type[]": [
        "Pok\u00e9mon"
      ],
      "pkmn_artist[]": [
        "Ken Sugimori"
      ],
      "pkmn_rarity": "Promo",
      "pkmn_set": "Wizards Black Star Promos",
      "tcgplayer_id": "83578",
      "sorting_number": "6",
      "release_date_unix": "2000-03-01 12:06:00",
      "pkmn_print_type": "",
      "pkmn_regulation_mark": "",
      "pkmn_format[]": [
        "BS-on (1999\u20132001)",
        "RO-on (Modified 2002)",
        "Neo-on (Modified 2003)"
      ],
      "pkmn_series[]": [
        "Promos"
      ],
      "pkmn_collection": "",
      "pkmn_language": "",
      "card_prints": "",
      "pkmn_stage": "Stage 1",
      "pkmn_evolves_from[]": [
        "Growlithe"
      ],
      "pkmn_evolves_into[]": [
        "Arcanine BREAK"
      ],
      "pkmn_color[]": [
        "Fire"
      ],
      "pkmn_hp": "70",
      "pkmn_weakness[]": [
        "Water"
      ],
      "pkmn_retreat_cost": "1",
      "pkmn_has[]": [
        "Flavor Text"
      ],
      "pkmn_level": "",
      "card_weakness_modifier": "",
      "card_resistance_modifier": ""
    }
  },
  {
    "id": 11082,
    "url": "https://pkmncards.com/card/cool-porygon-wizards-black-star-promos-15/",
    "set-slug": "wizards-black-star-promos",
    "data": {
      "post_ID": "11082",
      "post_title": "Cool Porygon \u00b7 Wizards Black Star Promos #15",
      "card_attachment_id_jpg": "22140",
      "card_attachment_id_png": "",
      "card_name": "Cool Porygon",
      "card_number": "15",
      "card_text": "{C}{C}{C} Texture Magic: You may change Cool Porygon's Resistance to a type of your choice other than Colorless. If the Defending Pok\u00e9mon has a Weakness, you may change it to a type of your choice other than Colorless. <em>(Benching either Pok\u00e9mon ends the effect on that Pok\u00e9mon.)</em>\r\n\r\n{C}{C}{C} 3-D Attack: 20x damage. Flip 3 coins. This attack does 20 damage times the number of heads.",
      "flavor_text": "A Pok\u00e9mon that consists entirely of programming code. Capable of moving freely in cyberspace.",
      "pkmn_type[]": [
        "Pok\u00e9mon"
      ],
      "pkmn_artist[]": [
        "Hiromichi Sugiyama"
      ],
      "pkmn_rarity": "Promo",
      "pkmn_set": "Wizards Black Star Promos",
      "tcgplayer_id": "84422",
      "sorting_number": "15",
      "release_date_unix": "2000-03-06 12:15:00",
      "pkmn_print_type": "",
      "pkmn_regulation_mark": "",
      "pkmn_format[]": [
        "BS-on (1999\u20132001)",
        "RO-on (Modified 2002)",
        "Neo-on (Modified 2003)"
      ],
      "pkmn_series[]": [
        "Promos"
      ],
      "pkmn_collection": "",
      "pkmn_language": "",
      "card_prints": "",
      "pkmn_stage": "Basic",
      "pkmn_color[]": [
        "Colorless"
      ],
      "pkmn_hp": "50",
      "pkmn_weakness[]": [
        "Fighting"
      ],
      "pkmn_retreat_cost": "1",
      "pkmn_resistance[]": [
        "Psychic"
      ],
      "pkmn_is[]": [
        "Cool"
      ],
      "pkmn_has[]": [
        "Flavor Text"
      ],
      "pkmn_level": "",
      "card_weakness_modifier": "",
      "card_resistance_modifier": "-30"
    }
  },
  {
    "id": 11081,
    "url": "https://pkmncards.com/card/mewtwo-wizards-black-star-promos-14/",
    "set-slug": "wizards-black-star-promos",
    "data": {
      "post_ID": "11081",
      "post_title": "Mewtwo \u00b7 Wizards Black Star Promos #14",
      "card_attachment_id_jpg": "22162",
      "card_attachment_id_png": "",
      "card_name": "Mewtwo",
      "card_number": "14",
      "card_text": "{P} Energy Absorption: Choose up to 2 Energy cards from your discard pile and attach them to Mewtwo.\r\n\r\n{P}{P}{C} Psyburn: 40 damage.",
      "flavor_text": "Years of genetic experiments resulted in the creation of this never-before-seen violent Pok\u00e9mon.",
      "pkmn_type[]": [
        "Pok\u00e9mon"
      ],
      "pkmn_artist[]": [
        "Benimaru Itoh"
      ],
      "pkmn_rarity": "Promo",
      "pkmn_set": "Wizards Black Star Promos",
      "tcgplayer_id": "87417",
      "sorting_number": "14",
      "release_date_unix": "2000-03-21 12:14:00",
      "pkmn_print_type": "",
      "pkmn_regulation_mark": "",
      "pkmn_format[]": [
        "BS-on (1999\u20132001)",
        "RO-on (Modified 2002)",
        "Neo-on (Modified 2003)"
      ],
      "pkmn_series[]": [
        "Promos"
      ],
      "pkmn_collection": "",
      "pkmn_language": "",
      "card_prints": "",
      "pkmn_stage": "Basic",
      "pkmn_evolves_into[]": [
        "Mewtwo LV.X"
      ],
      "pkmn_color[]": [
        "Psychic"
      ],
      "pkmn_hp": "70",
      "pkmn_weakness[]": [
        "Psychic"
      ],
      "pkmn_retreat_cost": "2",
      "pkmn_has[]": [
        "Flavor Text"
      ],
      "pkmn_level": "",
      "card_weakness_modifier": "",
      "card_resistance_modifier": ""
    }
  },
  {
    "id": 11076,
    "url": "https://pkmncards.com/card/mew-wizards-black-star-promos-9/",
    "set-slug": "wizards-black-star-promos",
    "data": {
      "post_ID": "11076",
      "post_title": "Mew \u00b7 Wizards Black Star Promos #9",
      "card_attachment_id_jpg": "22158",
      "card_attachment_id_png": "",
      "card_name": "Mew",
      "card_number": "9",
      "card_text": "{P} Psywave: 10x damage. Does 10 damage times the number of Energy cards attached to the Defending Pok\u00e9mon.\r\n\r\n{P}{P} Devolution Beam: Choose an evolved Pok\u00e9mon <em>(your own or your opponent's)</em>. Return the highest Stage Evolution card on that Pok\u00e9mon to its player's hand. That Pok\u00e9mon is no longer Asleep, Confused, Paralyzed, or Poisoned, or anything else that might be the result of an attack (just as if you had evolved it).",
      "flavor_text": "So rare that it is still said to be a mirage by many experts. Only a few people have seen it worldwide.",
      "pkmn_type[]": [
        "Pok\u00e9mon"
      ],
      "pkmn_artist[]": [
        "Ken Sugimori"
      ],
      "pkmn_rarity": "Promo",
      "pkmn_set": "Wizards Black Star Promos",
      "tcgplayer_id": "87395",
      "sorting_number": "9",
      "release_date_unix": "2000-04-01 12:09:00",
      "pkmn_print_type": "",
      "pkmn_regulation_mark": "",
      "pkmn_format[]": [
        "BS-on (1999\u20132001)",
        "RO-on (Modified 2002)",
        "Neo-on (Modified 2003)"
      ],
      "pkmn_series[]": [
        "Promos"
      ],
      "pkmn_collection": "",
      "pkmn_language": "",
      "card_prints": "",
      "pkmn_stage": "Basic",
      "pkmn_color[]": [
        "Psychic"
      ],
      "pkmn_hp": "50",
      "pkmn_weakness[]": [
        "Psychic"
      ],
      "pkmn_retreat_cost": "1",
      "pkmn_has[]": [
        "Flavor Text"
      ],
      "pkmn_level": "",
      "card_weakness_modifier": "",
      "card_resistance_modifier": ""
    }
  },
  {
    "id": 11079,
    "url": "https://pkmncards.com/card/mewtwo-wizards-black-star-promos-12/",
    "set-slug": "wizards-black-star-promos",
    "data": {
      "post_ID": "11079",
      "post_title": "Mewtwo \u00b7 Wizards Black Star Promos #12",
      "card_attachment_id_jpg": "22161",
      "card_attachment_id_png": "",
      "card_name": "Mewtwo",
      "card_number": "12",
      "card_text": "{P} Energy Control: Flip a coin. If heads, choose a basic Energy card attached to 1 of your opponent's Pok\u00e9mon and attach it to another of your opponent's Pok\u00e9mon of your choice.\r\n\r\n{P}{P}{P} Telekinesis: Choose 1 of your opponent's Pok\u00e9mon. This attack does 30 damage to that Pok\u00e9mon. Don't apply Weakness and Resistance for this attack. (Any other effects that would happen after applying Weakness and Resistance still happen.)",
      "flavor_text": "A scientist created this Pok\u00e9mon after years of horrific gene-splicing and DNA engineering experiments.",
      "pkmn_type[]": [
        "Pok\u00e9mon"
      ],
      "pkmn_artist[]": [
        "Christopher Rush"
      ],
      "pkmn_rarity": "Promo",
      "pkmn_set": "Wizards Black Star Promos",
      "tcgplayer_id": "87416",
      "sorting_number": "12",
      "release_date_unix": "2000-04-01 12:12:00",
      "pkmn_print_type": "",
      "pkmn_regulation_mark": "",
      "pkmn_format[]": [
        "BS-on (1999\u20132001)",
        "RO-on (Modified 2002)",
        "Neo-on (Modified 2003)"
      ],
      "pkmn_series[]": [
        "Promos"
      ],
      "pkmn_collection": "",
      "pkmn_language": "",
      "card_prints": "",
      "pkmn_stage": "Basic",
      "pkmn_evolves_into[]": [
        "Mewtwo LV.X"
      ],
      "pkmn_color[]": [
        "Psychic"
      ],
      "pkmn_hp": "60",
      "pkmn_weakness[]": [
        "Psychic"
      ],
      "pkmn_retreat_cost": "2",
      "pkmn_has[]": [
        "Flavor Text"
      ],
      "pkmn_level": "",
      "card_weakness_modifier": "",
      "card_resistance_modifier": ""
    }
  },
  {
    "id": 11077,
    "url": "https://pkmncards.com/card/meowth-wizards-black-star-promos-10/",
    "set-slug": "wizards-black-star-promos",
    "data": {
      "post_ID": "11077",
      "post_title": "Meowth \u00b7 Wizards Black Star Promos #10",
      "card_attachment_id_jpg": "22156",
      "card_attachment_id_png": "",
      "card_name": "Meowth",
      "card_number": "10",
      "card_text": "{C}{C} Cat Punch: Flip a coin. If heads, this attack does 20 damage. If tails and if your opponent has any Benched Pok\u00e9mon, he or she chooses 1 of them and this attack does 20 damage to it. (Don't apply Weakness and Resistance for Benched Pok\u00e9mon.)",
      "flavor_text": "Adores circular objects. Wanders the streets on a nightly basis to look for dropped loose change.",
      "pkmn_type[]": [
        "Pok\u00e9mon"
      ],
      "pkmn_artist[]": [
        "Kagemaru Himeno"
      ],
      "pkmn_rarity": "Promo",
      "pkmn_set": "Wizards Black Star Promos",
      "tcgplayer_id": "87309",
      "sorting_number": "10",
      "release_date_unix": "2000-04-10 12:10:00",
      "pkmn_print_type": "",
      "pkmn_regulation_mark": "",
      "pkmn_format[]": [
        "BS-on (1999\u20132001)",
        "RO-on (Modified 2002)",
        "Neo-on (Modified 2003)"
      ],
      "pkmn_series[]": [
        "Promos"
      ],
      "pkmn_collection": "",
      "pkmn_language": "",
      "card_prints": "",
      "pkmn_stage": "Basic",
      "pkmn_evolves_into[]": [
        "Persian",
        "Dark Persian",
        "Persian-GX"
      ],
      "pkmn_color[]": [
        "Colorless"
      ],
      "pkmn_hp": "50",
      "pkmn_weakness[]": [
        "Fighting"
      ],
      "pkmn_retreat_cost": "1",
      "pkmn_resistance[]": [
        "Psychic"
      ],
      "pkmn_has[]": [
        "Flavor Text"
      ],
      "pkmn_level": "",
      "card_weakness_modifier": "",
      "card_resistance_modifier": "-30"
    }
  },
  {
    "id": 11080,
    "url": "https://pkmncards.com/card/venusaur-wizards-black-star-promos-13/",
    "set-slug": "wizards-black-star-promos",
    "data": {
      "post_ID": "11080",
      "post_title": "Venusaur \u00b7 Wizards Black Star Promos #13",
      "card_attachment_id_jpg": "22184",
      "card_attachment_id_png": "",
      "card_name": "Venusaur",
      "card_number": "13",
      "card_text": "Pok\u00e9mon Power: Solar Power\r\nOnce during your turn (before your attack), you may use this power. Your Active Pok\u00e9mon and the Defending Pok\u00e9mon are no longer Asleep, Confused, Paralyzed, or Poisoned. This power can't be used if Venusaur is Asleep, Confused, or Paralyzed.\r\n\r\n{G}{G}{G}{G} Mega Drain: 40 damage. Remove a number of damage counters from Venusaur equal to half the damage done to the Defending Pok\u00e9mon (after applying Weakness and Resistance) (rounded up to the nearest 10). If Venusaur has fewer damage counters than that, remove all of them.",
      "flavor_text": "This plant blooms when it is absorbing solar energy. It stays on the move to seek sunlight.",
      "pkmn_type[]": [
        "Pok\u00e9mon"
      ],
      "pkmn_artist[]": [
        "Ken Sugimori"
      ],
      "pkmn_rarity": "Promo",
      "pkmn_set": "Wizards Black Star Promos",
      "tcgplayer_id": "90311",
      "sorting_number": "13",
      "release_date_unix": "2000-04-28 12:13:00",
      "pkmn_print_type": "",
      "pkmn_regulation_mark": "",
      "pkmn_format[]": [
        "BS-on (1999\u20132001)",
        "RO-on (Modified 2002)",
        "Neo-on (Modified 2003)"
      ],
      "pkmn_series[]": [
        "Promos"
      ],
      "pkmn_collection": "",
      "pkmn_language": "",
      "card_prints": "",
      "pkmn_stage": "Stage 2",
      "pkmn_evolves_from[]": [
        "Ivysaur"
      ],
      "pkmn_color[]": [
        "Grass"
      ],
      "pkmn_hp": "100",
      "pkmn_weakness[]": [
        "Fire"
      ],
      "pkmn_retreat_cost": "2",
      "pkmn_has[]": [
        "Pok\u00e9mon Power",
        "Flavor Text"
      ],
      "pkmn_level": "",
      "card_weakness_modifier": "",
      "card_resistance_modifier": ""
    }
  },
  {
    "id": 11083,
    "url": "https://pkmncards.com/card/computer-error-wizards-black-star-promos-16/",
    "set-slug": "wizards-black-star-promos",
    "data": {
      "post_ID": "11083",
      "post_title": "Computer Error \u00b7 Wizards Black Star Promos #16",
      "card_attachment_id_jpg": "22139",
      "card_attachment_id_png": "",
      "card_name": "Computer Error",
      "card_number": "16",
      "card_text": "You may draw up to 5 cards, then your opponent may draw up to 5 cards. Your turn is over now (you don't get to attack).",
      "flavor_text": "",
      "pkmn_type[]": [
        "Trainer",
        "- Rocket's Secret Machine"
      ],
      "pkmn_artist[]": [
        "Sumiyoshi Kizuki"
      ],
      "pkmn_rarity": "Promo",
      "pkmn_set": "Wizards Black Star Promos",
      "tcgplayer_id": "84414",
      "sorting_number": "16",
      "release_date_unix": "2000-05-01 12:16:00",
      "pkmn_print_type": "",
      "pkmn_regulation_mark": "",
      "pkmn_format[]": [
        "BS-on (1999\u20132001)",
        "RO-on (Modified 2002)",
        "Neo-on (Modified 2003)"
      ],
      "pkmn_series[]": [
        "Promos"
      ],
      "pkmn_collection": "",
      "pkmn_language": "",
      "card_prints": "",
      "pkmn_stage": "",
      "pkmn_hp": "",
      "pkmn_retreat_cost": "",
      "pkmn_level": "",
      "card_weakness_modifier": "",
      "card_resistance_modifier": ""
    }
  },
  {
    "id": 11078,
    "url": "https://pkmncards.com/card/eevee-wizards-black-star-promos-11/",
    "set-slug": "wizards-black-star-promos",
    "data": {
      "post_ID": "11078",
      "post_title": "Eevee \u00b7 Wizards Black Star Promos #11",
      "card_attachment_id_jpg": "22143",
      "card_attachment_id_png": "",
      "card_name": "Eevee",
      "card_number": "11",
      "card_text": "Pok\u00e9mon Power: Chain Reaction\r\nThis power can only be used when a Pok\u00e9mon evolves. Search your deck for a card that evolves from Eevee and attach it to Eevee. This counts as evolving Eevee. Shuffle your deck afterward. This power can't be used if Eevee is Asleep, Confused, or Paralyzed.\r\n\r\n{C} Bite: 20 damage.",
      "flavor_text": "Its genetic code is irregular. It may mutate if it is exposed to radiation from elemental stones.",
      "pkmn_type[]": [
        "Pok\u00e9mon"
      ],
      "pkmn_artist[]": [
        "Kagemaru Himeno"
      ],
      "pkmn_rarity": "Promo",
      "pkmn_set": "Wizards Black Star Promos",
      "tcgplayer_id": "85074",
      "sorting_number": "11",
      "release_date_unix": "2000-06-01 12:11:00",
      "pkmn_print_type": "",
      "pkmn_regulation_mark": "",
      "pkmn_format[]": [
        "BS-on (1999\u20132001)",
        "RO-on (Modified 2002)",
        "Neo-on (Modified 2003)"
      ],
      "pkmn_series[]": [
        "Promos"
      ],
      "pkmn_collection": "",
      "pkmn_language": "",
      "card_prints": "",
      "pkmn_stage": "Basic",
      "pkmn_evolves_into[]": [
        "Espeon",
        "Flareon",
        "Jolteon",
        "Leafeon",
        "Umbreon",
        "Vaporeon",
        "Dark Flareon",
        "Dark Jolteon",
        "Dark Vaporeon",
        "Glaceon",
        "Flareon ex",
        "Jolteon ex",
        "Vaporeon ex",
        "Espeon ex",
        "Umbreon ex",
        "Dark Espeon",
        "Light Flareon",
        "Light Jolteon",
        "Light Vaporeon",
        "Sylveon",
        "Espeon-GX",
        "Umbreon-GX",
        "Sylveon-GX",
        "Leafeon-GX",
        "Glaceon-GX",
        "Flareon-GX",
        "Vaporeon-GX",
        "Jolteon-GX"
      ],
      "pkmn_color[]": [
        "Colorless"
      ],
      "pkmn_hp": "30",
      "pkmn_weakness[]": [
        "Fighting"
      ],
      "pkmn_retreat_cost": "0",
      "pkmn_resistance[]": [
        "Psychic"
      ],
      "pkmn_has[]": [
        "Pok\u00e9mon Power",
        "Flavor Text"
      ],
      "pkmn_level": "",
      "card_weakness_modifier": "",
      "card_resistance_modifier": "-30"
    }
  },
  {
    "id": 11088,
    "url": "https://pkmncards.com/card/moltres-wizards-black-star-promos-21/",
    "set-slug": "wizards-black-star-promos",
    "data": {
      "post_ID": "11088",
      "post_title": "Moltres \u00b7 Wizards Black Star Promos #21",
      "card_attachment_id_jpg": "22164",
      "card_attachment_id_png": "",
      "card_name": "Moltres",
      "card_number": "21",
      "card_text": "{R}{R}{R} Hyper Flame: 60 damage. Flip a coin. If heads, discard 1 {R} Energy card attached to Moltres. If tails, discard all Energy cards attached to Moltres. If you can't discard Energy cards, this attack does nothing.",
      "flavor_text": "The flames on this legendary Pok\u00e9mon's wings burn so brightly that they can make night seem like day.",
      "pkmn_type[]": [
        "Pok\u00e9mon"
      ],
      "pkmn_artist[]": [
        "Naoyo Kimura"
      ],
      "pkmn_rarity": "Promo",
      "pkmn_set": "Wizards Black Star Promos",
      "tcgplayer_id": "87557",
      "sorting_number": "21",
      "release_date_unix": "2000-07-21 12:21:00",
      "pkmn_print_type": "",
      "pkmn_regulation_mark": "",
      "pkmn_format[]": [
        "BS-on (1999\u20132001)",
        "RO-on (Modified 2002)",
        "Neo-on (Modified 2003)"
      ],
      "pkmn_series[]": [
        "Promos"
      ],
      "pkmn_collection": "",
      "pkmn_language": "",
      "card_prints": "",
      "pkmn_stage": "Basic",
      "pkmn_color[]": [
        "Fire"
      ],
      "pkmn_hp": "70",
      "pkmn_retreat_cost": "1",
      "pkmn_resistance[]": [
        "Fighting"
      ],
      "pkmn_has[]": [
        "Flavor Text"
      ],
      "pkmn_level": "",
      "card_weakness_modifier": "",
      "card_resistance_modifier": "-30"
    }
  },
  {
    "id": 11089,
    "url": "https://pkmncards.com/card/articuno-wizards-black-star-promos-22/",
    "set-slug": "wizards-black-star-promos",
    "data": {
      "post_ID": "11089",
      "post_title": "Articuno \u00b7 Wizards Black Star Promos #22",
      "card_attachment_id_jpg": "22134",
      "card_attachment_id_png": "",
      "card_name": "Articuno",
      "card_number": "22",
      "card_text": "{W}{W}{W} Diamond Dust: 20 damage. Flip a coin. If heads, the Defending Pok\u00e9mon is now Paralyzed and this attack does 10 damage to each of your opponent's Benched Pok\u00e9mon. (Don't apply Weakness and Resistance for Benched Pok\u00e9mon.)",
      "flavor_text": "This legendary Pok\u00e9mon is said to freeze the water in the air during winter, causing snow.",
      "pkmn_type[]": [
        "Pok\u00e9mon"
      ],
      "pkmn_artist[]": [
        "Naoyo Kimura"
      ],
      "pkmn_rarity": "Promo",
      "pkmn_set": "Wizards Black Star Promos",
      "tcgplayer_id": "83647",
      "sorting_number": "22",
      "release_date_unix": "2000-07-21 12:22:00",
      "pkmn_print_type": "",
      "pkmn_regulation_mark": "",
      "pkmn_format[]": [
        "BS-on (1999\u20132001)",
        "RO-on (Modified 2002)",
        "Neo-on (Modified 2003)"
      ],
      "pkmn_series[]": [
        "Promos"
      ],
      "pkmn_collection": "",
      "pkmn_language": "",
      "card_prints": "",
      "pkmn_stage": "Basic",
      "pkmn_color[]": [
        "Water"
      ],
      "pkmn_hp": "70",
      "pkmn_retreat_cost": "1",
      "pkmn_resistance[]": [
        "Fighting"
      ],
      "pkmn_has[]": [
        "Flavor Text"
      ],
      "pkmn_level": "",
      "card_weakness_modifier": "",
      "card_resistance_modifier": "-30"
    }
  },
  {
    "id": 11090,
    "url": "https://pkmncards.com/card/zapdos-wizards-black-star-promos-23/",
    "set-slug": "wizards-black-star-promos",
    "data": {
      "post_ID": "11090",
      "post_title": "Zapdos \u00b7 Wizards Black Star Promos #23",
      "card_attachment_id_jpg": "22185",
      "card_attachment_id_png": "",
      "card_name": "Zapdos",
      "card_number": "23",
      "card_text": "{L}{L}{L} Lightning Burn: 30 damage. Flip a coin. If heads, and if your opponent has any Benched Pok\u00e9mon, choose 1 of them. This attack does 30 damage to that Pok\u00e9mon. (Don't apply Weakness and Resistance for Benched Pok\u00e9mon.) If tails, Zapdos does 30 damage to itself.",
      "flavor_text": "This legendary Pok\u00e9mon is said to be present wherever there is a lightning storm.",
      "pkmn_type[]": [
        "Pok\u00e9mon"
      ],
      "pkmn_artist[]": [
        "Naoyo Kimura"
      ],
      "pkmn_rarity": "Promo",
      "pkmn_set": "Wizards Black Star Promos",
      "tcgplayer_id": "90713",
      "sorting_number": "23",
      "release_date_unix": "2000-07-21 12:23:00",
      "pkmn_print_type": "",
      "pkmn_regulation_mark": "",
      "pkmn_format[]": [
        "BS-on (1999\u20132001)",
        "RO-on (Modified 2002)",
        "Neo-on (Modified 2003)"
      ],
      "pkmn_series[]": [
        "Promos"
      ],
      "pkmn_collection": "",
      "pkmn_language": "",
      "card_prints": "",
      "pkmn_stage": "Basic",
      "pkmn_color[]": [
        "Lightning"
      ],
      "pkmn_hp": "70",
      "pkmn_retreat_cost": "1",
      "pkmn_resistance[]": [
        "Fighting"
      ],
      "pkmn_has[]": [
        "Flavor Text"
      ],
      "pkmn_level": "",
      "card_weakness_modifier": "",
      "card_resistance_modifier": "-30"
    }
  },
  {
    "id": 11084,
    "url": "https://pkmncards.com/card/dark-persian-wizards-black-star-promos-17/",
    "set-slug": "wizards-black-star-promos",
    "data": {
      "post_ID": "11084",
      "post_title": "Dark Persian \u00b7 Wizards Black Star Promos #17",
      "card_attachment_id_jpg": "22141",
      "card_attachment_id_png": "",
      "card_name": "Dark Persian",
      "card_number": "17",
      "card_text": "{C} Tempt: If your opponent has any Benched Pok\u00e9mon, flip a coin. If heads, choose 1 of your opponent's Benched Pok\u00e9mon and switch it with the Defending Pok\u00e9mon.\r\n\r\n{C}{C} Poison Claws: 10 damage. Flip a coin. if heads, the Defending Pok\u00e9mon is now Poisoned.",
      "flavor_text": "Popular with women because of its beautiful fur. The leader of the Rockets keeps one as a pet.",
      "pkmn_type[]": [
        "Pok\u00e9mon"
      ],
      "pkmn_artist[]": [
        "Ken Sugimori"
      ],
      "pkmn_rarity": "Promo",
      "pkmn_set": "Wizards Black Star Promos",
      "tcgplayer_id": "84638",
      "sorting_number": "17",
      "release_date_unix": "2000-08-01 12:17:00",
      "pkmn_print_type": "",
      "pkmn_regulation_mark": "",
      "pkmn_format[]": [
        "BS-on (1999\u20132001)",
        "RO-on (Modified 2002)",
        "Neo-on (Modified 2003)"
      ],
      "pkmn_series[]": [
        "Promos"
      ],
      "pkmn_collection": "",
      "pkmn_language": "",
      "card_prints": "",
      "pkmn_stage": "Stage 1",
      "pkmn_evolves_from[]": [
        "Meowth"
      ],
      "pkmn_color[]": [
        "Colorless"
      ],
      "pkmn_hp": "60",
      "pkmn_weakness[]": [
        "Fighting"
      ],
      "pkmn_retreat_cost": "0",
      "pkmn_resistance[]": [
        "Psychic"
      ],
      "pkmn_is[]": [
        "Dark"
      ],
      "pkmn_has[]": [
        "Flavor Text"
      ],
      "pkmn_level": "",
      "card_weakness_modifier": "",
      "card_resistance_modifier": "-30"
    }
  },
  {
    "id": 11085,
    "url": "https://pkmncards.com/card/team-rockets-meowth-wizards-black-star-promos-18/",
    "set-slug": "wizards-black-star-promos",
    "data": {
      "post_ID": "11085",
      "post_title": "Team Rocket's Meowth \u00b7 Wizards Black Star Promos #18",
      "card_attachment_id_jpg": "22181",
      "card_attachment_id_png": "",
      "card_name": "Team Rocket's Meowth",
      "card_number": "18",
      "card_text": "{C} Miraculous Comeback: Flip a number of coins equal to the number of Pok\u00e9mon in play. This attack does 10 damage times the number of heads. Then Team Rocket's Meowth does 10 damage times the number of tails to itself.",
      "flavor_text": "This Pok\u00e9mon is more active at night. It likes bright, shiny things and cannot resist taking them and adding them to its collection.",
      "pkmn_type[]": [
        "Pok\u00e9mon"
      ],
      "pkmn_artist[]": [
        "Kunihiko Yuyama"
      ],
      "pkmn_rarity": "Promo",
      "pkmn_set": "Wizards Black Star Promos",
      "tcgplayer_id": "89851",
      "sorting_number": "18",
      "release_date_unix": "2000-08-01 12:18:00",
      "pkmn_print_type": "",
      "pkmn_regulation_mark": "",
      "pkmn_format[]": [
        "BS-on (1999\u20132001)",
        "RO-on (Modified 2002)",
        "Neo-on (Modified 2003)"
      ],
      "pkmn_series[]": [
        "Promos"
      ],
      "pkmn_collection": "",
      "pkmn_language": "",
      "card_prints": "",
      "pkmn_stage": "Basic",
      "pkmn_color[]": [
        "Colorless"
      ],
      "pkmn_hp": "40",
      "pkmn_weakness[]": [
        "Fighting"
      ],
      "pkmn_retreat_cost": "1",
      "pkmn_resistance[]": [
        "Psychic"
      ],
      "pkmn_is[]": [
        "Team Rocket's"
      ],
      "pkmn_has[]": [
        "Flavor Text"
      ],
      "pkmn_level": "",
      "card_weakness_modifier": "",
      "card_resistance_modifier": "-30"
    }
  },
  {
    "id": 11087,
    "url": "https://pkmncards.com/card/psyduck-wizards-black-star-promos-20/",
    "set-slug": "wizards-black-star-promos",
    "data": {
      "post_ID": "11087",
      "post_title": "Psyduck \u00b7 Wizards Black Star Promos #20",
      "card_attachment_id_jpg": "22172",
      "card_attachment_id_png": "",
      "card_name": "Psyduck",
      "card_number": "20",
      "card_text": "{P} Headache. Your opponent can't play Trainer cards during his or her next turn.\r\n\r\n{W} Fury Swipes: 10x damage. Flip 3 coins. This attack does 10 damage times the number of heads.",
      "flavor_text": "While lulling its enemies with its vacant look, this wily Pok\u00e9mon will use psychokinetic powers.",
      "pkmn_type[]": [
        "Pok\u00e9mon"
      ],
      "pkmn_artist[]": [
        "Kagemaru Himeno"
      ],
      "pkmn_rarity": "Promo",
      "pkmn_set": "Wizards Black Star Promos",
      "tcgplayer_id": "88429",
      "sorting_number": "20",
      "release_date_unix": "2000-09-01 12:20:00",
      "pkmn_print_type": "",
      "pkmn_regulation_mark": "",
      "pkmn_format[]": [
        "BS-on (1999\u20132001)",
        "RO-on (Modified 2002)"
      ],
      "pkmn_series[]": [
        "Promos"
      ],
      "pkmn_collection": "",
      "pkmn_language": "",
      "card_prints": "",
      "pkmn_stage": "Basic",
      "pkmn_evolves_into[]": [
        "Golduck",
        "Dark Golduck",
        "Light Golduck"
      ],
      "pkmn_color[]": [
        "Water"
      ],
      "pkmn_hp": "50",
      "pkmn_weakness[]": [
        "Lightning"
      ],
      "pkmn_retreat_cost": "1",
      "pkmn_has[]": [
        "Flavor Text"
      ],
      "pkmn_level": "",
      "card_weakness_modifier": "",
      "card_resistance_modifier": ""
    }
  },
  {
    "id": 11091,
    "url": "https://pkmncards.com/card/_____s-pikachu-wizards-black-star-promos-24/",
    "set-slug": "wizards-black-star-promos",
    "data": {
      "post_ID": "11091",
      "post_title": "_____'s Pikachu \u00b7 Wizards Black Star Promos #24",
      "card_attachment_id_jpg": "22136",
      "card_attachment_id_png": "",
      "card_name": "_____'s Pikachu",
      "card_number": "24",
      "card_text": "{L}{L} Birthday Surprise: 30+ damage. If it's not your birthday, this attack does 30 damage. If it is your birthday, flip a coin. If heads, this attack does 30 damage plus 50 more damage; if tails, this attack does 30 damage.",
      "flavor_text": "Your Birthdate: ______________________________",
      "pkmn_type[]": [
        "Pok\u00e9mon"
      ],
      "pkmn_artist[]": [
        "Kagemaru Himeno"
      ],
      "pkmn_rarity": "Promo",
      "pkmn_set": "Wizards Black Star Promos",
      "tcgplayer_id": "90784",
      "sorting_number": "24",
      "release_date_unix": "2000-09-01 12:24:00",
      "pkmn_print_type": "",
      "pkmn_regulation_mark": "",
      "pkmn_format[]": [
        "BS-on (1999\u20132001)",
        "RO-on (Modified 2002)",
        "Neo-on (Modified 2003)"
      ],
      "pkmn_series[]": [
        "Promos"
      ],
      "pkmn_collection": "",
      "pkmn_language": "",
      "card_prints": "",
      "pkmn_stage": "Basic",
      "pkmn_color[]": [
        "Lightning"
      ],
      "pkmn_hp": "50",
      "pkmn_weakness[]": [
        "Fighting"
      ],
      "pkmn_retreat_cost": "1",
      "pkmn_has[]": [
        "Flavor Text",
        "Level"
      ],
      "pkmn_level": "17",
      "card_weakness_modifier": "",
      "card_resistance_modifier": ""
    }
  },
  {
    "id": 11086,
    "url": "https://pkmncards.com/card/sabrinas-abra-wizards-black-star-promos-19/",
    "set-slug": "wizards-black-star-promos",
    "data": {
      "post_ID": "11086",
      "post_title": "Sabrina's Abra \u00b7 Wizards Black Star Promos #19",
      "card_attachment_id_jpg": "22174",
      "card_attachment_id_png": "",
      "card_name": "Sabrina's Abra",
      "card_number": "19",
      "card_text": "{C} Pound: 10 damage.\r\n\r\n{P}{C} Synchronize: 40 damage. This attack can't be used unless Sabrina's Abra and the Defending Pok\u00e9mon have the same number of Energy cards attached to them.",
      "flavor_text": "",
      "pkmn_type[]": [
        "Pok\u00e9mon"
      ],
      "pkmn_artist[]": [
        "Atsuko Nishida"
      ],
      "pkmn_rarity": "Promo",
      "pkmn_set": "Wizards Black Star Promos",
      "tcgplayer_id": "88862",
      "sorting_number": "19",
      "release_date_unix": "2000-10-01 12:19:00",
      "pkmn_print_type": "",
      "pkmn_regulation_mark": "",
      "pkmn_format[]": [
        "BS-on (1999\u20132001)",
        "RO-on (Modified 2002)",
        "Neo-on (Modified 2003)"
      ],
      "pkmn_series[]": [
        "Promos"
      ],
      "pkmn_collection": "",
      "pkmn_language": "",
      "card_prints": "",
      "pkmn_stage": "Basic",
      "pkmn_evolves_into[]": [
        "Sabrina's Kadabra"
      ],
      "pkmn_color[]": [
        "Psychic"
      ],
      "pkmn_hp": "40",
      "pkmn_weakness[]": [
        "Psychic"
      ],
      "pkmn_retreat_cost": "0",
      "pkmn_is[]": [
        "Sabrina's"
      ],
      "pkmn_level": "",
      "card_weakness_modifier": "",
      "card_resistance_modifier": ""
    }
  },
  {
    "id": 11108,
    "url": "https://pkmncards.com/card/lucky-stadium-wizards-black-star-promos-41/",
    "set-slug": "wizards-black-star-promos",
    "data": {
      "post_ID": "11108",
      "post_title": "Lucky Stadium \u00b7 Wizards Black Star Promos #41",
      "card_attachment_id_jpg": "22152",
      "card_attachment_id_png": "",
      "card_name": "Lucky Stadium",
      "card_number": "41",
      "card_text": "Once during each player's turn (before attacking), that player may flip a coin. If heads, that player draws a card.",
      "flavor_text": "",
      "pkmn_type[]": [
        "Trainer",
        "- Stadium"
      ],
      "pkmn_artist[]": [
        "\"Big Mama\" Tagawa"
      ],
      "pkmn_rarity": "Promo",
      "pkmn_set": "Wizards Black Star Promos",
      "tcgplayer_id": "86894",
      "sorting_number": "41",
      "release_date_unix": "2000-10-23 12:41:00",
      "pkmn_print_type": "",
      "pkmn_regulation_mark": "",
      "pkmn_format[]": [
        "BS-on (1999\u20132001)",
        "RO-on (Modified 2002)",
        "Neo-on (Modified 2003)"
      ],
      "pkmn_series[]": [
        "Promos"
      ],
      "pkmn_collection": "",
      "pkmn_language": "",
      "card_prints": "",
      "pkmn_stage": "",
      "pkmn_hp": "",
      "pkmn_retreat_cost": "",
      "pkmn_is[]": [
        "Lucky"
      ],
      "pkmn_level": "",
      "card_weakness_modifier": "",
      "card_resistance_modifier": ""
    }
  },
  {
    "id": 11094,
    "url": "https://pkmncards.com/card/pikachu-wizards-black-star-promos-27/",
    "set-slug": "wizards-black-star-promos",
    "data": {
      "post_ID": "11094",
      "post_title": "Pikachu \u00b7 Wizards Black Star Promos #27",
      "card_attachment_id_jpg": "22169",
      "card_attachment_id_png": "",
      "card_name": "Pikachu",
      "card_number": "27",
      "card_text": "{L} Thundershock: 10 damage. Flip a coin. If heads, the Defending Pok\u00e9mon is now Paralyzed.\r\n\r\n{L}{L} Agility: 20 damage. Flip a coin. If heads, during your opponent's next turn, prevent all effects of attacks, including damage, done to Pikachu.",
      "flavor_text": "When several of these Pok\u00e9mon gather, their electricity can cause lightning storms.",
      "pkmn_type[]": [
        "Pok\u00e9mon"
      ],
      "pkmn_artist[]": [
        "Atsuko Nishida"
      ],
      "pkmn_rarity": "Promo",
      "pkmn_set": "Wizards Black Star Promos",
      "tcgplayer_id": "88069",
      "sorting_number": "27",
      "release_date_unix": "2000-11-14 12:27:00",
      "pkmn_print_type": "",
      "pkmn_regulation_mark": "",
      "pkmn_format[]": [
        "BS-on (1999\u20132001)",
        "RO-on (Modified 2002)",
        "Neo-on (Modified 2003)"
      ],
      "pkmn_series[]": [
        "Promos"
      ],
      "pkmn_collection": "",
      "pkmn_language": "",
      "card_prints": "",
      "pkmn_stage": "Basic",
      "pkmn_evolves_into[]": [
        "Raichu",
        "Dark Raichu",
        "Raichu ex",
        "Raichu-GX",
        "Alolan Raichu"
      ],
      "pkmn_color[]": [
        "Lightning"
      ],
      "pkmn_hp": "30",
      "pkmn_weakness[]": [
        "Fighting"
      ],
      "pkmn_retreat_cost": "0",
      "pkmn_has[]": [
        "Flavor Text"
      ],
      "pkmn_level": "",
      "card_weakness_modifier": "",
      "card_resistance_modifier": ""
    }
  },
  {
    "id": 11096,
    "url": "https://pkmncards.com/card/marill-wizards-black-star-promos-29/",
    "set-slug": "wizards-black-star-promos",
    "data": {
      "post_ID": "11096",
      "post_title": "Marill \u00b7 Wizards Black Star Promos #29",
      "card_attachment_id_jpg": "22155",
      "card_attachment_id_png": "",
      "card_name": "Marill",
      "card_number": "29",
      "card_text": "{W}{W} Water Gun: 20+ damage. Does 20 damage plus 10 more damage for each Energy attached to Marill but not used to pay for this attack's Energy cost. You can't add more than 20 damage in this way.",
      "flavor_text": "The tip of its tail, which contains oil that is lighter than water, lets it swim without drowning.",
      "pkmn_type[]": [
        "Pok\u00e9mon"
      ],
      "pkmn_artist[]": [
        "Ken Sugimori"
      ],
      "pkmn_rarity": "Promo",
      "pkmn_set": "Wizards Black Star Promos",
      "tcgplayer_id": "87211",
      "sorting_number": "29",
      "release_date_unix": "2000-12-01 12:29:00",
      "pkmn_print_type": "",
      "pkmn_regulation_mark": "",
      "pkmn_format[]": [
        "BS-on (1999\u20132001)",
        "RO-on (Modified 2002)",
        "Neo-on (Modified 2003)"
      ],
      "pkmn_series[]": [
        "Promos"
      ],
      "pkmn_collection": "",
      "pkmn_language": "",
      "card_prints": "",
      "pkmn_stage": "Basic",
      "pkmn_evolves_into[]": [
        "Azumarill",
        "Light Azumarill"
      ],
      "pkmn_color[]": [
        "Water"
      ],
      "pkmn_hp": "50",
      "pkmn_weakness[]": [
        "Lightning"
      ],
      "pkmn_retreat_cost": "1",
      "pkmn_has[]": [
        "Flavor Text"
      ],
      "pkmn_level": "",
      "card_weakness_modifier": "",
      "card_resistance_modifier": ""
    }
  },
  {
    "id": 11097,
    "url": "https://pkmncards.com/card/togepi-wizards-black-star-promos-30/",
    "set-slug": "wizards-black-star-promos",
    "data": {
      "post_ID": "11097",
      "post_title": "Togepi \u00b7 Wizards Black Star Promos #30",
      "card_attachment_id_jpg": "22182",
      "card_attachment_id_png": "",
      "card_name": "Togepi",
      "card_number": "30",
      "card_text": "{C} Snivel: If the Defending Pok\u00e9mon attacks Togepi during your opponent's next turn, any damage done to Togepi is reduced by 20 <em>(before applying Weakness and Resistance). (Benching either Pok\u00e9mon ends this effect.)</em>\r\n\r\n{C}{C} Mini-Metronome: Flip a coin. If heads, choose 1 of the Defending Pok\u00e9mon's attacks. Mini-Metronome copies that attack except for its Energy cost. <em>(You must still do anything else in order to use that attack.) (No matter what type the Defending Pok\u00e9mon is, Togepi's type is still {C}.)</em> Togepi performs that attack.",
      "flavor_text": "Still only a hatchling, it uses poison to chase off its enemies when threatened.",
      "pkmn_type[]": [
        "Pok\u00e9mon"
      ],
      "pkmn_artist[]": [
        "Ken Sugimori"
      ],
      "pkmn_rarity": "Promo",
      "pkmn_set": "Wizards Black Star Promos",
      "tcgplayer_id": "89928",
      "sorting_number": "30",
      "release_date_unix": "2001-01-01 12:30:00",
      "pkmn_print_type": "",
      "pkmn_regulation_mark": "",
      "pkmn_format[]": [
        "BS-on (1999\u20132001)",
        "RO-on (Modified 2002)",
        "Neo-on (Modified 2003)"
      ],
      "pkmn_series[]": [
        "Promos"
      ],
      "pkmn_collection": "",
      "pkmn_language": "",
      "card_prints": "",
      "pkmn_stage": "Basic",
      "pkmn_evolves_into[]": [
        "Togetic",
        "Light Togetic"
      ],
      "pkmn_color[]": [
        "Colorless"
      ],
      "pkmn_hp": "30",
      "pkmn_retreat_cost": "1",
      "pkmn_resistance[]": [
        "Psychic"
      ],
      "pkmn_has[]": [
        "Flavor Text"
      ],
      "pkmn_level": "",
      "card_weakness_modifier": "",
      "card_resistance_modifier": "-30"
    }
  },
  {
    "id": 11098,
    "url": "https://pkmncards.com/card/cleffa-wizards-black-star-promos-31/",
    "set-slug": "wizards-black-star-promos",
    "data": {
      "post_ID": "11098",
      "post_title": "Cleffa \u00b7 Wizards Black Star Promos #31",
      "card_attachment_id_jpg": "22138",
      "card_attachment_id_png": "",
      "card_name": "Cleffa",
      "card_number": "31",
      "card_text": "{C} Eek: Draw 2 cards.",
      "flavor_text": "Because of its unusual, star-like silhouette, people believe that it came here on a meteor.",
      "pkmn_type[]": [
        "Pok\u00e9mon"
      ],
      "pkmn_artist[]": [
        "Ken Sugimori"
      ],
      "pkmn_rarity": "Promo",
      "pkmn_set": "Wizards Black Star Promos",
      "tcgplayer_id": "84363",
      "sorting_number": "31",
      "release_date_unix": "2001-02-01 12:31:00",
      "pkmn_print_type": "",
      "pkmn_regulation_mark": "",
      "pkmn_format[]": [
        "BS-on (1999\u20132001)",
        "RO-on (Modified 2002)",
        "Neo-on (Modified 2003)"
      ],
      "pkmn_series[]": [
        "Promos"
      ],
      "pkmn_collection": "",
      "pkmn_language": "",
      "card_prints": "",
      "pkmn_stage": "Baby",
      "pkmn_evolves_into[]": [
        "Clefairy"
      ],
      "pkmn_color[]": [
        "Colorless"
      ],
      "pkmn_hp": "30",
      "pkmn_retreat_cost": "0",
      "pkmn_has[]": [
        "Flavor Text"
      ],
      "pkmn_level": "",
      "card_weakness_modifier": "",
      "card_resistance_modifier": ""
    }
  },
  {
    "id": 11099,
    "url": "https://pkmncards.com/card/smeargle-wizards-black-star-promos-32/",
    "set-slug": "wizards-black-star-promos",
    "data": {
      "post_ID": "11099",
      "post_title": "Smeargle \u00b7 Wizards Black Star Promos #32",
      "card_attachment_id_jpg": "22177",
      "card_attachment_id_png": "",
      "card_name": "Smeargle",
      "card_number": "32",
      "card_text": "{C} Paint: Flip a coin. If heads, choose a type (other than Colorless) and put a Coloring counter on the Defending Pok\u00e9mon. That Pok\u00e9mon is now the type you chose. If it already had a Coloring counter, remove the old one. If tails, this attack does nothing.",
      "flavor_text": "Once it becomes an adult, it has a tendency to let its comrades plant footprints on its back.",
      "pkmn_type[]": [
        "Pok\u00e9mon"
      ],
      "pkmn_artist[]": [
        "Tomokazu Komiya"
      ],
      "pkmn_rarity": "Promo",
      "pkmn_set": "Wizards Black Star Promos",
      "tcgplayer_id": "89353",
      "sorting_number": "32",
      "release_date_unix": "2001-03-01 12:32:00",
      "pkmn_print_type": "",
      "pkmn_regulation_mark": "",
      "pkmn_format[]": [
        "BS-on (1999\u20132001)",
        "RO-on (Modified 2002)",
        "Neo-on (Modified 2003)"
      ],
      "pkmn_series[]": [
        "Promos"
      ],
      "pkmn_collection": "",
      "pkmn_language": "",
      "card_prints": "",
      "pkmn_stage": "Basic",
      "pkmn_color[]": [
        "Colorless"
      ],
      "pkmn_hp": "40",
      "pkmn_weakness[]": [
        "Fighting"
      ],
      "pkmn_retreat_cost": "1",
      "pkmn_resistance[]": [
        "Psychic"
      ],
      "pkmn_has[]": [
        "Flavor Text"
      ],
      "pkmn_level": "",
      "card_weakness_modifier": "",
      "card_resistance_modifier": "-30"
    }
  },
  {
    "id": 11102,
    "url": "https://pkmncards.com/card/pichu-wizards-black-star-promos-35/",
    "set-slug": "wizards-black-star-promos",
    "data": {
      "post_ID": "11102",
      "post_title": "Pichu \u00b7 Wizards Black Star Promos #35",
      "card_attachment_id_jpg": "22165",
      "card_attachment_id_png": "",
      "card_name": "Pichu",
      "card_number": "35",
      "card_text": "{C} Let's Play!: Search your deck for a Baby Pok\u00e9mon card and put it onto your Bench. Shuffle your deck afterward. <em>(You can't use this attack if your Bench is full.)</em>",
      "flavor_text": "It is not yet skilled at storing electricity. It may send out a jolt if amused or startled.",
      "pkmn_type[]": [
        "Pok\u00e9mon"
      ],
      "pkmn_artist[]": [
        "Ken Sugimori"
      ],
      "pkmn_rarity": "Promo",
      "pkmn_set": "Wizards Black Star Promos",
      "tcgplayer_id": "88014",
      "sorting_number": "35",
      "release_date_unix": "2001-04-01 12:35:00",
      "pkmn_print_type": "",
      "pkmn_regulation_mark": "",
      "pkmn_format[]": [
        "BS-on (1999\u20132001)",
        "RO-on (Modified 2002)",
        "Neo-on (Modified 2003)"
      ],
      "pkmn_series[]": [
        "Promos"
      ],
      "pkmn_collection": "",
      "pkmn_language": "",
      "card_prints": "",
      "pkmn_stage": "Baby",
      "pkmn_evolves_into[]": [
        "Pikachu"
      ],
      "pkmn_color[]": [
        "Lightning"
      ],
      "pkmn_hp": "30",
      "pkmn_retreat_cost": "0",
      "pkmn_has[]": [
        "Flavor Text"
      ],
      "pkmn_level": "",
      "card_weakness_modifier": "",
      "card_resistance_modifier": ""
    }
  },
  {
    "id": 11101,
    "url": "https://pkmncards.com/card/entei-wizards-black-star-promos-34/",
    "set-slug": "wizards-black-star-promos",
    "data": {
      "post_ID": "11101",
      "post_title": "Entei \u00b7 Wizards Black Star Promos #34",
      "card_attachment_id_jpg": "22146",
      "card_attachment_id_png": "",
      "card_name": "Entei",
      "card_number": "34",
      "card_text": "Pok\u00e9mon Power: Bolt\r\nWhenever your opponent's attack damages Entei, unless that attack Knocks Out Entei, flip a coin. If heads, shuffle Entei and all cards attached to it into your deck. This power can't be used if Entei is already Asleep, Confused, or Paralyzed when it is damaged.\r\n\r\n{R}{R}{R} Protective Flame: 50 damage. During your opponent's next turn, prevent all effects of attacks, including damage, done to your Benched Pok\u00e9mon.",
      "flavor_text": "Volcanoes erupt when it barks. Unable to restrain its extreme power, it races headlong around the land.",
      "pkmn_type[]": [
        "Pok\u00e9mon"
      ],
      "pkmn_artist[]": [
        "Ken Sugimori"
      ],
      "pkmn_rarity": "Promo",
      "pkmn_set": "Wizards Black Star Promos",
      "tcgplayer_id": "85270",
      "sorting_number": "34",
      "release_date_unix": "2001-04-06 12:34:00",
      "pkmn_print_type": "",
      "pkmn_regulation_mark": "",
      "pkmn_format[]": [
        "BS-on (1999\u20132001)",
        "RO-on (Modified 2002)",
        "Neo-on (Modified 2003)"
      ],
      "pkmn_series[]": [
        "Promos"
      ],
      "pkmn_collection": "",
      "pkmn_language": "",
      "card_prints": "",
      "pkmn_stage": "Basic",
      "pkmn_color[]": [
        "Fire"
      ],
      "pkmn_hp": "80",
      "pkmn_weakness[]": [
        "Water"
      ],
      "pkmn_retreat_cost": "1",
      "pkmn_has[]": [
        "Pok\u00e9mon Power",
        "Flavor Text"
      ],
      "pkmn_level": "",
      "card_weakness_modifier": "",
      "card_resistance_modifier": ""
    }
  },
  {
    "id": 11103,
    "url": "https://pkmncards.com/card/igglybuff-wizards-black-star-promos-36/",
    "set-slug": "wizards-black-star-promos",
    "data": {
      "post_ID": "11103",
      "post_title": "Igglybuff \u00b7 Wizards Black Star Promos #36",
      "card_attachment_id_jpg": "22150",
      "card_attachment_id_png": "",
      "card_name": "Igglybuff",
      "card_number": "36",
      "card_text": "{C} Good Night Song: The Defending Pok\u00e9mon is now Asleep.",
      "flavor_text": "Its extremely flexible and elastic body makes it bounce continuously\u2014anytime, anywhere.",
      "pkmn_type[]": [
        "Pok\u00e9mon"
      ],
      "pkmn_artist[]": [
        "Kagemaru Himeno"
      ],
      "pkmn_rarity": "Promo",
      "pkmn_set": "Wizards Black Star Promos",
      "tcgplayer_id": "86259",
      "sorting_number": "36",
      "release_date_unix": "2001-05-01 12:36:00",
      "pkmn_print_type": "",
      "pkmn_regulation_mark": "",
      "pkmn_format[]": [
        "BS-on (1999\u20132001)",
        "RO-on (Modified 2002)",
        "Neo-on (Modified 2003)"
      ],
      "pkmn_series[]": [
        "Promos"
      ],
      "pkmn_collection": "",
      "pkmn_language": "",
      "card_prints": "",
      "pkmn_stage": "Baby",
      "pkmn_evolves_into[]": [
        "Jigglypuff"
      ],
      "pkmn_color[]": [
        "Colorless"
      ],
      "pkmn_hp": "30",
      "pkmn_retreat_cost": "0",
      "pkmn_has[]": [
        "Flavor Text"
      ],
      "pkmn_level": "",
      "card_weakness_modifier": "",
      "card_resistance_modifier": ""
    }
  },
  {
    "id": 11100,
    "url": "https://pkmncards.com/card/scizor-wizards-black-star-promos-33/",
    "set-slug": "wizards-black-star-promos",
    "data": {
      "post_ID": "11100",
      "post_title": "Scizor \u00b7 Wizards Black Star Promos #33",
      "card_attachment_id_jpg": "22175",
      "card_attachment_id_png": "",
      "card_name": "Scizor",
      "card_number": "33",
      "card_text": "{C} Leer: Flip a coin. If heads, the Defending Pok\u00e9mon can't attack Scizor during your opponent's next turn. (Benching either Pok\u00e9mon ends this effect.)\r\n\r\n{M}{C}{C} Metal Pincer: 30+ damage. Flip a coin until you get tails. This attack does 30 damage plus 10 more damage for each heads.",
      "flavor_text": "Its wings are not used for flying. They are flapped at high speed to adjust its body temperature.",
      "pkmn_type[]": [
        "Pok\u00e9mon"
      ],
      "pkmn_artist[]": [
        "Hironobu Yoshida"
      ],
      "pkmn_rarity": "Promo",
      "pkmn_set": "Wizards Black Star Promos",
      "tcgplayer_id": "88960",
      "sorting_number": "33",
      "release_date_unix": "2001-06-01 12:33:00",
      "pkmn_print_type": "",
      "pkmn_regulation_mark": "",
      "pkmn_format[]": [
        "BS-on (1999\u20132001)",
        "RO-on (Modified 2002)",
        "Neo-on (Modified 2003)"
      ],
      "pkmn_series[]": [
        "Promos"
      ],
      "pkmn_collection": "",
      "pkmn_language": "",
      "card_prints": "",
      "pkmn_stage": "Stage 1",
      "pkmn_evolves_from[]": [
        "Scyther"
      ],
      "pkmn_color[]": [
        "Metal"
      ],
      "pkmn_hp": "70",
      "pkmn_weakness[]": [
        "Fire"
      ],
      "pkmn_retreat_cost": "2",
      "pkmn_resistance[]": [
        "Grass"
      ],
      "pkmn_has[]": [
        "Flavor Text"
      ],
      "pkmn_level": "",
      "card_weakness_modifier": "",
      "card_resistance_modifier": "-30"
    }
  },
  {
    "id": 11104,
    "url": "https://pkmncards.com/card/hitmontop-wizards-black-star-promos-37/",
    "set-slug": "wizards-black-star-promos",
    "data": {
      "post_ID": "11104",
      "post_title": "Hitmontop \u00b7 Wizards Black Star Promos #37",
      "card_attachment_id_jpg": "22148",
      "card_attachment_id_png": "",
      "card_name": "Hitmontop",
      "card_number": "37",
      "card_text": "{F}{F} Repeating Kick: 20x damage. Flip a coin until you get tails. This attack does 20 damage times the number of heads.\r\n\r\n{F}{F}{C} Rapid Spin: 30 damage. If your opponent has any Benched Pok\u00e9mon, he or she chooses 1 of them and switches it with his or her Active Pok\u00e9mon, then, if you have any Benched Pok\u00e9mon, you switch 1 of them with your Active Pok\u00e9mon. (Do the damage before switching the Pok\u00e9mon.)",
      "flavor_text": "It launches kicks while spinning. If it spins at high speed, it may bore its way into the ground.",
      "pkmn_type[]": [
        "Pok\u00e9mon"
      ],
      "pkmn_artist[]": [
        "Atsuko Nishida"
      ],
      "pkmn_rarity": "Promo",
      "pkmn_set": "Wizards Black Star Promos",
      "tcgplayer_id": "86112",
      "sorting_number": "37",
      "release_date_unix": "2001-07-01 12:37:00",
      "pkmn_print_type": "",
      "pkmn_regulation_mark": "",
      "pkmn_format[]": [
        "BS-on (1999\u20132001)",
        "RO-on (Modified 2002)",
        "Neo-on (Modified 2003)"
      ],
      "pkmn_series[]": [
        "Promos"
      ],
      "pkmn_collection": "",
      "pkmn_language": "",
      "card_prints": "",
      "pkmn_stage": "Basic",
      "pkmn_color[]": [
        "Fighting"
      ],
      "pkmn_hp": "60",
      "pkmn_weakness[]": [
        "Psychic"
      ],
      "pkmn_retreat_cost": "1",
      "pkmn_has[]": [
        "Flavor Text"
      ],
      "pkmn_level": "",
      "card_weakness_modifier": "",
      "card_resistance_modifier": ""
    }
  },
  {
    "id": 11092,
    "url": "https://pkmncards.com/card/flying-pikachu-wizards-black-star-promos-25/",
    "set-slug": "wizards-black-star-promos",
    "data": {
      "post_ID": "11092",
      "post_title": "Flying Pikachu \u00b7 Wizards Black Star Promos #25",
      "card_attachment_id_jpg": "22147",
      "card_attachment_id_png": "",
      "card_name": "Flying Pikachu",
      "card_number": "25",
      "card_text": "{L} Thundershock: 10 damage. Flip a coin. If heads, the Defending Pok\u00e9mon is now Paralyzed.\r\n\r\n{C}{C}{C} Fly: 30 damage. Flip a coin. If heads, during your opponent's next turn, prevent all effects of attacks, including damage, done to Flying Pikachu; if tails, this attack does nothing (not even damage).",
      "flavor_text": "By learning how to fly, Pikachu overcame its weakness to Fighting Pok\u00e9mon.",
      "pkmn_type[]": [
        "Pok\u00e9mon"
      ],
      "pkmn_artist[]": [
        "Toshinao Aoki"
      ],
      "pkmn_rarity": "Promo",
      "pkmn_set": "Wizards Black Star Promos",
      "tcgplayer_id": "85534",
      "sorting_number": "25",
      "release_date_unix": "2001-08-01 12:25:00",
      "pkmn_print_type": "",
      "pkmn_regulation_mark": "",
      "pkmn_format[]": [
        "BS-on (1999\u20132001)",
        "RO-on (Modified 2002)",
        "Neo-on (Modified 2003)"
      ],
      "pkmn_series[]": [
        "Promos"
      ],
      "pkmn_collection": "",
      "pkmn_language": "",
      "card_prints": "",
      "pkmn_stage": "Basic",
      "pkmn_color[]": [
        "Lightning"
      ],
      "pkmn_hp": "40",
      "pkmn_retreat_cost": "1",
      "pkmn_resistance[]": [
        "Fighting"
      ],
      "pkmn_has[]": [
        "Flavor Text"
      ],
      "pkmn_level": "",
      "card_weakness_modifier": "",
      "card_resistance_modifier": "-30"
    }
  },
  {
    "id": 11093,
    "url": "https://pkmncards.com/card/pikachu-wizards-black-star-promos-26/",
    "set-slug": "wizards-black-star-promos",
    "data": {
      "post_ID": "11093",
      "post_title": "Pikachu \u00b7 Wizards Black Star Promos #26",
      "card_attachment_id_jpg": "22168",
      "card_attachment_id_png": "",
      "card_name": "Pikachu",
      "card_number": "26",
      "card_text": "{C} Scratch: 10 damage.\r\n\r\n{L}{L} Thunderbolt: 40 damage. Discard all Energy cards attached to Pikachu.",
      "flavor_text": "It uses its sensitive tail to sense its environment and has been known to react violently if its tail is grabbed.",
      "pkmn_type[]": [
        "Pok\u00e9mon"
      ],
      "pkmn_artist[]": [
        "Gakuji Nomoto"
      ],
      "pkmn_rarity": "Promo",
      "pkmn_set": "Wizards Black Star Promos",
      "tcgplayer_id": "88068",
      "sorting_number": "26",
      "release_date_unix": "2001-08-01 12:26:00",
      "pkmn_print_type": "",
      "pkmn_regulation_mark": "",
      "pkmn_format[]": [
        "BS-on (1999\u20132001)",
        "RO-on (Modified 2002)",
        "Neo-on (Modified 2003)"
      ],
      "pkmn_series[]": [
        "Promos"
      ],
      "pkmn_collection": "",
      "pkmn_language": "",
      "card_prints": "",
      "pkmn_stage": "Basic",
      "pkmn_evolves_into[]": [
        "Raichu",
        "Dark Raichu",
        "Raichu ex",
        "Raichu-GX",
        "Alolan Raichu"
      ],
      "pkmn_color[]": [
        "Lightning"
      ],
      "pkmn_hp": "40",
      "pkmn_weakness[]": [
        "Fighting"
      ],
      "pkmn_retreat_cost": "1",
      "pkmn_has[]": [
        "Flavor Text",
        "Level"
      ],
      "pkmn_level": "9",
      "card_weakness_modifier": "",
      "card_resistance_modifier": ""
    }
  },
  {
    "id": 11095,
    "url": "https://pkmncards.com/card/surfing-pikachu-wizards-black-star-promos-28/",
    "set-slug": "wizards-black-star-promos",
    "data": {
      "post_ID": "11095",
      "post_title": "Surfing Pikachu \u00b7 Wizards Black Star Promos #28",
      "card_attachment_id_jpg": "22180",
      "card_attachment_id_png": "",
      "card_name": "Surfing Pikachu",
      "card_number": "28",
      "card_text": "{W}{W} Surf: 30 damage.",
      "flavor_text": "One summer, a group of Pikachus was found riding the waves at the local beach.",
      "pkmn_type[]": [
        "Pok\u00e9mon"
      ],
      "pkmn_artist[]": [
        "Toshinao Aoki"
      ],
      "pkmn_rarity": "Promo",
      "pkmn_set": "Wizards Black Star Promos",
      "tcgplayer_id": "89643",
      "sorting_number": "28",
      "release_date_unix": "2001-08-01 12:28:00",
      "pkmn_print_type": "",
      "pkmn_regulation_mark": "",
      "pkmn_format[]": [
        "BS-on (1999\u20132001)",
        "RO-on (Modified 2002)",
        "Neo-on (Modified 2003)"
      ],
      "pkmn_series[]": [
        "Promos"
      ],
      "pkmn_collection": "",
      "pkmn_language": "",
      "card_prints": "",
      "pkmn_stage": "Basic",
      "pkmn_color[]": [
        "Lightning"
      ],
      "pkmn_hp": "50",
      "pkmn_weakness[]": [
        "Fighting"
      ],
      "pkmn_retreat_cost": "1",
      "pkmn_has[]": [
        "Flavor Text"
      ],
      "pkmn_level": "",
      "card_weakness_modifier": "",
      "card_resistance_modifier": ""
    }
  },
  {
    "id": 11105,
    "url": "https://pkmncards.com/card/unown-j-wizards-black-star-promos-38/",
    "set-slug": "wizards-black-star-promos",
    "data": {
      "post_ID": "11105",
      "post_title": "Unown J \u00b7 Wizards Black Star Promos #38",
      "card_attachment_id_jpg": "22183",
      "card_attachment_id_png": "",
      "card_name": "Unown J",
      "card_number": "38",
      "card_text": "Pok\u00e9mon Power: [Join]\r\nOnce during your turn (before your attack), if you have Unown J, Unown O, Unown I, and Unown N on your Bench, you may search your deck for a Basic Pok\u00e9mon or Evolution card. Show that card to your opponent, then put it into your hand. Shuffle your deck afterward.\r\n\r\n{P} Hidden Power: 10 damage.\r\n\r\nYou may have up to 4 Basic Pok\u00e9mon cards in your deck with Unown in their names.",
      "flavor_text": "Their shapes look like hieroglyphs on ancient tablets. It is said that the two are somehow related.",
      "pkmn_type[]": [
        "Pok\u00e9mon"
      ],
      "pkmn_artist[]": [
        "Hideki Kazama"
      ],
      "pkmn_rarity": "Promo",
      "pkmn_set": "Wizards Black Star Promos",
      "tcgplayer_id": "90215",
      "sorting_number": "38",
      "release_date_unix": "2001-08-21 12:38:00",
      "pkmn_print_type": "",
      "pkmn_regulation_mark": "",
      "pkmn_format[]": [
        "BS-on (1999\u20132001)",
        "RO-on (Modified 2002)",
        "Neo-on (Modified 2003)"
      ],
      "pkmn_series[]": [
        "Promos"
      ],
      "pkmn_collection": "",
      "pkmn_language": "",
      "card_prints": "",
      "pkmn_stage": "Basic",
      "pkmn_color[]": [
        "Psychic"
      ],
      "pkmn_hp": "40",
      "pkmn_weakness[]": [
        "Psychic"
      ],
      "pkmn_retreat_cost": "1",
      "pkmn_has[]": [
        "Pok\u00e9mon Power",
        "Flavor Text"
      ],
      "pkmn_level": "",
      "card_weakness_modifier": "",
      "card_resistance_modifier": ""
    }
  },
  {
    "id": 11106,
    "url": "https://pkmncards.com/card/misdreavus-wizards-black-star-promos-39/",
    "set-slug": "wizards-black-star-promos",
    "data": {
      "post_ID": "11106",
      "post_title": "Misdreavus \u00b7 Wizards Black Star Promos #39",
      "card_attachment_id_jpg": "22163",
      "card_attachment_id_png": "",
      "card_name": "Misdreavus",
      "card_number": "39",
      "card_text": "{P} Pain Split: Put 1 damage counter on the Defending Pok\u00e9mon for each damage counter on Misdreavus.\r\n\r\n{P}{P} Confuse Ray: 10 damage. Flip a coin. If heads, the Defending Pok\u00e9mon is now Confused.",
      "flavor_text": "It loves to bite and yank people's hair from behind without warning, just to see their shocked reactions.",
      "pkmn_type[]": [
        "Pok\u00e9mon"
      ],
      "pkmn_artist[]": [
        "Shin-ichi Yoshida"
      ],
      "pkmn_rarity": "Promo",
      "pkmn_set": "Wizards Black Star Promos",
      "tcgplayer_id": "87503",
      "sorting_number": "39",
      "release_date_unix": "2001-09-01 12:39:00",
      "pkmn_print_type": "",
      "pkmn_regulation_mark": "",
      "pkmn_format[]": [
        "BS-on (1999\u20132001)",
        "RO-on (Modified 2002)",
        "Neo-on (Modified 2003)"
      ],
      "pkmn_series[]": [
        "Promos"
      ],
      "pkmn_collection": "",
      "pkmn_language": "",
      "card_prints": "",
      "pkmn_stage": "Basic",
      "pkmn_evolves_into[]": [
        "Mismagius"
      ],
      "pkmn_color[]": [
        "Psychic"
      ],
      "pkmn_hp": "50",
      "pkmn_retreat_cost": "1",
      "pkmn_resistance[]": [
        "Fighting"
      ],
      "pkmn_has[]": [
        "Flavor Text"
      ],
      "pkmn_level": "",
      "card_weakness_modifier": "",
      "card_resistance_modifier": "-30"
    }
  },
  {
    "id": 11107,
    "url": "https://pkmncards.com/card/pokemon-center-wizards-black-star-promos-40/",
    "set-slug": "wizards-black-star-promos",
    "data": {
      "post_ID": "11107",
      "post_title": "Pok\u00e9mon Center \u00b7 Wizards Black Star Promos #40",
      "card_attachment_id_jpg": "22170",
      "card_attachment_id_png": "",
      "card_name": "Pok\u00e9mon Center",
      "card_number": "40",
      "card_text": "Remove all damage counters from all of your own Pok\u00e9mon with damage counters on them, then discard all Energy cards attached to those Pok\u00e9mon.",
      "flavor_text": "",
      "pkmn_type[]": [
        "Trainer"
      ],
      "pkmn_artist[]": [
        "\"Big Mama\" Tagawa"
      ],
      "pkmn_rarity": "Promo",
      "pkmn_set": "Wizards Black Star Promos",
      "tcgplayer_id": "88213",
      "sorting_number": "40",
      "release_date_unix": "2001-11-16 12:40:00",
      "pkmn_print_type": "",
      "pkmn_regulation_mark": "",
      "pkmn_format[]": [
        "BS-on (1999\u20132001)",
        "RO-on (Modified 2002)",
        "Neo-on (Modified 2003)"
      ],
      "pkmn_series[]": [
        "Promos"
      ],
      "pkmn_collection": "",
      "pkmn_language": "",
      "card_prints": "",
      "pkmn_stage": "",
      "pkmn_hp": "",
      "pkmn_retreat_cost": "",
      "pkmn_level": "",
      "card_weakness_modifier": "",
      "card_resistance_modifier": ""
    }
  },
  {
    "id": 11109,
    "url": "https://pkmncards.com/card/pokemon-tower-wizards-black-star-promos-42/",
    "set-slug": "wizards-black-star-promos",
    "data": {
      "post_ID": "11109",
      "post_title": "Pok\u00e9mon Tower \u00b7 Wizards Black Star Promos #42",
      "card_attachment_id_jpg": "22171",
      "card_attachment_id_png": "",
      "card_name": "Pok\u00e9mon Tower",
      "card_number": "42",
      "card_text": "If the effect of a Pok\u00e9mon Power, attack, Energy card, or Trainer card would put a card in a discard pile into its owner's hand, that card stays in that discard pile instead.",
      "flavor_text": "",
      "pkmn_type[]": [
        "Trainer",
        "- Stadium"
      ],
      "pkmn_artist[]": [
        "Keiji Kinebuchi"
      ],
      "pkmn_rarity": "Promo",
      "pkmn_set": "Wizards Black Star Promos",
      "tcgplayer_id": "88240",
      "sorting_number": "42",
      "release_date_unix": "2002-01-01 12:42:00",
      "pkmn_print_type": "",
      "pkmn_regulation_mark": "",
      "pkmn_format[]": [
        "BS-on (1999\u20132001)",
        "RO-on (Modified 2002)",
        "Neo-on (Modified 2003)"
      ],
      "pkmn_series[]": [
        "Promos"
      ],
      "pkmn_collection": "",
      "pkmn_language": "",
      "card_prints": "",
      "pkmn_stage": "",
      "pkmn_hp": "",
      "pkmn_retreat_cost": "",
      "pkmn_level": "",
      "card_weakness_modifier": "",
      "card_resistance_modifier": ""
    }
  },
  {
    "id": 11110,
    "url": "https://pkmncards.com/card/machamp-wizards-black-star-promos-43/",
    "set-slug": "wizards-black-star-promos",
    "data": {
      "post_ID": "11110",
      "post_title": "Machamp \u00b7 Wizards Black Star Promos #43",
      "card_attachment_id_jpg": "22153",
      "card_attachment_id_png": "",
      "card_name": "Machamp",
      "card_number": "43",
      "card_text": "{F}{F} Seething Anger: 20+ damage. Flip a number of coins equal to the number of damage counters on Machamp. This attack does 20 damage plus 10 more damage for each heads.\r\n\r\n{F}{F}{C}{C} Fling: 50 damage. If your opponent has any Benched Pok\u00e9mon, he or she chooses 1 of them and switches it with the Defending Pok\u00e9mon. (Do the damage before switching the Pok\u00e9mon.)",
      "flavor_text": "Using its amazing muscles, it throws powerful punches that can knock its victim clear over the horizon.",
      "pkmn_type[]": [
        "Pok\u00e9mon"
      ],
      "pkmn_artist[]": [
        "Tomokazu Komiya"
      ],
      "pkmn_rarity": "Promo",
      "pkmn_set": "Wizards Black Star Promos",
      "tcgplayer_id": "86961",
      "sorting_number": "43",
      "release_date_unix": "2002-02-01 12:43:00",
      "pkmn_print_type": "",
      "pkmn_regulation_mark": "",
      "pkmn_format[]": [
        "BS-on (1999\u20132001)",
        "RO-on (Modified 2002)",
        "Neo-on (Modified 2003)"
      ],
      "pkmn_series[]": [
        "Promos"
      ],
      "pkmn_collection": "",
      "pkmn_language": "",
      "card_prints": "",
      "pkmn_stage": "Stage 2",
      "pkmn_evolves_from[]": [
        "Machoke"
      ],
      "pkmn_evolves_into[]": [
        "Machamp LV.X",
        "Machamp BREAK"
      ],
      "pkmn_color[]": [
        "Fighting"
      ],
      "pkmn_hp": "90",
      "pkmn_weakness[]": [
        "Psychic"
      ],
      "pkmn_retreat_cost": "3",
      "pkmn_has[]": [
        "Flavor Text"
      ],
      "pkmn_level": "",
      "card_weakness_modifier": "",
      "card_resistance_modifier": ""
    }
  },
  {
    "id": 11111,
    "url": "https://pkmncards.com/card/magmar-wizards-black-star-promos-44/",
    "set-slug": "wizards-black-star-promos",
    "data": {
      "post_ID": "11111",
      "post_title": "Magmar \u00b7 Wizards Black Star Promos #44",
      "card_attachment_id_jpg": "22154",
      "card_attachment_id_png": "",
      "card_name": "Magmar",
      "card_number": "44",
      "card_text": "{R} Burning Fire: 10+ damage. When you use this attack, you may discard any number of {R} Energy cards attached to your Pok\u00e9mon in play. This attack does 10 damage plus 10 more damage for each {R} Energy card you discarded in this way.\r\n\r\n{R}{R}{C} Magma Punch: 40 damage.",
      "flavor_text": "Its body always burns with an orange glow that enables it to hide perfectly among flames.",
      "pkmn_type[]": [
        "Pok\u00e9mon"
      ],
      "pkmn_artist[]": [
        "Atsuko Nishida"
      ],
      "pkmn_rarity": "Promo",
      "pkmn_set": "Wizards Black Star Promos",
      "tcgplayer_id": "87043",
      "sorting_number": "44",
      "release_date_unix": "2002-03-01 12:44:00",
      "pkmn_print_type": "",
      "pkmn_regulation_mark": "",
      "pkmn_format[]": [
        "BS-on (1999\u20132001)",
        "RO-on (Modified 2002)",
        "Neo-on (Modified 2003)"
      ],
      "pkmn_series[]": [
        "Promos"
      ],
      "pkmn_collection": "",
      "pkmn_language": "",
      "card_prints": "",
      "pkmn_stage": "Basic",
      "pkmn_evolves_into[]": [
        "Magmortar"
      ],
      "pkmn_color[]": [
        "Fire"
      ],
      "pkmn_hp": "60",
      "pkmn_weakness[]": [
        "Water"
      ],
      "pkmn_retreat_cost": "2",
      "pkmn_has[]": [
        "Flavor Text"
      ],
      "pkmn_level": "",
      "card_weakness_modifier": "",
      "card_resistance_modifier": ""
    }
  },
  {
    "id": 11112,
    "url": "https://pkmncards.com/card/scyther-wizards-black-star-promos-45/",
    "set-slug": "wizards-black-star-promos",
    "data": {
      "post_ID": "11112",
      "post_title": "Scyther \u00b7 Wizards Black Star Promos #45",
      "card_attachment_id_jpg": "22176",
      "card_attachment_id_png": "",
      "card_name": "Scyther",
      "card_number": "45",
      "card_text": "{G}{G} Slashing Strike: 40 damage. Scyther can't use this attack during your next turn. (Benching or evolving Scyther ends this effect.)",
      "flavor_text": "With ninja-like agility and speed, it can create the illusion that there is more than one.",
      "pkmn_type[]": [
        "Pok\u00e9mon"
      ],
      "pkmn_artist[]": [
        "Hironobu Yoshida"
      ],
      "pkmn_rarity": "Promo",
      "pkmn_set": "Wizards Black Star Promos",
      "tcgplayer_id": "88993",
      "sorting_number": "45",
      "release_date_unix": "2002-04-01 12:45:00",
      "pkmn_print_type": "",
      "pkmn_regulation_mark": "",
      "pkmn_format[]": [
        "BS-on (1999\u20132001)",
        "RO-on (Modified 2002)",
        "Neo-on (Modified 2003)"
      ],
      "pkmn_series[]": [
        "Promos"
      ],
      "pkmn_collection": "",
      "pkmn_language": "",
      "card_prints": "",
      "pkmn_stage": "Basic",
      "pkmn_evolves_into[]": [
        "Scizor",
        "Dark Scizor",
        "Scizor-GX",
        "Scizor ex"
      ],
      "pkmn_color[]": [
        "Grass"
      ],
      "pkmn_hp": "60",
      "pkmn_weakness[]": [
        "Fire"
      ],
      "pkmn_retreat_cost": "1",
      "pkmn_resistance[]": [
        "Fighting"
      ],
      "pkmn_has[]": [
        "Flavor Text"
      ],
      "pkmn_level": "",
      "card_weakness_modifier": "",
      "card_resistance_modifier": "-30"
    }
  },
  {
    "id": 11113,
    "url": "https://pkmncards.com/card/electabuzz-wizards-black-star-promos-46/",
    "set-slug": "wizards-black-star-promos",
    "data": {
      "post_ID": "11113",
      "post_title": "Electabuzz \u00b7 Wizards Black Star Promos #46",
      "card_attachment_id_jpg": "22145",
      "card_attachment_id_png": "",
      "card_name": "Electabuzz",
      "card_number": "46",
      "card_text": "{L} Lightning Rod: Choose 1 of your opponent's Pok\u00e9mon and put a Lightning Rod marker on it. (A Pok\u00e9mon can have only 1 Lightning Rod marker on it at a time.)\r\n\r\n{L}{L} Lightning Bolt: 10 damage. This attack does 20 damage to any Pok\u00e9mon with a Lightning Rod marker on it. Apply Weakness and Resistance.",
      "flavor_text": "Normally found near power plants, it can wander away and cause major blackouts in cities.",
      "pkmn_type[]": [
        "Pok\u00e9mon"
      ],
      "pkmn_artist[]": [
        "Miki Tanaka"
      ],
      "pkmn_rarity": "Promo",
      "pkmn_set": "Wizards Black Star Promos",
      "tcgplayer_id": "85111",
      "sorting_number": "46",
      "release_date_unix": "2002-05-01 12:46:00",
      "pkmn_print_type": "",
      "pkmn_regulation_mark": "",
      "pkmn_format[]": [
        "BS-on (1999\u20132001)",
        "RO-on (Modified 2002)",
        "Neo-on (Modified 2003)"
      ],
      "pkmn_series[]": [
        "Promos"
      ],
      "pkmn_collection": "",
      "pkmn_language": "",
      "card_prints": "",
      "pkmn_stage": "Basic",
      "pkmn_evolves_into[]": [
        "Electivire"
      ],
      "pkmn_color[]": [
        "Lightning"
      ],
      "pkmn_hp": "60",
      "pkmn_weakness[]": [
        "Fighting"
      ],
      "pkmn_retreat_cost": "1",
      "pkmn_has[]": [
        "Flavor Text"
      ],
      "pkmn_level": "",
      "card_weakness_modifier": "",
      "card_resistance_modifier": ""
    }
  },
  {
    "id": 11114,
    "url": "https://pkmncards.com/card/mew-wizards-black-star-promos-47/",
    "set-slug": "wizards-black-star-promos",
    "data": {
      "post_ID": "11114",
      "post_title": "Mew \u00b7 Wizards Black Star Promos #47",
      "card_attachment_id_jpg": "22159",
      "card_attachment_id_png": "",
      "card_name": "Mew",
      "card_number": "47",
      "card_text": "Pok\u00e9mon Power: Neutral Shield\r\nPrevent all effects of attacks, including damage, done to Mew by Evolved Pok\u00e9mon. You can't use this power if Mew is Asleep, Confused, or Paralyzed.\r\n\r\n{P} Psyshock: 10 damage. Flip a coin. If heads, the Defending Pok\u00e9mon is now Confused.",
      "flavor_text": "So rare that it is still said to be a mirage by many experts. Only a few people have seen it worldwide.",
      "pkmn_type[]": [
        "Pok\u00e9mon"
      ],
      "pkmn_artist[]": [
        "Ken Sugimori"
      ],
      "pkmn_rarity": "Promo",
      "pkmn_set": "Wizards Black Star Promos",
      "tcgplayer_id": "87397",
      "sorting_number": "47",
      "release_date_unix": "2002-06-01 12:47:00",
      "pkmn_print_type": "",
      "pkmn_regulation_mark": "",
      "pkmn_format[]": [
        "BS-on (1999\u20132001)",
        "RO-on (Modified 2002)",
        "Neo-on (Modified 2003)"
      ],
      "pkmn_series[]": [
        "Promos"
      ],
      "pkmn_collection": "",
      "pkmn_language": "",
      "card_prints": "",
      "pkmn_stage": "Basic",
      "pkmn_color[]": [
        "Psychic"
      ],
      "pkmn_hp": "40",
      "pkmn_weakness[]": [
        "Psychic"
      ],
      "pkmn_retreat_cost": "1",
      "pkmn_has[]": [
        "Pok\u00e9mon Power",
        "Flavor Text"
      ],
      "pkmn_level": "",
      "card_weakness_modifier": "",
      "card_resistance_modifier": ""
    }
  },
  {
    "id": 11115,
    "url": "https://pkmncards.com/card/articuno-wizards-black-star-promos-48/",
    "set-slug": "wizards-black-star-promos",
    "data": {
      "post_ID": "11115",
      "post_title": "Articuno \u00b7 Wizards Black Star Promos #48",
      "card_attachment_id_jpg": "22135",
      "card_attachment_id_png": "",
      "card_name": "Articuno",
      "card_number": "48",
      "card_text": "Pok\u00e9mon Power: Aurora Veil\r\nAs long as Articuno is your Active Pok\u00e9mon, your Benched Pok\u00e9mon do not take damage from and are not affected by attacks. This power cannot be used if Articuno is affected by a Special Condition.\r\n\r\n{W}{W}{C}{C} Ice Beam: 30 damage. Flip a coin. If heads, the Defending Pok\u00e9mon is now Paralyzed.",
      "flavor_text": "A legendary bird Pok\u00e9mon that is said to appear to doomed people who are lost in icy mountains.",
      "pkmn_type[]": [
        "Pok\u00e9mon"
      ],
      "pkmn_artist[]": [
        "Atsuko Nishida"
      ],
      "pkmn_rarity": "Promo",
      "pkmn_set": "Wizards Black Star Promos",
      "tcgplayer_id": "83648",
      "sorting_number": "48",
      "release_date_unix": "2002-07-01 12:48:00",
      "pkmn_print_type": "",
      "pkmn_regulation_mark": "",
      "pkmn_format[]": [
        "BS-on (1999\u20132001)",
        "RO-on (Modified 2002)",
        "Neo-on (Modified 2003)"
      ],
      "pkmn_series[]": [
        "Promos"
      ],
      "pkmn_collection": "",
      "pkmn_language": "",
      "card_prints": "",
      "pkmn_stage": "Basic",
      "pkmn_color[]": [
        "Water"
      ],
      "pkmn_hp": "80",
      "pkmn_retreat_cost": "2",
      "pkmn_resistance[]": [
        "Fighting"
      ],
      "pkmn_has[]": [
        "Pok\u00e9mon Power",
        "Flavor Text"
      ],
      "pkmn_level": "",
      "card_weakness_modifier": "",
      "card_resistance_modifier": "-30"
    }
  },
  {
    "id": 11116,
    "url": "https://pkmncards.com/card/snorlax-wizards-black-star-promos-49/",
    "set-slug": "wizards-black-star-promos",
    "data": {
      "post_ID": "11116",
      "post_title": "Snorlax \u00b7 Wizards Black Star Promos #49",
      "card_attachment_id_jpg": "22178",
      "card_attachment_id_png": "",
      "card_name": "Snorlax",
      "card_number": "49",
      "card_text": "Pok\u00e9mon Power: Guard\r\nAs long as Snorlax is your Active Pok\u00e9mon, the Defending Pok\u00e9mon can't Retreat. This power stops working when Snorlax is affected by a Special Condition.\r\n\r\n{C}{C}{C}{C} Roll Over: 30 damage. Snorlax is now Asleep. Flip a coin. If heads, the Defending Pok\u00e9mon is now Asleep.",
      "flavor_text": "Very lazy. Just eats and sleeps. As its rotund bulk builds, it becomes steadily more slothful.",
      "pkmn_type[]": [
        "Pok\u00e9mon"
      ],
      "pkmn_artist[]": [
        "Craig Turvey"
      ],
      "pkmn_rarity": "Promo",
      "pkmn_set": "Wizards Black Star Promos",
      "tcgplayer_id": "89385",
      "sorting_number": "49",
      "release_date_unix": "2002-08-01 12:49:00",
      "pkmn_print_type": "",
      "pkmn_regulation_mark": "",
      "pkmn_format[]": [
        "BS-on (1999\u20132001)",
        "RO-on (Modified 2002)",
        "Neo-on (Modified 2003)"
      ],
      "pkmn_series[]": [
        "Promos"
      ],
      "pkmn_collection": "",
      "pkmn_language": "",
      "card_prints": "",
      "pkmn_stage": "Basic",
      "pkmn_evolves_into[]": [
        "Snorlax LV.X"
      ],
      "pkmn_color[]": [
        "Colorless"
      ],
      "pkmn_hp": "90",
      "pkmn_weakness[]": [
        "Fighting"
      ],
      "pkmn_retreat_cost": "4",
      "pkmn_resistance[]": [
        "Psychic"
      ],
      "pkmn_has[]": [
        "Pok\u00e9mon Power",
        "Flavor Text"
      ],
      "pkmn_level": "",
      "card_weakness_modifier": "",
      "card_resistance_modifier": "-30"
    }
  },
  {
    "id": 11117,
    "url": "https://pkmncards.com/card/celebi-wizards-black-star-promos-50/",
    "set-slug": "wizards-black-star-promos",
    "data": {
      "post_ID": "11117",
      "post_title": "Celebi \u00b7 Wizards Black Star Promos #50",
      "card_attachment_id_jpg": "22137",
      "card_attachment_id_png": "",
      "card_name": "Celebi",
      "card_number": "50",
      "card_text": "{G}{C} Leaf Slice: 20x damage. Flip 2 coins. This attack does 20 damage times the number of heads.",
      "flavor_text": "",
      "pkmn_type[]": [
        "Pok\u00e9mon"
      ],
      "pkmn_artist[]": [
        "Hajime Kusajima"
      ],
      "pkmn_rarity": "Promo",
      "pkmn_set": "Wizards Black Star Promos",
      "tcgplayer_id": "84143",
      "sorting_number": "50",
      "release_date_unix": "2002-10-25 12:50:00",
      "pkmn_print_type": "",
      "pkmn_regulation_mark": "",
      "pkmn_format[]": [
        "BS-on (1999\u20132001)",
        "RO-on (Modified 2002)",
        "Neo-on (Modified 2003)",
        "E-on (Modified 2004)"
      ],
      "pkmn_series[]": [
        "Promos"
      ],
      "pkmn_collection": "",
      "pkmn_language": "",
      "card_prints": "",
      "pkmn_stage": "Basic",
      "pkmn_color[]": [
        "Grass"
      ],
      "pkmn_hp": "50",
      "pkmn_weakness[]": [
        "Fire"
      ],
      "pkmn_retreat_cost": "1",
      "pkmn_level": "",
      "card_weakness_modifier": "",
      "card_resistance_modifier": ""
    }
  },
  {
    "id": 11118,
    "url": "https://pkmncards.com/card/rapidash-wizards-black-star-promos-51/",
    "set-slug": "wizards-black-star-promos",
    "data": {
      "post_ID": "11118",
      "post_title": "Rapidash \u00b7 Wizards Black Star Promos #51",
      "card_attachment_id_jpg": "22173",
      "card_attachment_id_png": "",
      "card_name": "Rapidash",
      "card_number": "51",
      "card_text": "{C}{C} Jump Over: If your opponent has any Benched Pok\u00e9mon, choose 1 of them. Flip a coin. If heads, this attack does 20 damage to that Pok\u00e9mon. (Don't apply Weakness and Resistance for Benched Pok\u00e9mon.)\r\n\r\n{R}{C}{C} Super Singe: 30 damage. Flip a coin. If heads, the Defending Pok\u00e9mon is now Burned.",
      "flavor_text": "",
      "pkmn_type[]": [
        "Pok\u00e9mon"
      ],
      "pkmn_artist[]": [
        "Mitsuhiro Arita"
      ],
      "pkmn_rarity": "Promo",
      "pkmn_set": "Wizards Black Star Promos",
      "tcgplayer_id": "88575",
      "sorting_number": "51",
      "release_date_unix": "2002-11-01 12:51:00",
      "pkmn_print_type": "",
      "pkmn_regulation_mark": "",
      "pkmn_format[]": [
        "BS-on (1999\u20132001)",
        "RO-on (Modified 2002)",
        "Neo-on (Modified 2003)",
        "E-on (Modified 2004)"
      ],
      "pkmn_series[]": [
        "Promos"
      ],
      "pkmn_collection": "",
      "pkmn_language": "",
      "card_prints": "",
      "pkmn_stage": "Stage 1",
      "pkmn_evolves_from[]": [
        "Ponyta"
      ],
      "pkmn_color[]": [
        "Fire"
      ],
      "pkmn_hp": "60",
      "pkmn_weakness[]": [
        "Water"
      ],
      "pkmn_retreat_cost": "0",
      "pkmn_level": "",
      "card_weakness_modifier": "",
      "card_resistance_modifier": ""
    }
  },
  {
    "id": 11119,
    "url": "https://pkmncards.com/card/ho-oh-wizards-black-star-promos-52/",
    "set-slug": "wizards-black-star-promos",
    "data": {
      "post_ID": "11119",
      "post_title": "Ho-oh \u00b7 Wizards Black Star Promos #52",
      "card_attachment_id_jpg": "22149",
      "card_attachment_id_png": "",
      "card_name": "Ho-oh",
      "card_number": "52",
      "card_text": "{R}{R}{C}{C} Sacred Wing: 60 damage. Flip a coin. If tails, this attack's base damage is 20 instead of 60.",
      "flavor_text": "",
      "pkmn_type[]": [
        "Pok\u00e9mon"
      ],
      "pkmn_artist[]": [
        "Mitsuhiro Arita"
      ],
      "pkmn_rarity": "Promo",
      "pkmn_set": "Wizards Black Star Promos",
      "tcgplayer_id": "86120",
      "sorting_number": "52",
      "release_date_unix": "2002-11-01 12:52:00",
      "pkmn_print_type": "",
      "pkmn_regulation_mark": "",
      "pkmn_format[]": [
        "BS-on (1999\u20132001)",
        "RO-on (Modified 2002)",
        "Neo-on (Modified 2003)",
        "E-on (Modified 2004)"
      ],
      "pkmn_series[]": [
        "Promos"
      ],
      "pkmn_collection": "",
      "pkmn_language": "",
      "card_prints": "",
      "pkmn_stage": "Basic",
      "pkmn_evolves_into[]": [
        "Ho-Oh BREAK"
      ],
      "pkmn_color[]": [
        "Fire"
      ],
      "pkmn_hp": "80",
      "pkmn_weakness[]": [
        "Water"
      ],
      "pkmn_retreat_cost": "2",
      "pkmn_resistance[]": [
        "Fighting"
      ],
      "pkmn_level": "",
      "card_weakness_modifier": "",
      "card_resistance_modifier": "-30"
    }
  },
  {
    "id": 11120,
    "url": "https://pkmncards.com/card/suicune-wizards-black-star-promos-53/",
    "set-slug": "wizards-black-star-promos",
    "data": {
      "post_ID": "11120",
      "post_title": "Suicune \u00b7 Wizards Black Star Promos #53",
      "card_attachment_id_jpg": "22179",
      "card_attachment_id_png": "",
      "card_name": "Suicune",
      "card_number": "53",
      "card_text": "Pok\u00e9-Body: Pure Body\r\nTo attach a {W} Energy card from your hand to Suicune, you must discard an Energy card attached to Suicune. (Attach the {W} Energy, and then discard an Energy card from Suicune.)\r\n\r\n{W}{C}{C} Hypno Wave: 30+ damage. Flip a coin. If heads, this attack does 30 damage plus 20 more damage. If tails, this attack does 30 damage and the Defending Pok\u00e9mon is now Asleep.",
      "flavor_text": "",
      "pkmn_type[]": [
        "Pok\u00e9mon"
      ],
      "pkmn_artist[]": [
        "Atsuko Nishida"
      ],
      "pkmn_rarity": "Promo",
      "pkmn_set": "Wizards Black Star Promos",
      "tcgplayer_id": "89601",
      "sorting_number": "53",
      "release_date_unix": "2003-03-18 12:53:00",
      "pkmn_print_type": "",
      "pkmn_regulation_mark": "",
      "pkmn_format[]": [
        "BS-on (1999\u20132001)",
        "RO-on (Modified 2002)",
        "Neo-on (Modified 2003)",
        "E-on (Modified 2004)"
      ],
      "pkmn_series[]": [
        "Promos"
      ],
      "pkmn_collection": "",
      "pkmn_language": "",
      "card_prints": "",
      "pkmn_stage": "Basic",
      "pkmn_color[]": [
        "Water"
      ],
      "pkmn_hp": "70",
      "pkmn_weakness[]": [
        "Lightning"
      ],
      "pkmn_retreat_cost": "1",
      "pkmn_has[]": [
        "Pok\u00e9-Body"
      ],
      "pkmn_level": "",
      "card_weakness_modifier": "",
      "card_resistance_modifier": ""
    }
  }
]