[
  {
    "id": 71014,
    "url": "https://pkmncards.com/card/caterpie-mcdonalds-collection-2019-mcd19-1/",
    "set-slug": "mcdonalds-collection-2019",
    "data": {
      "post_ID": "71014",
      "post_title": "Caterpie \u00b7 McDonald's Collection 2019 (MCD19) #1",
      "card_attachment_id_jpg": "71015",
      "card_attachment_id_png": "",
      "card_name": "Caterpie",
      "card_number": "1",
      "card_text": "{G} Surprise Attack: 20 damage. Flip a coin. If tails, this attack does nothing.",
      "flavor_text": "When attacked by bird Pok\u00e9mon, it resists by releasing a terrifically strong odor from its antennae, but it often becomes their prey.",
      "pkmn_type[]": [
        "Pok\u00e9mon"
      ],
      "pkmn_artist[]": [
        "Sekio"
      ],
      "pkmn_rarity": "Promo",
      "pkmn_set": "McDonald's Collection 2019",
      "tcgplayer_id": "200960",
      "sorting_number": "1",
      "release_date_unix": "2019-10-01 12:01:00",
      "pkmn_print_type": "",
      "pkmn_regulation_mark": "",
      "pkmn_format[]": [
        "BLW-on (Expanded 2020)",
        "BLW-on (Expanded 2021)",
        "BLW-on (Expanded 2022)"
      ],
      "pkmn_series[]": [
        "Other",
        "Sun & Moon"
      ],
      "pkmn_collection": "",
      "pkmn_language": "",
      "card_prints": "",
      "pkmn_stage": "Basic",
      "pkmn_evolves_into[]": [
        "Metapod"
      ],
      "pkmn_color[]": [
        "Grass"
      ],
      "pkmn_hp": "50",
      "pkmn_weakness[]": [
        "Fire"
      ],
      "pkmn_retreat_cost": "1",
      "pkmn_has[]": [
        "Flavor Text"
      ],
      "pkmn_level": "",
      "card_weakness_modifier": "",
      "card_resistance_modifier": ""
    }
  },
  {
    "id": 71025,
    "url": "https://pkmncards.com/card/alolan-exeggutor-mcdonalds-collection-2019-mcd19-2/",
    "set-slug": "mcdonalds-collection-2019",
    "data": {
      "post_ID": "71025",
      "post_title": "Alolan Exeggutor \u00b7 McDonald's Collection 2019 (MCD19) #2",
      "card_attachment_id_jpg": "71024",
      "card_attachment_id_png": "",
      "card_name": "Alolan Exeggutor",
      "card_number": "2",
      "card_text": "{G} Tropical Shake: 20+ damage. This attack does 20 more damage for each type of basic Energy card in your discard pile. You can't add more than 100 damage in this way.",
      "flavor_text": "As it grew taller and taller, it outgrew its reliance on psychic powers, while within it awakened the power of the sleeping dragon.",
      "pkmn_type[]": [
        "Pok\u00e9mon"
      ],
      "pkmn_artist[]": [
        "Satoshi Shirai"
      ],
      "pkmn_rarity": "Promo",
      "pkmn_set": "McDonald's Collection 2019",
      "tcgplayer_id": "200961",
      "sorting_number": "2",
      "release_date_unix": "2019-10-01 12:02:00",
      "pkmn_print_type": "",
      "pkmn_regulation_mark": "",
      "pkmn_format[]": [
        "BLW-on (Expanded 2020)",
        "BLW-on (Expanded 2021)",
        "BLW-on (Expanded 2022)"
      ],
      "pkmn_series[]": [
        "Other",
        "Sun & Moon"
      ],
      "pkmn_collection": "",
      "pkmn_language": "",
      "card_prints": "",
      "pkmn_stage": "Stage 1",
      "pkmn_evolves_from[]": [
        "Exeggcute"
      ],
      "pkmn_color[]": [
        "Grass"
      ],
      "pkmn_hp": "160",
      "pkmn_weakness[]": [
        "Fire"
      ],
      "pkmn_retreat_cost": "3",
      "pkmn_is[]": [
        "Alolan"
      ],
      "pkmn_has[]": [
        "Flavor Text"
      ],
      "pkmn_level": "",
      "card_weakness_modifier": "",
      "card_resistance_modifier": ""
    }
  },
  {
    "id": 71030,
    "url": "https://pkmncards.com/card/magmar-mcdonalds-collection-2019-mcd19-3/",
    "set-slug": "mcdonalds-collection-2019",
    "data": {
      "post_ID": "71030",
      "post_title": "Magmar \u00b7 McDonald's Collection 2019 (MCD19) #3",
      "card_attachment_id_jpg": "71031",
      "card_attachment_id_png": "",
      "card_name": "Magmar",
      "card_number": "3",
      "card_text": "{R} Controlled Burn: Discard the top card of your opponent's deck.\r\n\r\n{R}{R}{C} Flamethrower: 80 damage. Discard an Energy from this Pok\u00e9mon.",
      "flavor_text": "When angered, it spouts brilliant fire from all over its body. It doesn't calm down until its opponent has burned to ash.",
      "pkmn_type[]": [
        "Pok\u00e9mon"
      ],
      "pkmn_artist[]": [
        "Yumi"
      ],
      "pkmn_rarity": "Promo",
      "pkmn_set": "McDonald's Collection 2019",
      "tcgplayer_id": "200963",
      "sorting_number": "3",
      "release_date_unix": "2019-10-01 12:03:00",
      "pkmn_print_type": "",
      "pkmn_regulation_mark": "",
      "pkmn_format[]": [
        "BLW-on (Expanded 2020)",
        "BLW-on (Expanded 2021)",
        "BLW-on (Expanded 2022)"
      ],
      "pkmn_series[]": [
        "Other",
        "Sun & Moon"
      ],
      "pkmn_collection": "",
      "pkmn_language": "",
      "card_prints": "",
      "pkmn_stage": "Basic",
      "pkmn_evolves_into[]": [
        "Magmortar"
      ],
      "pkmn_color[]": [
        "Fire"
      ],
      "pkmn_hp": "80",
      "pkmn_weakness[]": [
        "Water"
      ],
      "pkmn_retreat_cost": "2",
      "pkmn_has[]": [
        "Flavor Text"
      ],
      "pkmn_level": "",
      "card_weakness_modifier": "",
      "card_resistance_modifier": ""
    }
  },
  {
    "id": 71032,
    "url": "https://pkmncards.com/card/alolan-sandshrew-mcdonalds-collection-2019-mcd19-4/",
    "set-slug": "mcdonalds-collection-2019",
    "data": {
      "post_ID": "71032",
      "post_title": "Alolan Sandshrew \u00b7 McDonald's Collection 2019 (MCD19) #4",
      "card_attachment_id_jpg": "71033",
      "card_attachment_id_png": "",
      "card_name": "Alolan Sandshrew",
      "card_number": "4",
      "card_text": "{@} Fury Swipes: 10x damage. Flip 3 coins. This attack does 10 damage for each heads.",
      "flavor_text": "An ancient tradition of Alolan festivals, still carried on to this day, is a competition to slide Sandshrew across ice as far as one can.",
      "pkmn_type[]": [
        "Pok\u00e9mon"
      ],
      "pkmn_artist[]": [
        "Shin Nagasawa"
      ],
      "pkmn_rarity": "Promo",
      "pkmn_set": "McDonald's Collection 2019",
      "tcgplayer_id": "200964",
      "sorting_number": "4",
      "release_date_unix": "2019-10-01 12:04:00",
      "pkmn_print_type": "",
      "pkmn_regulation_mark": "",
      "pkmn_format[]": [
        "BLW-on (Expanded 2020)",
        "BLW-on (Expanded 2021)",
        "BLW-on (Expanded 2022)"
      ],
      "pkmn_series[]": [
        "Other",
        "Sun & Moon"
      ],
      "pkmn_collection": "",
      "pkmn_language": "",
      "card_prints": "",
      "pkmn_stage": "Basic",
      "pkmn_evolves_into[]": [
        "Alolan Sandslash",
        "Alolan Sandslash-GX"
      ],
      "pkmn_color[]": [
        "Water"
      ],
      "pkmn_hp": "60",
      "pkmn_weakness[]": [
        "Metal"
      ],
      "pkmn_retreat_cost": "1",
      "pkmn_is[]": [
        "Alolan"
      ],
      "pkmn_has[]": [
        "Flavor Text"
      ],
      "pkmn_level": "",
      "card_weakness_modifier": "",
      "card_resistance_modifier": ""
    }
  },
  {
    "id": 71055,
    "url": "https://pkmncards.com/card/lapras-mcdonalds-collection-2019-mcd19-5/",
    "set-slug": "mcdonalds-collection-2019",
    "data": {
      "post_ID": "71055",
      "post_title": "Lapras \u00b7 McDonald's Collection 2019 (MCD19) #5",
      "card_attachment_id_jpg": "71042",
      "card_attachment_id_png": "",
      "card_name": "Lapras",
      "card_number": "5",
      "card_text": "{W} Aqua Bullet: 20 damage. This attack does 20 damage to 1 of your opponent's Benched Pok\u00e9mon. (Don't apply Weakness and Resistance for Benched Pok\u00e9mon.)\r\n\r\n{C}{C}{C} Hydro Pump: 70+ damage. This attack does 10 more damage times the amount of {W} Energy attached to this Pok\u00e9mon.",
      "flavor_text": "These Pok\u00e9mon were once near extinction due to poaching. Following protective regulations, there is now an overabundance of them.",
      "pkmn_type[]": [
        "Pok\u00e9mon"
      ],
      "pkmn_artist[]": [
        "Saya Tsuruta"
      ],
      "pkmn_rarity": "Promo",
      "pkmn_set": "McDonald's Collection 2019",
      "tcgplayer_id": "200966",
      "sorting_number": "5",
      "release_date_unix": "2019-10-01 12:05:00",
      "pkmn_print_type": "",
      "pkmn_regulation_mark": "",
      "pkmn_format[]": [
        "BLW-on (Expanded 2020)",
        "BLW-on (Expanded 2021)",
        "BLW-on (Expanded 2022)"
      ],
      "pkmn_series[]": [
        "Other",
        "Sun & Moon"
      ],
      "pkmn_collection": "",
      "pkmn_language": "",
      "card_prints": "",
      "pkmn_stage": "Basic",
      "pkmn_color[]": [
        "Water"
      ],
      "pkmn_hp": "120",
      "pkmn_weakness[]": [
        "Grass"
      ],
      "pkmn_retreat_cost": "2",
      "pkmn_has[]": [
        "Flavor Text"
      ],
      "pkmn_level": "",
      "card_weakness_modifier": "",
      "card_resistance_modifier": ""
    }
  },
  {
    "id": 71054,
    "url": "https://pkmncards.com/card/pikachu-mcdonalds-collection-2019-mcd19-6/",
    "set-slug": "mcdonalds-collection-2019",
    "data": {
      "post_ID": "71054",
      "post_title": "Pikachu \u00b7 McDonald's Collection 2019 (MCD19) #6",
      "card_attachment_id_jpg": "71047",
      "card_attachment_id_png": "",
      "card_name": "Pikachu",
      "card_number": "6",
      "card_text": "{L} Iron Tail: 20x damage. Flip a coin until you get tails. This attack does 20 damage for each heads.",
      "flavor_text": "A plan was recently announced to gather many Pikachu and make an electric power plant.",
      "pkmn_type[]": [
        "Pok\u00e9mon"
      ],
      "pkmn_artist[]": [
        "Kagemaru Himeno"
      ],
      "pkmn_rarity": "Promo",
      "pkmn_set": "McDonald's Collection 2019",
      "tcgplayer_id": "200967",
      "sorting_number": "6",
      "release_date_unix": "2019-10-01 12:06:00",
      "pkmn_print_type": "",
      "pkmn_regulation_mark": "",
      "pkmn_format[]": [
        "BLW-on (Expanded 2020)",
        "BLW-on (Expanded 2021)",
        "BLW-on (Expanded 2022)"
      ],
      "pkmn_series[]": [
        "Other",
        "Sun & Moon"
      ],
      "pkmn_collection": "",
      "pkmn_language": "",
      "card_prints": "",
      "pkmn_stage": "Basic",
      "pkmn_evolves_into[]": [
        "Raichu",
        "Dark Raichu",
        "Raichu ex",
        "Raichu-GX",
        "Alolan Raichu"
      ],
      "pkmn_color[]": [
        "Lightning"
      ],
      "pkmn_hp": "60",
      "pkmn_weakness[]": [
        "Fighting"
      ],
      "pkmn_retreat_cost": "1",
      "pkmn_resistance[]": [
        "Metal"
      ],
      "pkmn_has[]": [
        "Flavor Text"
      ],
      "pkmn_level": "",
      "card_weakness_modifier": "",
      "card_resistance_modifier": ""
    }
  },
  {
    "id": 71053,
    "url": "https://pkmncards.com/card/gastly-mcdonalds-collection-2019-mcd19-7/",
    "set-slug": "mcdonalds-collection-2019",
    "data": {
      "post_ID": "71053",
      "post_title": "Gastly \u00b7 McDonald's Collection 2019 (MCD19) #7",
      "card_attachment_id_jpg": "71048",
      "card_attachment_id_png": "",
      "card_name": "Gastly",
      "card_number": "7",
      "card_text": "{P} Ominous Eyes: Put 1 damage counter on 1 of your opponent's Pok\u00e9mon.",
      "flavor_text": "Should a strange light be seen flickering in an abandoned building, Gastly is lurking there.",
      "pkmn_type[]": [
        "Pok\u00e9mon"
      ],
      "pkmn_artist[]": [
        "Shibuzoh."
      ],
      "pkmn_rarity": "Promo",
      "pkmn_set": "McDonald's Collection 2019",
      "tcgplayer_id": "200969",
      "sorting_number": "7",
      "release_date_unix": "2019-10-01 12:07:00",
      "pkmn_print_type": "",
      "pkmn_regulation_mark": "",
      "pkmn_format[]": [
        "BLW-on (Expanded 2020)",
        "BLW-on (Expanded 2021)",
        "BLW-on (Expanded 2022)"
      ],
      "pkmn_series[]": [
        "Other",
        "Sun & Moon"
      ],
      "pkmn_collection": "",
      "pkmn_language": "",
      "card_prints": "",
      "pkmn_stage": "Basic",
      "pkmn_evolves_into[]": [
        "Haunter",
        "Dark Haunter"
      ],
      "pkmn_color[]": [
        "Psychic"
      ],
      "pkmn_hp": "50",
      "pkmn_weakness[]": [
        "Darkness"
      ],
      "pkmn_retreat_cost": "1",
      "pkmn_resistance[]": [
        "Fighting"
      ],
      "pkmn_has[]": [
        "Flavor Text"
      ],
      "pkmn_level": "",
      "card_weakness_modifier": "",
      "card_resistance_modifier": ""
    }
  },
  {
    "id": 71052,
    "url": "https://pkmncards.com/card/mankey-mcdonalds-collection-2019-mcd19-8/",
    "set-slug": "mcdonalds-collection-2019",
    "data": {
      "post_ID": "71052",
      "post_title": "Mankey \u00b7 McDonald's Collection 2019 (MCD19) #8",
      "card_attachment_id_jpg": "71050",
      "card_attachment_id_png": "",
      "card_name": "Mankey",
      "card_number": "8",
      "card_text": "{F} Three-Step Strike: 10x damage. Flip 3 coins. This attack does 10 damage for each heads.",
      "flavor_text": "It can spontaneously become enraged. Everyone near it clears out as it rampages and the resulting loneliness makes it angrier still.",
      "pkmn_type[]": [
        "Pok\u00e9mon"
      ],
      "pkmn_artist[]": [
        "Miki Tanaka"
      ],
      "pkmn_rarity": "Promo",
      "pkmn_set": "McDonald's Collection 2019",
      "tcgplayer_id": "200971",
      "sorting_number": "8",
      "release_date_unix": "2019-10-01 12:08:00",
      "pkmn_print_type": "",
      "pkmn_regulation_mark": "",
      "pkmn_format[]": [
        "BLW-on (Expanded 2020)",
        "BLW-on (Expanded 2021)",
        "BLW-on (Expanded 2022)"
      ],
      "pkmn_series[]": [
        "Other",
        "Sun & Moon"
      ],
      "pkmn_collection": "",
      "pkmn_language": "",
      "card_prints": "",
      "pkmn_stage": "Basic",
      "pkmn_evolves_into[]": [
        "Primeape",
        "Dark Primeape"
      ],
      "pkmn_color[]": [
        "Fighting"
      ],
      "pkmn_hp": "60",
      "pkmn_weakness[]": [
        "Psychic"
      ],
      "pkmn_retreat_cost": "1",
      "pkmn_has[]": [
        "Flavor Text"
      ],
      "pkmn_level": "",
      "card_weakness_modifier": "",
      "card_resistance_modifier": ""
    }
  },
  {
    "id": 71049,
    "url": "https://pkmncards.com/card/onix-mcdonalds-collection-2019-mcd19-9/",
    "set-slug": "mcdonalds-collection-2019",
    "data": {
      "post_ID": "71049",
      "post_title": "Onix \u00b7 McDonald's Collection 2019 (MCD19) #9",
      "card_attachment_id_jpg": "71051",
      "card_attachment_id_png": "",
      "card_name": "Onix",
      "card_number": "9",
      "card_text": "{C} Screech: During your next turn, the Defending Pok\u00e9mon takes 20 more damage from attacks (after applying Weakness and Resistance).\r\n\r\n{F}{F} Rage: 10+ damage. This attack does 10 more damage for each damage counter on this Pok\u00e9mon.",
      "flavor_text": "It usually lives underground. It searches for food while boring its way through the ground at 50 miles per hour.",
      "pkmn_type[]": [
        "Pok\u00e9mon"
      ],
      "pkmn_artist[]": [
        "Mitsuhiro Arita"
      ],
      "pkmn_rarity": "Promo",
      "pkmn_set": "McDonald's Collection 2019",
      "tcgplayer_id": "200973",
      "sorting_number": "9",
      "release_date_unix": "2019-10-01 12:09:00",
      "pkmn_print_type": "",
      "pkmn_regulation_mark": "",
      "pkmn_format[]": [
        "BLW-on (Expanded 2020)",
        "BLW-on (Expanded 2021)",
        "BLW-on (Expanded 2022)"
      ],
      "pkmn_series[]": [
        "Other",
        "Sun & Moon"
      ],
      "pkmn_collection": "",
      "pkmn_language": "",
      "card_prints": "",
      "pkmn_stage": "Basic",
      "pkmn_evolves_into[]": [
        "Steelix",
        "Steelix ex",
        "Dark Steelix"
      ],
      "pkmn_color[]": [
        "Fighting"
      ],
      "pkmn_hp": "100",
      "pkmn_weakness[]": [
        "Grass"
      ],
      "pkmn_retreat_cost": "2",
      "pkmn_has[]": [
        "Flavor Text"
      ],
      "pkmn_level": "",
      "card_weakness_modifier": "",
      "card_resistance_modifier": ""
    }
  },
  {
    "id": 71045,
    "url": "https://pkmncards.com/card/alolan-meowth-mcdonalds-collection-2019-mcd19-10/",
    "set-slug": "mcdonalds-collection-2019",
    "data": {
      "post_ID": "71045",
      "post_title": "Alolan Meowth \u00b7 McDonald's Collection 2019 (MCD19) #10",
      "card_attachment_id_jpg": "71046",
      "card_attachment_id_png": "",
      "card_name": "Alolan Meowth",
      "card_number": "10",
      "card_text": "{@} Spoil the Fun: 10+. If you go second, this attack does 60 more damage during your first turn.",
      "flavor_text": "When its delicate pride is wounded, or when the gold coin on its forehead is dirtied, it flies into a hysterical rage.",
      "pkmn_type[]": [
        "Pok\u00e9mon"
      ],
      "pkmn_artist[]": [
        "Akira Komayama"
      ],
      "pkmn_rarity": "Promo",
      "pkmn_set": "McDonald's Collection 2019",
      "tcgplayer_id": "200975",
      "sorting_number": "10",
      "release_date_unix": "2019-10-01 12:10:00",
      "pkmn_print_type": "",
      "pkmn_regulation_mark": "",
      "pkmn_format[]": [
        "BLW-on (Expanded 2020)",
        "BLW-on (Expanded 2021)",
        "BLW-on (Expanded 2022)"
      ],
      "pkmn_series[]": [
        "Other",
        "Sun & Moon"
      ],
      "pkmn_collection": "",
      "pkmn_language": "",
      "card_prints": "",
      "pkmn_stage": "Basic",
      "pkmn_evolves_into[]": [
        "Alolan Persian",
        "Alolan Persian-GX"
      ],
      "pkmn_color[]": [
        "Darkness"
      ],
      "pkmn_hp": "60",
      "pkmn_weakness[]": [
        "Fighting"
      ],
      "pkmn_retreat_cost": "1",
      "pkmn_resistance[]": [
        "Psychic"
      ],
      "pkmn_is[]": [
        "Alolan"
      ],
      "pkmn_has[]": [
        "Flavor Text"
      ],
      "pkmn_level": "",
      "card_weakness_modifier": "",
      "card_resistance_modifier": ""
    }
  },
  {
    "id": 71043,
    "url": "https://pkmncards.com/card/alolan-dugtrio-mcdonalds-collection-2019-mcd19-11/",
    "set-slug": "mcdonalds-collection-2019",
    "data": {
      "post_ID": "71043",
      "post_title": "Alolan Dugtrio \u00b7 McDonald's Collection 2019 (MCD19) #11",
      "card_attachment_id_jpg": "71044",
      "card_attachment_id_png": "",
      "card_name": "Alolan Dugtrio",
      "card_number": "11",
      "card_text": "{@} Gold Rush: 30x damage. Discard any number of {M} Energy cards from your hand. This attack does 30 damage for each card you discarded in this way.",
      "flavor_text": "These Pok\u00e9mon are cherished in the Alola region, where they are thought to be feminine deities of the land incarnate.",
      "pkmn_type[]": [
        "Pok\u00e9mon"
      ],
      "pkmn_artist[]": [
        "Megumi Mizutani"
      ],
      "pkmn_rarity": "Promo",
      "pkmn_set": "McDonald's Collection 2019",
      "tcgplayer_id": "200976",
      "sorting_number": "11",
      "release_date_unix": "2019-10-01 12:11:00",
      "pkmn_print_type": "",
      "pkmn_regulation_mark": "",
      "pkmn_format[]": [
        "BLW-on (Expanded 2020)",
        "BLW-on (Expanded 2021)",
        "BLW-on (Expanded 2022)"
      ],
      "pkmn_series[]": [
        "Other",
        "Sun & Moon"
      ],
      "pkmn_collection": "",
      "pkmn_language": "",
      "card_prints": "",
      "pkmn_stage": "Stage 1",
      "pkmn_evolves_from[]": [
        "Alolan Diglett"
      ],
      "pkmn_color[]": [
        "Metal"
      ],
      "pkmn_hp": "60",
      "pkmn_weakness[]": [
        "Fire"
      ],
      "pkmn_retreat_cost": "1",
      "pkmn_resistance[]": [
        "Psychic"
      ],
      "pkmn_is[]": [
        "Alolan"
      ],
      "pkmn_has[]": [
        "Flavor Text"
      ],
      "pkmn_level": "",
      "card_weakness_modifier": "",
      "card_resistance_modifier": ""
    }
  },
  {
    "id": 71040,
    "url": "https://pkmncards.com/card/eevee-mcdonalds-collection-2019-mcd19-12/",
    "set-slug": "mcdonalds-collection-2019",
    "data": {
      "post_ID": "71040",
      "post_title": "Eevee \u00b7 McDonald's Collection 2019 (MCD19) #12",
      "card_attachment_id_jpg": "71041",
      "card_attachment_id_png": "",
      "card_name": "Eevee",
      "card_number": "12",
      "card_text": "{C} Gnaw: 20 damage.",
      "flavor_text": "Current studies show it can evolve into an incredible eight different species of Pok\u00e9mon.",
      "pkmn_type[]": [
        "Pok\u00e9mon"
      ],
      "pkmn_artist[]": [
        "Atsuko Nishida"
      ],
      "pkmn_rarity": "Promo",
      "pkmn_set": "McDonald's Collection 2019",
      "tcgplayer_id": "200977",
      "sorting_number": "12",
      "release_date_unix": "2019-10-01 12:12:00",
      "pkmn_print_type": "",
      "pkmn_regulation_mark": "",
      "pkmn_format[]": [
        "BLW-on (Expanded 2020)",
        "BLW-on (Expanded 2021)",
        "BLW-on (Expanded 2022)"
      ],
      "pkmn_series[]": [
        "Other",
        "Sun & Moon"
      ],
      "pkmn_collection": "",
      "pkmn_language": "",
      "card_prints": "",
      "pkmn_stage": "Basic",
      "pkmn_evolves_into[]": [
        "Espeon",
        "Flareon",
        "Jolteon",
        "Leafeon",
        "Umbreon",
        "Vaporeon",
        "Dark Flareon",
        "Dark Jolteon",
        "Dark Vaporeon",
        "Glaceon",
        "Flareon ex",
        "Jolteon ex",
        "Vaporeon ex",
        "Espeon ex",
        "Umbreon ex",
        "Dark Espeon",
        "Light Flareon",
        "Light Jolteon",
        "Light Vaporeon",
        "Sylveon",
        "Espeon-GX",
        "Umbreon-GX",
        "Sylveon-GX",
        "Leafeon-GX",
        "Glaceon-GX",
        "Flareon-GX",
        "Vaporeon-GX",
        "Jolteon-GX"
      ],
      "pkmn_color[]": [
        "Colorless"
      ],
      "pkmn_hp": "60",
      "pkmn_weakness[]": [
        "Fighting"
      ],
      "pkmn_retreat_cost": "1",
      "pkmn_has[]": [
        "Flavor Text"
      ],
      "pkmn_level": "",
      "card_weakness_modifier": "",
      "card_resistance_modifier": ""
    }
  }
]